09:13:03 329	Info:RunExe->cmd=netstat -ano
09:13:06 149	Info:RunExe->cmd="F:\projects\rk3288\rk3288烧录\AndroidTool_Release_v2.35\bin\adb.exe" -s 0123456789ABCDEF reboot bootloader
09:13:20 661	Layer<3-3>:测试设备开始
09:13:20 664	Layer<3-3>:测试设备成功
09:13:20 666	Layer<3-3>:校验芯片开始
09:13:20 667	Layer<3-3>:校验芯片成功
09:13:20 669	Layer<3-3>:获取FlashInfo开始
09:13:20 688	<LAYER 3-3> INFO:FlashInfo: 00 F0 D1 01 00 04 04 00 28 00 01
09:13:20 690	Layer<3-3>:获取FlashInfo成功
09:13:20 692	Layer<3-3>:准备IDB开始
09:13:20 712	<LAYER 3-3> INFO:CS(1)		(14910MB)		(SAMSUNG)
09:13:20 722	Layer<3-3>:准备IDB成功
09:13:20 724	Layer<3-3>:下载IDB开始
09:13:21 096	Layer<3-3>:下载IDB成功
09:13:21 098	Layer<3-3>:重启设备开始
09:13:22 101	Layer<3-3>:重启设备成功
09:13:22 103	Layer<3-3>:等待Loader开始
09:13:23 010	Layer<3-3>:等待Loader成功
09:13:23 012	Layer<3-3>:测试设备开始
09:13:23 015	Layer<3-3>:测试设备成功
09:13:23 026	Layer<3-3>: Download misc...
09:13:23 039	Layer<3-3>: Download resource...
09:13:23 082	Layer<3-3>: Download kernel...
09:13:23 755	Layer<3-3>: Download boot...
09:13:23 855	Layer<3-3>: Download recovery...
09:13:24 923	Layer<3-3>: Download system...
09:13:56 133	Layer<3-3>: RunProc is ending, ret=1
09:18:31 716	Layer<3-3>:测试设备开始
09:18:31 719	Layer<3-3>:测试设备成功
09:18:31 720	Layer<3-3>:校验芯片开始
09:18:31 722	Layer<3-3>:校验芯片成功
09:18:31 724	Layer<3-3>:获取FlashInfo开始
09:18:31 725	<LAYER 3-3> INFO:FlashInfo: 00 F0 D1 01 00 04 04 00 28 00 01
09:18:31 727	Layer<3-3>:获取FlashInfo成功
09:18:31 729	Layer<3-3>:准备IDB开始
09:18:31 729	<LAYER 3-3> INFO:CS(1)		(14910MB)		(SAMSUNG)
09:18:31 738	Layer<3-3>:准备IDB成功
09:18:31 741	Layer<3-3>:下载IDB开始
09:18:32 109	Layer<3-3>:下载IDB成功
09:18:32 111	Layer<3-3>:重启设备开始
09:18:33 142	Layer<3-3>:重启设备成功
09:18:33 148	Layer<3-3>:等待Loader开始
09:18:34 024	Layer<3-3>:等待Loader成功
09:18:34 026	Layer<3-3>:测试设备开始
09:18:34 029	Layer<3-3>:测试设备成功
09:18:34 033	Layer<3-3>: Download misc...
09:18:34 046	Layer<3-3>: Download resource...
09:18:34 089	Layer<3-3>: Download kernel...
09:18:34 625	Layer<3-3>: Download boot...
09:18:34 725	Layer<3-3>: Download recovery...
09:18:35 451	Layer<3-3>: Download system...
09:19:06 391	Layer<3-3>: RunProc is ending, ret=1
10:35:16 237	Android开发工具 v2.3.5.2 start run
10:36:05 092	Info:RunExe->cmd=netstat -ano
10:36:08 499	ERROR:GetAdbSerialno->AdbCreateInterfaceByName failed,err=5,dev=\\?\USB#VID_2207&PID_0006#5&109BC972&0&3#{f72fe0d4-cbcb-407d-8814-9ed673d0dd6b}!
10:36:08 499	ERROR:AdbToRockusb->GetAdbSerialno failed!
10:36:08 500	Info:RunExe->cmd="F:\projects\rk3288\rk3288烧录\AndroidTool_Release_v2.35\bin\adb.exe" reboot bootloader
10:36:23 348	Layer<3-3>:测试设备开始
10:36:23 351	Layer<3-3>:测试设备成功
10:36:23 352	Layer<3-3>:校验芯片开始
10:36:23 354	Layer<3-3>:校验芯片成功
10:36:23 355	Layer<3-3>:获取FlashInfo开始
10:36:23 356	<LAYER 3-3> INFO:FlashInfo: 00 F0 D1 01 00 04 04 00 28 00 01
10:36:23 358	Layer<3-3>:获取FlashInfo成功
10:36:23 360	Layer<3-3>:准备IDB开始
10:36:23 361	<LAYER 3-3> INFO:CS(1)		(14910MB)		(SAMSUNG)
10:36:23 370	Layer<3-3>:准备IDB成功
10:36:23 372	Layer<3-3>:下载IDB开始
10:36:24 770	Layer<3-3>:下载IDB成功
10:36:24 772	Layer<3-3>:重启设备开始
10:36:25 861	Layer<3-3>:重启设备成功
10:36:25 900	Layer<3-3>:等待Loader开始
10:36:26 661	Layer<3-3>:等待Loader成功
10:36:26 664	Layer<3-3>:测试设备开始
10:36:26 666	Layer<3-3>:测试设备成功
10:36:26 669	Layer<3-3>:下载固件开始
10:36:26 670	<LAYER 3-3> INFO:Start download image,total=492446448
10:36:26 699	<LAYER 3-3> INFO:Start to download misc,offset=0x4000,size=49152
10:36:26 704	<LAYER 3-3> INFO:Start to download kernel,offset=0xe000,size=6898676
10:36:27 397	<LAYER 3-3> INFO:Start to download resource,offset=0x6000,size=229376
10:36:27 409	<LAYER 3-3> INFO:Start to download boot,offset=0x16000,size=1281972
10:36:27 468	<LAYER 3-3> INFO:Start to download recovery,offset=0x26000,size=9797632
10:36:27 871	<LAYER 3-3> INFO:Start to download system,offset=0x92000,size=474177536
10:37:00 237	Layer<3-3>:下载固件成功
10:37:00 239	Layer<3-3>:重启设备开始
10:37:01 282	Layer<3-3>:重启设备成功
13:45:49 771	Android开发工具 v2.3.5.2 start run
13:47:33 241	Layer<3-3>:测试设备开始
13:47:33 244	Layer<3-3>:测试设备成功
13:47:33 247	Layer<3-3>:校验芯片开始
13:47:33 249	Layer<3-3>:校验芯片成功
13:47:33 250	Layer<3-3>:获取FlashInfo开始
13:47:33 251	<LAYER 3-3> INFO:FlashInfo: 00 F0 D1 01 00 04 04 00 28 00 01
13:47:33 254	Layer<3-3>:获取FlashInfo成功
13:47:33 255	Layer<3-3>:准备IDB开始
13:47:33 256	<LAYER 3-3> INFO:CS(1)		(14910MB)		(SAMSUNG)
13:47:33 266	Layer<3-3>:准备IDB成功
13:47:33 268	Layer<3-3>:下载IDB开始
13:47:33 643	Layer<3-3>:下载IDB成功
13:47:33 646	Layer<3-3>:重启设备开始
13:47:34 784	Layer<3-3>:重启设备成功
13:47:34 948	Layer<3-3>:等待Loader开始
13:47:35 518	Layer<3-3>:等待Loader成功
13:47:35 521	Layer<3-3>:测试设备开始
13:47:35 523	Layer<3-3>:测试设备成功
13:47:35 527	Layer<3-3>: Download misc...
13:47:35 559	Layer<3-3>: Download resource...
13:47:35 674	Layer<3-3>: Download kernel...
13:47:36 677	Layer<3-3>: Download boot...
13:47:36 824	Layer<3-3>: Download recovery...
13:47:37 618	Layer<3-3>: Download system...
13:48:10 004	Layer<3-3>: RunProc is ending, ret=1
13:50:50 697	Layer<3-3>:测试设备开始
13:50:50 719	Layer<3-3>:测试设备成功
13:50:50 721	Layer<3-3>:校验芯片开始
13:50:50 723	Layer<3-3>:校验芯片成功
13:50:50 725	Layer<3-3>:获取FlashInfo开始
13:50:50 726	<LAYER 3-3> INFO:FlashInfo: 00 F0 D1 01 00 04 04 00 28 00 01
13:50:50 728	Layer<3-3>:获取FlashInfo成功
13:50:50 730	Layer<3-3>:准备IDB开始
13:50:50 731	<LAYER 3-3> INFO:CS(1)		(14910MB)		(SAMSUNG)
13:50:50 741	Layer<3-3>:准备IDB成功
13:50:50 743	Layer<3-3>:下载IDB开始
13:50:51 119	Layer<3-3>:下载IDB成功
13:50:51 121	Layer<3-3>:重启设备开始
13:50:52 341	Layer<3-3>:重启设备成功
13:50:52 373	Layer<3-3>:等待Loader开始
13:50:53 035	Layer<3-3>:等待Loader成功
13:50:53 038	Layer<3-3>:测试设备开始
13:50:53 041	Layer<3-3>:测试设备成功
13:50:53 045	Layer<3-3>: Download misc...
13:50:53 058	Layer<3-3>: Download resource...
13:50:53 097	Layer<3-3>: Download kernel...
13:50:54 279	Layer<3-3>: Download boot...
13:50:54 381	Layer<3-3>: Download recovery...
13:50:55 428	Layer<3-3>: Download system...
13:51:26 925	Layer<3-3>: RunProc is ending, ret=1
13:53:28 439	Layer<3-3>:测试设备开始
13:53:28 463	Layer<3-3>:测试设备成功
13:53:28 465	Layer<3-3>:校验芯片开始
13:53:28 466	Layer<3-3>:校验芯片成功
13:53:28 468	Layer<3-3>:获取FlashInfo开始
13:53:28 470	<LAYER 3-3> INFO:FlashInfo: 00 F0 D1 01 00 04 04 00 28 00 01
13:53:28 473	Layer<3-3>:获取FlashInfo成功
13:53:28 475	Layer<3-3>:准备IDB开始
13:53:28 476	<LAYER 3-3> INFO:CS(1)		(14910MB)		(SAMSUNG)
13:53:28 485	Layer<3-3>:准备IDB成功
13:53:28 487	Layer<3-3>:下载IDB开始
13:53:28 856	Layer<3-3>:下载IDB成功
13:53:28 858	Layer<3-3>:重启设备开始
13:53:29 983	Layer<3-3>:重启设备成功
13:53:30 059	Layer<3-3>:等待Loader开始
13:53:30 801	Layer<3-3>:等待Loader成功
13:53:30 803	Layer<3-3>:测试设备开始
13:53:30 806	Layer<3-3>:测试设备成功
13:53:30 810	Layer<3-3>: Download misc...
13:53:30 823	Layer<3-3>: Download resource...
13:53:30 892	Layer<3-3>: Download kernel...
13:53:31 934	Layer<3-3>: Download boot...
13:53:32 041	Layer<3-3>: Download recovery...
13:53:33 420	Layer<3-3>: Download system...
13:54:05 652	Layer<3-3>: RunProc is ending, ret=1
13:55:34 074	Layer<3-3>:测试设备开始
13:55:34 077	Layer<3-3>:测试设备成功
13:55:34 079	Layer<3-3>:校验芯片开始
13:55:34 083	Layer<3-3>:校验芯片成功
13:55:34 085	Layer<3-3>:获取FlashInfo开始
13:55:34 086	<LAYER 3-3> INFO:FlashInfo: 00 F0 D1 01 00 04 04 00 28 00 01
13:55:34 089	Layer<3-3>:获取FlashInfo成功
13:55:34 090	Layer<3-3>:准备IDB开始
13:55:34 091	<LAYER 3-3> INFO:CS(1)		(14910MB)		(SAMSUNG)
13:55:34 100	Layer<3-3>:准备IDB成功
13:55:34 102	Layer<3-3>:下载IDB开始
13:55:34 439	Layer<3-3>:下载IDB成功
13:55:34 441	Layer<3-3>:重启设备开始
13:55:35 569	Layer<3-3>:重启设备成功
13:55:35 640	Layer<3-3>:等待Loader开始
13:55:36 300	Layer<3-3>:等待Loader成功
13:55:36 302	Layer<3-3>:测试设备开始
13:55:36 305	Layer<3-3>:测试设备成功
13:55:36 308	Layer<3-3>: Download misc...
13:55:36 321	Layer<3-3>: Download resource...
13:55:36 359	Layer<3-3>: Download kernel...
13:55:37 396	Layer<3-3>: Download boot...
13:55:37 489	Layer<3-3>: Download recovery...
13:55:38 199	Layer<3-3>: Download system...
13:56:08 431	Layer<3-3>: RunProc is ending, ret=1
13:57:46 385	Layer<3-3>:测试设备开始
13:57:46 387	Layer<3-3>:测试设备成功
13:57:46 389	Layer<3-3>:校验芯片开始
13:57:46 391	Layer<3-3>:校验芯片成功
13:57:46 393	Layer<3-3>:获取FlashInfo开始
13:57:46 394	<LAYER 3-3> INFO:FlashInfo: 00 F0 D1 01 00 04 04 00 28 00 01
13:57:46 396	Layer<3-3>:获取FlashInfo成功
13:57:46 398	Layer<3-3>:准备IDB开始
13:57:46 399	<LAYER 3-3> INFO:CS(1)		(14910MB)		(SAMSUNG)
13:57:46 409	Layer<3-3>:准备IDB成功
13:57:46 411	Layer<3-3>:下载IDB开始
13:57:46 743	Layer<3-3>:下载IDB成功
13:57:46 745	Layer<3-3>:重启设备开始
13:57:47 757	Layer<3-3>:重启设备成功
13:57:47 774	Layer<3-3>:等待Loader开始
13:57:48 630	Layer<3-3>:等待Loader成功
13:57:48 633	Layer<3-3>:测试设备开始
13:57:48 635	Layer<3-3>:测试设备成功
13:57:48 639	Layer<3-3>: Download misc...
13:57:48 653	Layer<3-3>: Download resource...
13:57:48 691	Layer<3-3>: Download kernel...
13:57:49 848	Layer<3-3>: Download boot...
13:57:49 939	Layer<3-3>: Download recovery...
13:57:50 638	Layer<3-3>: Download system...
13:58:20 707	Layer<3-3>: RunProc is ending, ret=1
13:59:00 819	Layer<3-3>: RunProc is ending, ret=0
13:59:02 457	Info:RunExe->cmd=netstat -ano
13:59:06 500	Info:RunExe->cmd="F:\projects\rk3288\rk3288烧录\AndroidTool_Release_v2.35\bin\adb.exe" -s 0123456789ABCDEF reboot bootloader
13:59:08 327	* daemon not running. starting it now on port 5037 *
ADB server didn't ACK
* failed to start daemon *
error: cannot connect to daemon

13:59:09 327	Info:RunExe->cmd="F:\projects\rk3288\rk3288烧录\AndroidTool_Release_v2.35\bin\adb.exe" reboot bootloader
13:59:13 607	Layer<3-3>:测试设备开始
13:59:13 609	Layer<3-3>:测试设备成功
13:59:13 611	Layer<3-3>: Download parameter...
13:59:13 649	Layer<3-3>: RunProc is ending, ret=1
14:01:35 281	Layer<3-3>:测试设备开始
14:01:35 284	Layer<3-3>:测试设备成功
14:01:35 286	Layer<3-3>:校验芯片开始
14:01:35 288	Layer<3-3>:校验芯片成功
14:01:35 289	Layer<3-3>:获取FlashInfo开始
14:01:35 290	<LAYER 3-3> INFO:FlashInfo: 00 F0 D1 01 00 04 04 00 28 00 01
14:01:35 292	Layer<3-3>:获取FlashInfo成功
14:01:35 294	Layer<3-3>:准备IDB开始
14:01:35 294	<LAYER 3-3> INFO:CS(1)		(14910MB)		(SAMSUNG)
14:01:35 303	Layer<3-3>:准备IDB成功
14:01:35 305	Layer<3-3>:下载IDB开始
14:01:35 684	Layer<3-3>:下载IDB成功
14:01:35 686	Layer<3-3>:重启设备开始
14:01:36 953	Layer<3-3>:重启设备成功
14:01:37 092	Layer<3-3>:等待Loader开始
14:01:37 614	Layer<3-3>:等待Loader成功
14:01:37 617	Layer<3-3>:测试设备开始
14:01:37 619	Layer<3-3>:测试设备成功
14:01:37 622	Layer<3-3>: Download parameter...
14:01:37 689	Layer<3-3>: Download misc...
14:01:37 703	Layer<3-3>: Download resource...
14:01:37 810	Layer<3-3>: Download kernel...
14:01:38 777	Layer<3-3>: Download boot...
14:01:38 883	Layer<3-3>: Download recovery...
14:01:39 623	Layer<3-3>: Download system...
14:02:10 400	Layer<3-3>: RunProc is ending, ret=1
14:22:52 450	Layer<3-3>:测试设备开始
14:22:52 453	Layer<3-3>:测试设备成功
14:22:52 455	Layer<3-3>:校验芯片开始
14:22:52 458	Layer<3-3>:校验芯片成功
14:22:52 460	Layer<3-3>:获取FlashInfo开始
14:22:52 461	<LAYER 3-3> INFO:FlashInfo: 00 F0 D1 01 00 04 04 00 28 00 01
14:22:52 464	Layer<3-3>:获取FlashInfo成功
14:22:52 466	Layer<3-3>:准备IDB开始
14:22:52 467	<LAYER 3-3> INFO:CS(1)		(14910MB)		(SAMSUNG)
14:22:52 476	Layer<3-3>:准备IDB成功
14:22:52 479	Layer<3-3>:下载IDB开始
14:22:53 859	Layer<3-3>:下载IDB成功
14:22:53 862	Layer<3-3>:重启设备开始
14:22:55 040	Layer<3-3>:重启设备成功
14:22:55 064	Layer<3-3>:等待Loader开始
14:22:55 744	Layer<3-3>:等待Loader成功
14:22:55 747	Layer<3-3>:测试设备开始
14:22:55 750	Layer<3-3>:测试设备成功
14:22:55 753	Layer<3-3>:下载固件开始
14:22:55 754	<LAYER 3-3> INFO:Start download image,total=492446448
14:22:55 789	<LAYER 3-3> INFO:Start to download misc,offset=0x4000,size=49152
14:22:55 796	<LAYER 3-3> INFO:Start to download kernel,offset=0xe000,size=6898676
14:22:56 577	<LAYER 3-3> INFO:Start to download resource,offset=0x6000,size=229376
14:22:56 591	<LAYER 3-3> INFO:Start to download boot,offset=0x16000,size=1281972
14:22:56 648	<LAYER 3-3> INFO:Start to download recovery,offset=0x26000,size=9797632
14:22:57 058	<LAYER 3-3> INFO:Start to download system,offset=0x92000,size=474177536
14:23:29 911	Layer<3-3>:下载固件成功
14:23:29 914	Layer<3-3>:重启设备开始
14:23:31 054	Layer<3-3>:重启设备成功
