11:34:25 001	Android开发工具 v2.3.5.2 start run
11:35:57 162	Layer<3-1-0>:测试设备开始
11:35:57 164	Layer<3-1-0>:测试设备成功
11:35:57 166	Layer<3-1-0>:校验芯片开始
11:35:57 169	Layer<3-1-0>:校验芯片成功
11:35:57 171	Layer<3-1-0>:获取FlashInfo开始
11:35:57 172	<LAYER 3-10> INFO:FlashInfo: 00 00 E9 00 00 04 04 00 28 00 01
11:35:57 174	Layer<3-1-0>:获取FlashInfo成功
11:35:57 176	Layer<3-1-0>:准备IDB开始
11:35:57 177	<LAYER 3-10> INFO:CS(1)		(7456MB)		(SAMSUNG)
11:35:57 184	Layer<3-1-0>:准备IDB成功
11:35:57 186	Layer<3-1-0>:下载IDB开始
11:35:57 767	Layer<3-1-0>:下载IDB成功
11:35:57 770	Layer<3-1-0>:重启设备开始
11:35:58 772	Layer<3-1-0>:重启设备成功
11:35:58 774	Layer<3-1-0>:等待Loader开始
11:35:59 807	Layer<3-1-0>:等待Loader成功
11:35:59 809	Layer<3-1-0>:测试设备开始
11:35:59 812	Layer<3-1-0>:测试设备成功
11:35:59 814	Layer<3-1-0>:下载固件开始
11:35:59 815	<LAYER 3-10> INFO:Start download image,total=447089264
11:35:59 844	<LAYER 3-10> INFO:Start to download misc,offset=0x4000,size=49152
11:35:59 850	<LAYER 3-10> INFO:Start to download kernel,offset=0xe000,size=306176
11:35:59 864	<LAYER 3-10> INFO:Start to download boot,offset=0x16000,size=8830976
11:36:00 239	<LAYER 3-10> INFO:Start to download recovery,offset=0x26000,size=10420224
11:36:00 659	<LAYER 3-10> INFO:Start to download system,offset=0x92000,size=427470848
11:36:31 348	Layer<3-1-0>:下载固件成功
11:36:31 351	Layer<3-1-0>:重启设备开始
11:36:32 354	Layer<3-1-0>:重启设备成功
12:52:27 242	Android开发工具 v2.3.5.2 start run
12:52:58 877	Layer<3-1-0>:测试设备开始
12:52:58 879	Layer<3-1-0>:测试设备成功
12:52:58 881	Layer<3-1-0>:校验芯片开始
12:52:58 883	Layer<3-1-0>:校验芯片成功
12:52:58 885	Layer<3-1-0>:获取FlashInfo开始
12:52:58 886	<LAYER 3-10> INFO:FlashInfo: 00 00 E9 00 00 04 04 00 28 00 01
12:52:58 888	Layer<3-1-0>:获取FlashInfo成功
12:52:58 890	Layer<3-1-0>:准备IDB开始
12:52:58 891	<LAYER 3-10> INFO:CS(1)		(7456MB)		(SAMSUNG)
12:52:58 898	Layer<3-1-0>:准备IDB成功
12:52:58 900	Layer<3-1-0>:下载IDB开始
12:52:59 487	Layer<3-1-0>:下载IDB成功
12:52:59 489	Layer<3-1-0>:重启设备开始
12:53:00 491	Layer<3-1-0>:重启设备成功
12:53:00 494	Layer<3-1-0>:等待Loader开始
12:53:01 532	Layer<3-1-0>:等待Loader成功
12:53:01 534	Layer<3-1-0>:测试设备开始
12:53:01 537	Layer<3-1-0>:测试设备成功
12:53:01 539	Layer<3-1-0>:下载固件开始
12:53:01 540	<LAYER 3-10> INFO:Start download image,total=447089264
12:53:01 570	<LAYER 3-10> INFO:Start to download misc,offset=0x4000,size=49152
12:53:01 577	<LAYER 3-10> INFO:Start to download kernel,offset=0xe000,size=306176
12:53:01 601	<LAYER 3-10> INFO:Start to download boot,offset=0x16000,size=8830976
12:53:01 957	<LAYER 3-10> INFO:Start to download recovery,offset=0x26000,size=10420224
12:53:02 385	<LAYER 3-10> INFO:Start to download system,offset=0x92000,size=427470848
12:53:33 012	Layer<3-1-0>:下载固件成功
12:53:33 014	Layer<3-1-0>:重启设备开始
12:53:34 017	Layer<3-1-0>:重启设备成功
12:59:21 694	Layer<3-1-0>:测试设备开始
12:59:21 696	Layer<3-1-0>:测试设备成功
12:59:21 697	Layer<3-1-0>:校验芯片开始
12:59:21 699	Layer<3-1-0>:校验芯片成功
12:59:21 701	Layer<3-1-0>:获取FlashInfo开始
12:59:21 701	<LAYER 3-10> INFO:FlashInfo: 00 00 E9 00 00 04 04 00 28 00 01
12:59:21 703	Layer<3-1-0>:获取FlashInfo成功
12:59:21 705	Layer<3-1-0>:准备IDB开始
12:59:21 706	<LAYER 3-10> INFO:CS(1)		(7456MB)		(SAMSUNG)
12:59:21 713	Layer<3-1-0>:准备IDB成功
12:59:21 715	Layer<3-1-0>:下载IDB开始
12:59:22 313	Layer<3-1-0>:下载IDB成功
12:59:22 315	Layer<3-1-0>:重启设备开始
12:59:23 319	Layer<3-1-0>:重启设备成功
12:59:23 321	Layer<3-1-0>:等待Loader开始
12:59:24 332	Layer<3-1-0>:等待Loader成功
12:59:24 334	Layer<3-1-0>:测试设备开始
12:59:24 337	Layer<3-1-0>:测试设备成功
12:59:24 340	Layer<3-1-0>:下载固件开始
12:59:24 341	<LAYER 3-10> INFO:Start download image,total=447154800
12:59:24 377	<LAYER 3-10> INFO:Start to download misc,offset=0x4000,size=49152
12:59:24 385	<LAYER 3-10> INFO:Start to download kernel,offset=0xe000,size=306176
12:59:24 399	<LAYER 3-10> INFO:Start to download boot,offset=0x16000,size=8830976
12:59:25 801	<LAYER 3-10> INFO:Start to download recovery,offset=0x26000,size=10420224
12:59:27 053	<LAYER 3-10> INFO:Start to download system,offset=0x92000,size=427536384
13:00:40 824	Layer<3-1-0>:下载固件成功
13:00:40 827	Layer<3-1-0>:重启设备开始
13:00:41 830	Layer<3-1-0>:重启设备成功
14:30:11 347	Android开发工具 v2.3.5.2 start run
14:30:59 091	Layer<3-1-0>:测试设备开始
14:30:59 093	Layer<3-1-0>:测试设备成功
14:30:59 095	Layer<3-1-0>:校验芯片开始
14:30:59 097	Layer<3-1-0>:校验芯片成功
14:30:59 098	Layer<3-1-0>:获取FlashInfo开始
14:30:59 099	<LAYER 3-10> INFO:FlashInfo: 00 00 E9 00 00 04 04 00 28 00 01
14:30:59 101	Layer<3-1-0>:获取FlashInfo成功
14:30:59 103	Layer<3-1-0>:准备IDB开始
14:30:59 104	<LAYER 3-10> INFO:CS(1)		(7456MB)		(SAMSUNG)
14:30:59 111	Layer<3-1-0>:准备IDB成功
14:30:59 113	Layer<3-1-0>:下载IDB开始
14:30:59 680	Layer<3-1-0>:下载IDB成功
14:30:59 682	Layer<3-1-0>:重启设备开始
14:31:00 684	Layer<3-1-0>:重启设备成功
14:31:00 687	Layer<3-1-0>:等待Loader开始
14:31:01 703	Layer<3-1-0>:等待Loader成功
14:31:01 705	Layer<3-1-0>:测试设备开始
14:31:01 708	Layer<3-1-0>:测试设备成功
14:31:01 711	Layer<3-1-0>:下载固件开始
14:31:01 712	<LAYER 3-10> INFO:Start download image,total=447089264
14:31:01 744	<LAYER 3-10> INFO:Start to download misc,offset=0x4000,size=49152
14:31:01 750	<LAYER 3-10> INFO:Start to download kernel,offset=0xe000,size=306176
14:31:01 773	<LAYER 3-10> INFO:Start to download boot,offset=0x16000,size=8830976
14:31:02 134	<LAYER 3-10> INFO:Start to download recovery,offset=0x26000,size=10420224
14:31:02 573	<LAYER 3-10> INFO:Start to download system,offset=0x92000,size=427470848
14:31:33 343	Layer<3-1-0>:下载固件成功
14:31:33 345	Layer<3-1-0>:重启设备开始
14:31:34 348	Layer<3-1-0>:重启设备成功
14:42:37 531	Layer<3-3>:测试设备开始
14:42:37 534	Layer<3-3>:测试设备成功
14:42:37 537	Layer<3-3>: Download resource...
14:42:37 559	Layer<3-3>: Download kernel...
14:42:38 016	Layer<3-3>: RunProc is ending, ret=1
17:31:44 541	Android开发工具 v2.3.5.2 start run
17:32:45 131	Layer<3-1-0>:测试设备开始
17:32:45 133	Layer<3-1-0>:测试设备成功
17:32:45 134	Layer<3-1-0>:校验芯片开始
17:32:45 136	Layer<3-1-0>:校验芯片成功
17:32:45 146	Layer<3-1-0>:获取FlashInfo开始
17:32:45 147	<LAYER 3-10> INFO:FlashInfo: 00 00 E9 00 00 04 04 00 28 00 01
17:32:45 149	Layer<3-1-0>:获取FlashInfo成功
17:32:45 151	Layer<3-1-0>:准备IDB开始
17:32:45 152	<LAYER 3-10> INFO:CS(1)		(7456MB)		(SAMSUNG)
17:32:45 160	Layer<3-1-0>:准备IDB成功
17:32:45 162	Layer<3-1-0>:下载IDB开始
17:32:45 740	Layer<3-1-0>:下载IDB成功
17:32:45 742	Layer<3-1-0>:重启设备开始
17:32:46 745	Layer<3-1-0>:重启设备成功
17:32:46 747	Layer<3-1-0>:等待Loader开始
17:32:47 759	Layer<3-1-0>:等待Loader成功
17:32:47 762	Layer<3-1-0>:测试设备开始
17:32:47 764	Layer<3-1-0>:测试设备成功
17:32:47 767	Layer<3-1-0>:下载固件开始
17:32:47 767	<LAYER 3-10> INFO:Start download image,total=447089264
17:32:47 803	<LAYER 3-10> INFO:Start to download misc,offset=0x4000,size=49152
17:32:47 809	<LAYER 3-10> INFO:Start to download kernel,offset=0xe000,size=306176
17:32:47 832	<LAYER 3-10> INFO:Start to download boot,offset=0x16000,size=8830976
17:32:48 230	<LAYER 3-10> INFO:Start to download recovery,offset=0x26000,size=10420224
17:32:48 654	<LAYER 3-10> INFO:Start to download system,offset=0x92000,size=427470848
17:33:19 475	Layer<3-1-0>:下载固件成功
17:33:19 477	Layer<3-1-0>:重启设备开始
17:33:20 479	Layer<3-1-0>:重启设备成功
18:21:05 052	Layer<3-1-0>:测试设备开始
18:21:05 054	Layer<3-1-0>:测试设备成功
18:21:05 056	Layer<3-1-0>:校验芯片开始
18:21:05 058	Layer<3-1-0>:校验芯片成功
18:21:05 059	Layer<3-1-0>:获取FlashInfo开始
18:21:05 060	<LAYER 3-10> INFO:FlashInfo: 00 00 E9 00 00 04 04 00 28 00 01
18:21:05 062	Layer<3-1-0>:获取FlashInfo成功
18:21:05 064	Layer<3-1-0>:准备IDB开始
18:21:05 065	<LAYER 3-10> INFO:CS(1)		(7456MB)		(SAMSUNG)
18:21:05 073	Layer<3-1-0>:准备IDB成功
18:21:05 076	Layer<3-1-0>:下载IDB开始
18:21:05 666	Layer<3-1-0>:下载IDB成功
18:21:05 668	Layer<3-1-0>:重启设备开始
18:21:06 671	Layer<3-1-0>:重启设备成功
18:21:06 674	Layer<3-1-0>:等待Loader开始
18:21:07 679	Layer<3-1-0>:等待Loader成功
18:21:07 682	Layer<3-1-0>:测试设备开始
18:21:07 684	Layer<3-1-0>:测试设备成功
18:21:07 686	Layer<3-1-0>:下载固件开始
18:21:07 687	<LAYER 3-10> INFO:Start download image,total=447089264
18:21:07 715	<LAYER 3-10> INFO:Start to download misc,offset=0x4000,size=49152
18:21:07 734	<LAYER 3-10> INFO:Start to download kernel,offset=0xe000,size=306176
18:21:07 767	<LAYER 3-10> INFO:Start to download boot,offset=0x16000,size=8830976
18:21:08 195	<LAYER 3-10> INFO:Start to download recovery,offset=0x26000,size=10420224
18:21:08 624	<LAYER 3-10> INFO:Start to download system,offset=0x92000,size=427470848
18:21:39 582	Layer<3-1-0>:下载固件成功
18:21:39 584	Layer<3-1-0>:重启设备开始
18:21:40 586	Layer<3-1-0>:重启设备成功
18:24:31 125	Layer<3-1-0>:测试设备开始
18:24:31 128	Layer<3-1-0>:测试设备成功
18:24:31 130	Layer<3-1-0>:校验芯片开始
18:24:31 131	Layer<3-1-0>:校验芯片成功
18:24:31 133	Layer<3-1-0>:获取FlashInfo开始
18:24:31 134	<LAYER 3-10> INFO:FlashInfo: 00 00 E9 00 00 04 04 00 28 00 01
18:24:31 136	Layer<3-1-0>:获取FlashInfo成功
18:24:31 138	Layer<3-1-0>:准备IDB开始
18:24:31 139	<LAYER 3-10> INFO:CS(1)		(7456MB)		(SAMSUNG)
18:24:31 147	Layer<3-1-0>:准备IDB成功
18:24:31 149	Layer<3-1-0>:下载IDB开始
18:24:31 748	Layer<3-1-0>:下载IDB成功
18:24:31 750	Layer<3-1-0>:重启设备开始
18:24:32 753	Layer<3-1-0>:重启设备成功
18:24:32 755	Layer<3-1-0>:等待Loader开始
18:24:33 759	Layer<3-1-0>:等待Loader成功
18:24:33 761	Layer<3-1-0>:测试设备开始
18:24:33 764	Layer<3-1-0>:测试设备成功
18:24:33 767	Layer<3-1-0>:下载固件开始
18:24:33 768	<LAYER 3-10> INFO:Start download image,total=447089264
18:24:33 798	<LAYER 3-10> INFO:Start to download misc,offset=0x4000,size=49152
18:24:33 805	<LAYER 3-10> INFO:Start to download kernel,offset=0xe000,size=306176
18:24:33 825	<LAYER 3-10> INFO:Start to download boot,offset=0x16000,size=8830976
18:24:34 196	<LAYER 3-10> INFO:Start to download recovery,offset=0x26000,size=10420224
18:24:34 630	<LAYER 3-10> INFO:Start to download system,offset=0x92000,size=427470848
18:25:05 543	Layer<3-1-0>:下载固件成功
18:25:05 545	Layer<3-1-0>:重启设备开始
18:25:06 549	Layer<3-1-0>:重启设备成功
18:27:22 757	Layer<3-1-0>:测试设备开始
18:27:22 759	Layer<3-1-0>:测试设备成功
18:27:22 760	Layer<3-1-0>:校验芯片开始
18:27:22 762	Layer<3-1-0>:校验芯片成功
18:27:22 764	Layer<3-1-0>:获取FlashInfo开始
18:27:22 765	<LAYER 3-10> INFO:FlashInfo: 00 00 E9 00 00 04 04 00 28 00 01
18:27:22 767	Layer<3-1-0>:获取FlashInfo成功
18:27:22 769	Layer<3-1-0>:准备IDB开始
18:27:22 769	<LAYER 3-10> INFO:CS(1)		(7456MB)		(SAMSUNG)
18:27:22 776	Layer<3-1-0>:准备IDB成功
18:27:22 778	Layer<3-1-0>:下载IDB开始
18:27:23 358	Layer<3-1-0>:下载IDB成功
18:27:23 360	Layer<3-1-0>:重启设备开始
18:27:24 362	Layer<3-1-0>:重启设备成功
18:27:24 365	Layer<3-1-0>:等待Loader开始
18:27:25 367	Layer<3-1-0>:等待Loader成功
18:27:25 369	Layer<3-1-0>:测试设备开始
18:27:25 372	Layer<3-1-0>:测试设备成功
18:27:25 374	Layer<3-1-0>:下载固件开始
18:27:25 375	<LAYER 3-10> INFO:Start download image,total=447155824
18:27:25 402	<LAYER 3-10> INFO:Start to download misc,offset=0x4000,size=49152
18:27:25 408	<LAYER 3-10> INFO:Start to download kernel,offset=0xe000,size=307200
18:27:25 432	<LAYER 3-10> INFO:Start to download boot,offset=0x16000,size=8830976
18:27:25 825	<LAYER 3-10> INFO:Start to download recovery,offset=0x26000,size=10420224
18:27:26 251	<LAYER 3-10> INFO:Start to download system,offset=0x92000,size=427536384
18:27:56 991	Layer<3-1-0>:下载固件成功
18:27:56 995	Layer<3-1-0>:重启设备开始
18:27:57 998	Layer<3-1-0>:重启设备成功
18:46:08 511	Layer<3-1-0>:测试设备开始
18:46:08 566	Layer<3-1-0>:测试设备成功
18:46:08 567	Layer<3-1-0>:校验芯片开始
18:46:08 569	Layer<3-1-0>:校验芯片成功
18:46:08 571	Layer<3-1-0>:获取FlashInfo开始
18:46:08 572	<LAYER 3-10> INFO:FlashInfo: 00 00 E9 00 00 04 04 00 28 00 01
18:46:08 574	Layer<3-1-0>:获取FlashInfo成功
18:46:08 576	Layer<3-1-0>:准备IDB开始
18:46:08 577	<LAYER 3-10> INFO:CS(1)		(7456MB)		(SAMSUNG)
18:46:08 584	Layer<3-1-0>:准备IDB成功
18:46:08 586	Layer<3-1-0>:下载IDB开始
18:46:09 168	Layer<3-1-0>:下载IDB成功
18:46:09 171	Layer<3-1-0>:重启设备开始
18:46:10 173	Layer<3-1-0>:重启设备成功
18:46:10 175	Layer<3-1-0>:等待Loader开始
18:46:11 200	Layer<3-1-0>:等待Loader成功
18:46:11 202	Layer<3-1-0>:测试设备开始
18:46:11 205	Layer<3-1-0>:测试设备成功
18:46:11 207	Layer<3-1-0>:下载固件开始
18:46:11 209	<LAYER 3-10> INFO:Start download image,total=447056496
18:46:11 240	<LAYER 3-10> INFO:Start to download misc,offset=0x4000,size=49152
18:46:11 246	<LAYER 3-10> INFO:Start to download kernel,offset=0xe000,size=306176
18:46:11 266	<LAYER 3-10> INFO:Start to download boot,offset=0x16000,size=8814592
18:46:11 647	<LAYER 3-10> INFO:Start to download recovery,offset=0x26000,size=10403840
18:46:12 074	<LAYER 3-10> INFO:Start to download system,offset=0x92000,size=427470848
18:46:42 790	Layer<3-1-0>:下载固件成功
18:46:42 793	Layer<3-1-0>:重启设备开始
18:46:43 795	Layer<3-1-0>:重启设备成功
