09:40:00 565	<LAYER 3-1> ERROR:GetDemoDrive-->QueryVolume failed
09:41:10 919	<LAYER 3-1> ERROR:GetDemoDrive-->QueryVolume failed
09:43:49 415	<LAYER 3-1> ERROR:GetDemoDrive-->QueryVolume failed
10:42:57 763	<LAYER 3-1> ERROR:GetDemoDrive-->QueryVolume failed
10:44:10 452	<LAYER 3-1> ERROR:GetDemoDrive-->QueryVolume failed
11:13:32 802	<LAYER 3-1> ERROR:GetDemoDrive-->QueryVolume failed
11:14:52 036	<LAYER 3-1> ERROR:GetDemoDrive-->QueryVolume failed
11:46:08 326	<LAYER 3-1> ERROR:GetDrive-->CM_Get_Child(instance:5144) failed,err=0xd
11:46:08 835	<LAYER 3-1> ERROR:GetDemoDrive-->QueryVolume failed
11:47:22 974	<LAYER 3-1> ERROR:GetDemoDrive-->QueryVolume failed
12:13:53 704	<LAYER 3-1> ERROR:GetDemoDrive-->QueryVolume failed
13:51:16 822	<LAYER 3-9> ERROR:GetDrive-->CM_Get_Child(instance:6828) failed,err=0xd
13:51:17 323	<LAYER 3-9> ERROR:GetDrive-->CM_Get_Child(instance:6828) failed,err=0xd
13:51:17 836	<LAYER 3-9> ERROR:GetProperty-->SetupDiOpenDeviceInterface failed,GetlastError(0xe0000225)
13:51:17 837	<LAYER 3-9> ERROR:GetDemoDrive-->Get PDOName failed
13:51:18 550	<LAYER 3-9> ERROR:GetProperty-->SetupDiOpenDeviceInterface failed,GetlastError(0xe0000225)
13:51:18 550	<LAYER 3-9> ERROR:GetDemoDrive-->Get PDOName failed
13:51:19 056	<LAYER 3-9> ERROR:GetProperty-->SetupDiOpenDeviceInterface failed,GetlastError(0xe0000225)
13:51:19 057	<LAYER 3-9> ERROR:GetDemoDrive-->Get PDOName failed
13:51:19 557	<LAYER 3-9> ERROR:GetProperty-->SetupDiOpenDeviceInterface failed,GetlastError(0xe0000225)
13:51:19 558	<LAYER 3-9> ERROR:GetDemoDrive-->Get PDOName failed
13:51:20 275	<LAYER 3-9> ERROR:GetDemoDrive-->QueryVolume failed
13:52:01 669	<LAYER 3-9> ERROR:GetDemoDrive-->QueryVolume failed
14:00:06 380	<LAYER 3-9> ERROR:GetDemoDrive-->QueryVolume failed
14:00:32 530	<LAYER 3-9> ERROR:GetDrive-->CM_Get_Child(instance:6828) failed,err=0xd
14:01:10 145	<LAYER 3-9> ERROR:GetDemoDrive-->QueryVolume failed
14:01:37 671	<LAYER 3-9> ERROR:GetDrive-->CM_Get_Child(instance:6828) failed,err=0xd
14:01:38 173	<LAYER 3-9> ERROR:GetDemoDrive-->QueryVolume failed
14:02:03 393	<LAYER 3-9> ERROR:GetDemoDrive-->QueryVolume failed
14:02:32 231	<LAYER 3-9> ERROR:GetDemoDrive-->QueryVolume failed
14:04:45 844	<LAYER 3-9> ERROR:GetDemoDrive-->QueryVolume failed
14:12:51 873	<LAYER 3-1> ERROR:GetDemoDrive-->QueryVolume failed
14:23:08 495	<LAYER 3-10> ERROR:GetDrive-->CM_Get_Child(instance:7600) failed,err=0xd
14:23:09 007	<LAYER 3-10> ERROR:GetDrive-->CM_Get_Child(instance:7600) failed,err=0xd
14:23:09 530	<LAYER 3-10> ERROR:GetDrive-->CM_Get_Child(instance:7600) failed,err=0xd
14:23:10 332	<LAYER 3-10> ERROR:GetProperty-->SetupDiOpenDeviceInterface failed,GetlastError(0xe0000225)
14:23:10 332	<LAYER 3-10> ERROR:GetDemoDrive-->Get PDOName failed
14:23:10 898	<LAYER 3-10> ERROR:GetProperty-->SetupDiOpenDeviceInterface failed,GetlastError(0xe0000225)
14:23:10 899	<LAYER 3-10> ERROR:GetDemoDrive-->Get PDOName failed
14:23:11 399	<LAYER 3-10> ERROR:GetProperty-->SetupDiOpenDeviceInterface failed,GetlastError(0xe0000225)
14:23:11 400	<LAYER 3-10> ERROR:GetDemoDrive-->Get PDOName failed
14:23:12 187	<LAYER 3-10> ERROR:GetProperty-->SetupDiOpenDeviceInterface failed,GetlastError(0xe0000225)
14:23:12 188	<LAYER 3-10> ERROR:GetDemoDrive-->Get PDOName failed
14:23:12 737	<LAYER 3-10> ERROR:GetDemoDrive-->QueryVolume failed
14:23:39 907	<LAYER 3-10> ERROR:GetDrive-->CM_Get_Child(instance:7600) failed,err=0xd
14:23:40 408	<LAYER 3-10> ERROR:GetDemoDrive-->QueryVolume failed
14:23:40 909	<LAYER 3-10> ERROR:GetDemoDrive-->QueryVolume failed
14:23:41 619	<LAYER 3-10> ERROR:GetDemoDrive-->QueryVolume failed
14:23:42 120	<LAYER 3-10> ERROR:GetDemoDrive-->QueryVolume failed
14:23:42 621	<LAYER 3-10> ERROR:GetDemoDrive-->QueryVolume failed
14:23:43 332	<LAYER 3-10> ERROR:GetDemoDrive-->QueryVolume failed
14:23:43 833	<LAYER 3-10> ERROR:GetDemoDrive-->QueryVolume failed
14:23:44 335	<LAYER 3-10> ERROR:GetDemoDrive-->QueryVolume failed
14:23:45 067	<LAYER 3-10> ERROR:GetDemoDrive-->QueryVolume failed
14:25:03 824	<LAYER 3-10> ERROR:GetDemoDrive-->QueryVolume failed
14:29:30 470	<LAYER 3-10> ERROR:GetDemoDrive-->QueryVolume failed
14:32:34 030	<LAYER 3-10> ERROR:GetDemoDrive-->QueryVolume failed
14:34:23 655	<LAYER 3-3> ERROR:GetDemoDrive-->QueryVolume failed
14:39:36 605	<LAYER 3-3> ERROR:GetDemoDrive-->QueryVolume failed
14:41:36 468	<LAYER 3-3> ERROR:GetDemoDrive-->QueryVolume failed
14:47:13 524	<LAYER 3-10> ERROR:GetDemoDrive-->QueryVolume failed
14:52:43 594	<LAYER 3-10> ERROR:GetDemoDrive-->QueryVolume failed
14:56:43 598	<LAYER 3-3> ERROR:GetDemoDrive-->QueryVolume failed
15:27:55 335	<LAYER 3-10> ERROR:GetDemoDrive-->QueryVolume failed
15:28:14 210	<LAYER 3-3> ERROR:GetDemoDrive-->QueryVolume failed
15:29:26 005	<LAYER 3-10> ERROR:GetDemoDrive-->QueryVolume failed
15:34:42 650	<LAYER 3-10> ERROR:GetDemoDrive-->QueryVolume failed
18:26:50 808	<LAYER 3-10> ERROR:GetDrive-->CM_Get_Child(instance:7600) failed,err=0xd
18:26:51 430	<LAYER 3-10> ERROR:GetProperty-->SetupDiOpenDeviceInterface failed,GetlastError(0xe0000225)
18:26:51 431	<LAYER 3-10> ERROR:GetDemoDrive-->Get PDOName failed
18:26:51 932	<LAYER 3-10> ERROR:GetProperty-->SetupDiOpenDeviceInterface failed,GetlastError(0xe0000225)
18:26:51 933	<LAYER 3-10> ERROR:GetDemoDrive-->Get PDOName failed
18:26:52 675	<LAYER 3-10> ERROR:GetProperty-->SetupDiOpenDeviceInterface failed,GetlastError(0xe0000225)
18:26:52 676	<LAYER 3-10> ERROR:GetDemoDrive-->Get PDOName failed
18:26:53 176	<LAYER 3-10> ERROR:GetProperty-->SetupDiOpenDeviceInterface failed,GetlastError(0xe0000225)
18:26:53 177	<LAYER 3-10> ERROR:GetDemoDrive-->Get PDOName failed
18:26:53 677	<LAYER 3-10> ERROR:GetDemoDrive-->QueryVolume failed
18:34:24 290	<LAYER 3-10> ERROR:GetDemoDrive-->QueryVolume failed
18:39:55 639	<LAYER 3-10> ERROR:GetDemoDrive-->QueryVolume failed
19:16:38 755	<LAYER 3-10> ERROR:GetProperty-->SetupDiOpenDeviceInterface failed,GetlastError(0xe0000225)
19:16:38 756	<LAYER 3-10> ERROR:GetDemoDrive-->Get PDOName failed
19:16:39 289	<LAYER 3-10> ERROR:GetProperty-->SetupDiOpenDeviceInterface failed,GetlastError(0xe0000225)
19:16:39 325	<LAYER 3-10> ERROR:GetDemoDrive-->Get PDOName failed
19:16:39 826	<LAYER 3-10> ERROR:GetProperty-->SetupDiOpenDeviceInterface failed,GetlastError(0xe0000225)
19:16:39 826	<LAYER 3-10> ERROR:GetDemoDrive-->Get PDOName failed
19:16:40 596	<LAYER 3-10> ERROR:GetProperty-->SetupDiOpenDeviceInterface failed,GetlastError(0xe0000225)
19:16:40 597	<LAYER 3-10> ERROR:GetDemoDrive-->Get PDOName failed
19:16:41 099	<LAYER 3-10> ERROR:GetDemoDrive-->QueryVolume failed
19:17:54 159	<LAYER 3-10> ERROR:GetProperty-->SetupDiOpenDeviceInterface failed,GetlastError(0xe0000225)
19:17:54 160	<LAYER 3-10> ERROR:GetDemoDrive-->Get PDOName failed
19:17:54 666	<LAYER 3-10> ERROR:GetProperty-->SetupDiOpenDeviceInterface failed,GetlastError(0xe0000225)
19:17:54 666	<LAYER 3-10> ERROR:GetDemoDrive-->Get PDOName failed
19:17:55 167	<LAYER 3-10> ERROR:GetProperty-->SetupDiOpenDeviceInterface failed,GetlastError(0xe0000225)
19:17:55 168	<LAYER 3-10> ERROR:GetDemoDrive-->Get PDOName failed
19:17:55 877	<LAYER 3-10> ERROR:GetProperty-->SetupDiOpenDeviceInterface failed,GetlastError(0xe0000225)
19:17:55 878	<LAYER 3-10> ERROR:GetDemoDrive-->Get PDOName failed
19:17:56 380	<LAYER 3-10> ERROR:GetDemoDrive-->QueryVolume failed
20:20:44 507	<LAYER 3-10> ERROR:GetDemoDrive-->QueryVolume failed
20:25:18 469	<LAYER 3-10> ERROR:GetDrive-->CM_Get_Child(instance:5232) failed,err=0xd
20:25:19 124	<LAYER 3-10> ERROR:GetDrive-->CM_Get_Child(instance:5232) failed,err=0xd
20:25:19 625	<LAYER 3-10> ERROR:GetDrive-->CM_Get_Child(instance:5232) failed,err=0xd
20:25:20 737	<LAYER 3-10> ERROR:GetProperty-->SetupDiOpenDeviceInterface failed,GetlastError(0xe0000225)
20:25:20 738	<LAYER 3-10> ERROR:GetDemoDrive-->Get PDOName failed
20:25:21 239	<LAYER 3-10> ERROR:GetProperty-->SetupDiOpenDeviceInterface failed,GetlastError(0xe0000225)
20:25:21 240	<LAYER 3-10> ERROR:GetDemoDrive-->Get PDOName failed
20:25:21 740	<LAYER 3-10> ERROR:GetProperty-->SetupDiOpenDeviceInterface failed,GetlastError(0xe0000225)
20:25:21 862	<LAYER 3-10> ERROR:GetDemoDrive-->Get PDOName failed
20:25:22 573	<LAYER 3-10> ERROR:GetProperty-->SetupDiOpenDeviceInterface failed,GetlastError(0xe0000225)
20:25:22 574	<LAYER 3-10> ERROR:GetDemoDrive-->Get PDOName failed
20:25:23 074	<LAYER 3-10> ERROR:GetProperty-->SetupDiOpenDeviceInterface failed,GetlastError(0xe0000225)
20:25:23 075	<LAYER 3-10> ERROR:GetDemoDrive-->Get PDOName failed
20:25:23 575	<LAYER 3-10> ERROR:GetProperty-->SetupDiOpenDeviceInterface failed,GetlastError(0xe0000225)
20:25:23 576	<LAYER 3-10> ERROR:GetDemoDrive-->Get PDOName failed
20:25:24 303	<LAYER 3-10> ERROR:GetProperty-->SetupDiOpenDeviceInterface failed,GetlastError(0xe0000225)
20:25:24 304	<LAYER 3-10> ERROR:GetDemoDrive-->Get PDOName failed
20:25:24 804	<LAYER 3-10> ERROR:GetDemoDrive-->QueryVolume failed
20:25:25 386	<LAYER 3-10> ERROR:GetDemoDrive-->QueryVolume failed
20:28:13 225	<LAYER 3-10> ERROR:GetDemoDrive-->QueryVolume failed
20:29:40 658	<LAYER 3-10> ERROR:GetDemoDrive-->QueryVolume failed
20:40:33 101	<LAYER 3-10> ERROR:GetProperty-->SetupDiOpenDeviceInterface failed,GetlastError(0xe0000225)
20:40:33 101	<LAYER 3-10> ERROR:GetDemoDrive-->Get PDOName failed
20:40:33 608	<LAYER 3-10> ERROR:GetProperty-->SetupDiOpenDeviceInterface failed,GetlastError(0xe0000225)
20:40:33 608	<LAYER 3-10> ERROR:GetDemoDrive-->Get PDOName failed
20:40:34 109	<LAYER 3-10> ERROR:GetProperty-->SetupDiOpenDeviceInterface failed,GetlastError(0xe0000225)
20:40:34 110	<LAYER 3-10> ERROR:GetDemoDrive-->Get PDOName failed
20:40:34 820	<LAYER 3-10> ERROR:GetProperty-->SetupDiOpenDeviceInterface failed,GetlastError(0xe0000225)
20:40:34 821	<LAYER 3-10> ERROR:GetDemoDrive-->Get PDOName failed
20:40:35 324	<LAYER 3-10> ERROR:GetProperty-->SetupDiOpenDeviceInterface failed,GetlastError(0xe0000225)
20:40:35 325	<LAYER 3-10> ERROR:GetDemoDrive-->Get PDOName failed
20:40:35 827	<LAYER 3-10> ERROR:GetDemoDrive-->QueryVolume failed
21:04:46 051	<LAYER 3-10> ERROR:GetDemoDrive-->QueryVolume failed
21:05:59 907	<LAYER 3-10> ERROR:GetDemoDrive-->QueryVolume failed
21:19:19 820	<LAYER 3-10> ERROR:GetDemoDrive-->QueryVolume failed
21:19:20 321	<LAYER 3-10> ERROR:GetDemoDrive-->QueryVolume failed
21:20:32 916	<LAYER 3-10> ERROR:GetDemoDrive-->QueryVolume failed
