09:35:12 942	<LAYER 3-1> ERROR:GetDrive-->CM_Get_Child(instance:5144) failed,err=0xd
09:35:13 443	<LAYER 3-1> ERROR:GetDrive-->CM_Get_Child(instance:5144) failed,err=0xd
09:35:13 943	<LAYER 3-1> ERROR:GetDrive-->CM_Get_Child(instance:5144) failed,err=0xd
09:35:14 660	<LAYER 3-1> ERROR:GetProperty-->SetupDiOpenDeviceInterface failed,GetlastError(0xe0000225)
09:35:14 660	<LAYER 3-1> ERROR:GetDemoDrive-->Get PDOName failed
09:35:15 161	<LAYER 3-1> ERROR:GetProperty-->SetupDiOpenDeviceInterface failed,GetlastError(0xe0000225)
09:35:15 162	<LAYER 3-1> ERROR:GetDemoDrive-->Get PDOName failed
09:35:15 662	<LAYER 3-1> ERROR:GetProperty-->SetupDiOpenDeviceInterface failed,GetlastError(0xe0000225)
09:35:15 662	<LAYER 3-1> ERROR:GetDemoDrive-->Get PDOName failed
09:35:16 375	<LAYER 3-1> ERROR:GetProperty-->SetupDiOpenDeviceInterface failed,GetlastError(0xe0000225)
09:35:16 375	<LAYER 3-1> ERROR:GetDemoDrive-->Get PDOName failed
09:35:16 876	<LAYER 3-1> ERROR:GetDemoDrive-->QueryVolume failed
09:35:17 377	<LAYER 3-1> ERROR:GetDemoDrive-->QueryVolume failed
09:36:24 076	<LAYER 3-1> ERROR:GetDemoDrive-->QueryVolume failed
09:37:40 999	<LAYER 3-1> ERROR:GetDemoDrive-->QueryVolume failed
10:01:28 326	<LAYER 3-1> ERROR:GetDemoDrive-->QueryVolume failed
11:37:55 872	<LAYER 3-1> ERROR:GetProperty-->SetupDiOpenDeviceInterface failed,GetlastError(0xe0000225)
11:37:55 873	<LAYER 3-1> ERROR:GetDemoDrive-->Get PDOName failed
11:37:56 385	<LAYER 3-1> ERROR:GetProperty-->SetupDiOpenDeviceInterface failed,GetlastError(0xe0000225)
11:37:56 385	<LAYER 3-1> ERROR:GetDemoDrive-->Get PDOName failed
11:37:56 886	<LAYER 3-1> ERROR:GetProperty-->SetupDiOpenDeviceInterface failed,GetlastError(0xe0000225)
11:37:56 886	<LAYER 3-1> ERROR:GetDemoDrive-->Get PDOName failed
11:37:57 600	<LAYER 3-1> ERROR:GetProperty-->SetupDiOpenDeviceInterface failed,GetlastError(0xe0000225)
11:37:57 600	<LAYER 3-1> ERROR:GetDemoDrive-->Get PDOName failed
11:37:58 101	<LAYER 3-1> ERROR:GetProperty-->SetupDiOpenDeviceInterface failed,GetlastError(0xe0000225)
11:37:58 102	<LAYER 3-1> ERROR:GetDemoDrive-->Get PDOName failed
11:37:58 603	<LAYER 3-1> ERROR:GetDemoDrive-->QueryVolume failed
11:42:26 827	<LAYER 3-1> ERROR:GetDemoDrive-->QueryVolume failed
11:44:04 043	<LAYER 3-1> ERROR:GetDemoDrive-->QueryVolume failed
11:45:26 656	<LAYER 3-1> ERROR:GetDemoDrive-->QueryVolume failed
12:11:14 336	<LAYER 3-1> ERROR:GetProperty-->SetupDiOpenDeviceInterface failed,GetlastError(0xe0000225)
12:11:14 337	<LAYER 3-1> ERROR:GetDemoDrive-->Get PDOName failed
12:11:14 838	<LAYER 3-1> ERROR:GetProperty-->SetupDiOpenDeviceInterface failed,GetlastError(0xe0000225)
12:11:14 839	<LAYER 3-1> ERROR:GetDemoDrive-->Get PDOName failed
12:11:15 339	<LAYER 3-1> ERROR:GetProperty-->SetupDiOpenDeviceInterface failed,GetlastError(0xe0000225)
12:11:15 339	<LAYER 3-1> ERROR:GetDemoDrive-->Get PDOName failed
12:11:16 052	<LAYER 3-1> ERROR:GetDemoDrive-->QueryVolume failed
13:03:52 639	<LAYER 3-1> ERROR:GetDemoDrive-->QueryVolume failed
13:05:50 910	<LAYER 3-1> ERROR:GetDemoDrive-->QueryVolume failed
13:14:45 411	<LAYER 3-1> ERROR:GetDemoDrive-->QueryVolume failed
13:15:56 462	<LAYER 3-1> ERROR:GetDemoDrive-->QueryVolume failed
13:18:42 833	<LAYER 3-1> ERROR:GetDemoDrive-->QueryVolume failed
13:21:29 793	<LAYER 3-1> ERROR:GetDemoDrive-->QueryVolume failed
13:25:16 644	<LAYER 3-1> ERROR:GetDemoDrive-->QueryVolume failed
13:31:03 732	<LAYER 3-1> ERROR:GetDemoDrive-->QueryVolume failed
14:16:23 465	<LAYER 3-1> ERROR:GetDemoDrive-->QueryVolume failed
14:27:30 398	<LAYER 3-1> ERROR:GetDemoDrive-->QueryVolume failed
15:09:47 521	<LAYER 3-1> ERROR:GetDemoDrive-->QueryVolume failed
15:21:40 491	<LAYER 3-1> ERROR:GetDemoDrive-->QueryVolume failed
15:24:50 692	<LAYER 3-1> ERROR:GetDemoDrive-->QueryVolume failed
15:59:10 052	<LAYER 3-10> ERROR:GetProperty-->SetupDiOpenDeviceInterface failed,GetlastError(0xe0000225)
15:59:10 053	<LAYER 3-10> ERROR:GetDemoDrive-->Get PDOName failed
15:59:10 561	<LAYER 3-10> ERROR:GetProperty-->SetupDiOpenDeviceInterface failed,GetlastError(0xe0000225)
15:59:10 561	<LAYER 3-10> ERROR:GetDemoDrive-->Get PDOName failed
15:59:11 089	<LAYER 3-10> ERROR:GetProperty-->SetupDiOpenDeviceInterface failed,GetlastError(0xe0000225)
15:59:11 090	<LAYER 3-10> ERROR:GetDemoDrive-->Get PDOName failed
15:59:11 832	<LAYER 3-10> ERROR:GetProperty-->SetupDiOpenDeviceInterface failed,GetlastError(0xe0000225)
15:59:11 833	<LAYER 3-10> ERROR:GetDemoDrive-->Get PDOName failed
15:59:12 370	<LAYER 3-10> ERROR:GetProperty-->SetupDiOpenDeviceInterface failed,GetlastError(0xe0000225)
15:59:12 371	<LAYER 3-10> ERROR:GetDemoDrive-->Get PDOName failed
16:02:37 424	<LAYER 3-10> ERROR:GetDemoDrive-->QueryVolume failed
16:04:31 815	<LAYER 3-10> ERROR:GetDemoDrive-->QueryVolume failed
16:12:42 313	<LAYER 3-10> ERROR:GetDemoDrive-->QueryVolume failed
16:14:01 572	<LAYER 3-10> ERROR:GetDemoDrive-->QueryVolume failed
16:29:07 056	<LAYER 3-10> ERROR:GetProperty-->SetupDiOpenDeviceInterface failed,GetlastError(0xe0000225)
16:29:07 057	<LAYER 3-10> ERROR:GetDemoDrive-->Get PDOName failed
16:29:07 605	<LAYER 3-10> ERROR:GetProperty-->SetupDiOpenDeviceInterface failed,GetlastError(0xe0000225)
16:29:07 606	<LAYER 3-10> ERROR:GetDemoDrive-->Get PDOName failed
16:29:08 117	<LAYER 3-10> ERROR:GetProperty-->SetupDiOpenDeviceInterface failed,GetlastError(0xe0000225)
16:29:08 118	<LAYER 3-10> ERROR:GetDemoDrive-->Get PDOName failed
16:29:08 870	<LAYER 3-10> ERROR:GetDemoDrive-->QueryVolume failed
16:51:50 246	Error:EnumerateHubPorts-->DeviceIoControl failed,err=0x48f
16:51:50 460	Error:EnumerateHub-->DeviceIoControl failed,err=0x1f
16:51:50 673	Error:EnumerateHub-->DeviceIoControl failed,err=0x1f
16:53:15 687	<LAYER 3-10> ERROR:GetDemoDrive-->QueryVolume failed
16:57:51 369	<LAYER 3-10> ERROR:GetDemoDrive-->QueryVolume failed
17:35:08 018	<LAYER 3-10> ERROR:GetDemoDrive-->QueryVolume failed
17:41:29 752	<LAYER 3-10> ERROR:GetDemoDrive-->QueryVolume failed
18:42:02 233	<LAYER 3-10> ERROR:GetDemoDrive-->QueryVolume failed
19:20:24 847	<LAYER 3-10> ERROR:GetProperty-->SetupDiOpenDeviceInterface failed,GetlastError(0xe0000225)
19:20:24 848	<LAYER 3-10> ERROR:GetDemoDrive-->Get PDOName failed
19:20:25 359	<LAYER 3-10> ERROR:GetProperty-->SetupDiOpenDeviceInterface failed,GetlastError(0xe0000225)
19:20:25 359	<LAYER 3-10> ERROR:GetDemoDrive-->Get PDOName failed
19:20:25 860	<LAYER 3-10> ERROR:GetProperty-->SetupDiOpenDeviceInterface failed,GetlastError(0xe0000225)
19:20:25 861	<LAYER 3-10> ERROR:GetDemoDrive-->Get PDOName failed
19:20:26 592	<LAYER 3-10> ERROR:GetDemoDrive-->QueryVolume failed
19:21:43 088	<LAYER 3-10> ERROR:GetDemoDrive-->QueryVolume failed
19:25:21 921	<LAYER 3-10> ERROR:GetDemoDrive-->QueryVolume failed
19:53:25 959	<LAYER 3-1> ERROR:GetDemoDrive-->QueryVolume failed
19:54:41 950	<LAYER 3-1> ERROR:GetDemoDrive-->QueryVolume failed
19:57:14 152	<LAYER 3-3> ERROR:GetDemoDrive-->QueryVolume failed
20:01:27 762	<LAYER 3-3> ERROR:GetDemoDrive-->QueryVolume failed
20:06:43 573	<LAYER 3-3> ERROR:GetDemoDrive-->QueryVolume failed
20:17:33 137	<LAYER 3-1> ERROR:GetDemoDrive-->QueryVolume failed
20:38:07 260	<LAYER 3-1> ERROR:GetDemoDrive-->QueryVolume failed
20:39:20 127	<LAYER 3-1> ERROR:GetDemoDrive-->QueryVolume failed
20:46:50 940	<LAYER 3-1> ERROR:GetDemoDrive-->QueryVolume failed
20:52:36 840	<LAYER 3-1> ERROR:GetProperty-->SetupDiOpenDeviceInterface failed,GetlastError(0xe0000225)
20:52:36 840	<LAYER 3-1> ERROR:GetDemoDrive-->Get PDOName failed
20:52:37 371	<LAYER 3-1> ERROR:GetProperty-->SetupDiOpenDeviceInterface failed,GetlastError(0xe0000225)
20:52:37 371	<LAYER 3-1> ERROR:GetDemoDrive-->Get PDOName failed
20:52:37 885	<LAYER 3-1> ERROR:GetProperty-->SetupDiOpenDeviceInterface failed,GetlastError(0xe0000225)
20:52:37 885	<LAYER 3-1> ERROR:GetDemoDrive-->Get PDOName failed
20:52:38 603	<LAYER 3-1> ERROR:GetProperty-->SetupDiOpenDeviceInterface failed,GetlastError(0xe0000225)
20:52:38 603	<LAYER 3-1> ERROR:GetDemoDrive-->Get PDOName failed
20:52:39 118	<LAYER 3-1> ERROR:GetDemoDrive-->QueryVolume failed
20:53:51 407	<LAYER 3-1> ERROR:GetDemoDrive-->QueryVolume failed
20:55:12 214	<LAYER 3-3> ERROR:GetDemoDrive-->QueryVolume failed
21:01:42 593	<LAYER 3-3> ERROR:GetDemoDrive-->QueryVolume failed
