17:21:34 479	Factory Tool v1.3.7.0 start run
17:24:13 188	Layer<2,1-2>:测试设备开始
17:24:13 198	Layer<2,1-2>:测试设备成功
17:24:13 206	Layer<2,1-2>:校验芯片开始
17:24:13 214	Layer<2,1-2>:校验芯片成功
17:24:13 221	Layer<2,1-2>:获取FlashInfo开始
17:24:13 222	<LAYER 1-2> INFO:FlashInfo: 00 80 CE 01 00 04 04 00 28 00 01
17:24:13 226	Layer<2,1-2>:获取FlashInfo成功
17:24:13 229	Layer<2,1-2>:准备IDB开始
17:24:13 231	<LAYER 1-2> INFO:CS(1)		(14800MB)		(SAMSUNG)
17:24:13 238	Layer<2,1-2>:准备IDB成功
17:24:13 241	Layer<2,1-2>:下载IDB开始
17:24:14 150	Layer<2,1-2>:下载IDB成功
17:24:14 163	Layer<2,1-2>:重启设备开始
17:24:15 165	Layer<2,1-2>:重启设备成功
17:24:15 171	Layer<2,1-2>:等待Loader开始
17:24:16 243	Layer<2,1-2>:等待Loader成功
17:24:16 250	Layer<2,1-2>:测试设备开始
17:24:16 265	Layer<2,1-2>:测试设备成功
17:24:16 281	Layer<2,1-2>:下载固件开始
17:24:16 284	<LAYER 1-2> INFO:Start download image,total=634831980
17:24:16 363	<LAYER 1-2> INFO:Start to download misc,offset=0x4000,size=49152
17:24:16 370	<LAYER 1-2> INFO:Start to download resource,offset=0x6000,size=370176
17:24:16 390	<LAYER 1-2> INFO:Start to download kernel,offset=0xe000,size=7132108
17:24:16 699	<LAYER 1-2> INFO:Start to download boot,offset=0x16000,size=8945664
17:24:17 062	<LAYER 1-2> INFO:Start to download recovery,offset=0x26000,size=10551296
17:24:17 509	<LAYER 1-2> INFO:Start to download system,offset=0x92000,size=607776768
17:25:02 371	Layer<2,1-2>:下载固件成功
17:25:02 394	Layer<2,1-2>:重启设备开始
17:25:02 403	Layer<2,1-2>:重启设备成功
17:25:02 435	Layer<2,1-2>:升级成功
17:30:11 744	Layer<2,1-2>:测试设备开始
17:30:11 758	Layer<2,1-2>:测试设备成功
17:30:11 768	Layer<2,1-2>:校验芯片开始
17:30:11 776	Layer<2,1-2>:校验芯片成功
17:30:11 784	Layer<2,1-2>:获取FlashInfo开始
17:30:11 785	<LAYER 1-2> INFO:FlashInfo: 00 80 CE 01 00 04 04 00 28 00 01
17:30:11 787	Layer<2,1-2>:获取FlashInfo成功
17:30:11 790	Layer<2,1-2>:准备IDB开始
17:30:11 790	<LAYER 1-2> INFO:CS(1)		(14800MB)		(SAMSUNG)
17:30:11 798	Layer<2,1-2>:准备IDB成功
17:30:11 800	Layer<2,1-2>:下载IDB开始
17:30:12 813	Layer<2,1-2>:下载IDB成功
17:30:12 886	Layer<2,1-2>:重启设备开始
17:30:13 890	Layer<2,1-2>:重启设备成功
17:30:13 902	Layer<2,1-2>:等待Loader开始
17:30:14 987	Layer<2,1-2>:等待Loader成功
17:30:15 001	Layer<2,1-2>:测试设备开始
17:30:15 020	Layer<2,1-2>:测试设备成功
17:30:15 029	Layer<2,1-2>:下载固件开始
17:30:15 031	<LAYER 1-2> INFO:Start download image,total=634831980
17:30:15 135	<LAYER 1-2> INFO:Start to download misc,offset=0x4000,size=49152
17:30:15 141	<LAYER 1-2> INFO:Start to download resource,offset=0x6000,size=370176
17:30:15 158	<LAYER 1-2> INFO:Start to download kernel,offset=0xe000,size=7132108
17:30:15 480	<LAYER 1-2> INFO:Start to download boot,offset=0x16000,size=8945664
17:30:15 862	<LAYER 1-2> INFO:Start to download recovery,offset=0x26000,size=10551296
17:30:16 337	<LAYER 1-2> INFO:Start to download system,offset=0x92000,size=607776768
17:30:49 918	Layer<3,1-3>:测试设备开始
17:30:49 923	Layer<3,1-3>:测试设备成功
17:30:49 926	Layer<3,1-3>:校验芯片开始
17:30:49 929	Layer<3,1-3>:校验芯片成功
17:30:49 933	Layer<3,1-3>:获取FlashInfo开始
17:30:49 933	<LAYER 1-3> INFO:FlashInfo: 00 80 CE 01 00 04 04 00 28 00 01
17:30:49 936	Layer<3,1-3>:获取FlashInfo成功
17:30:49 939	Layer<3,1-3>:准备IDB开始
17:30:49 940	<LAYER 1-3> INFO:CS(1)		(14800MB)		(SAMSUNG)
17:30:49 947	Layer<3,1-3>:准备IDB成功
17:30:49 952	Layer<3,1-3>:下载IDB开始
17:30:50 929	Layer<3,1-3>:下载IDB成功
17:30:50 937	Layer<3,1-3>:重启设备开始
17:30:51 941	Layer<3,1-3>:重启设备成功
17:30:52 031	Layer<3,1-3>:等待Loader开始
17:30:52 987	Layer<3,1-3>:等待Loader成功
17:30:53 002	Layer<3,1-3>:测试设备开始
17:30:53 012	Layer<3,1-3>:测试设备成功
17:30:53 021	Layer<3,1-3>:下载固件开始
17:30:53 023	<LAYER 1-3> INFO:Start download image,total=634831980
17:30:53 058	<LAYER 1-3> INFO:Start to download misc,offset=0x4000,size=49152
17:30:53 061	<LAYER 1-3> INFO:Start to download resource,offset=0x6000,size=370176
17:30:53 096	<LAYER 1-3> INFO:Start to download kernel,offset=0xe000,size=7132108
17:30:53 405	<LAYER 1-3> INFO:Start to download boot,offset=0x16000,size=8945664
17:30:53 772	<LAYER 1-3> INFO:Start to download recovery,offset=0x26000,size=10551296
17:30:54 237	<LAYER 1-3> INFO:Start to download system,offset=0x92000,size=607776768
17:31:02 678	Layer<2,1-2>:下载固件成功
17:31:02 683	Layer<2,1-2>:重启设备开始
17:31:02 686	Layer<2,1-2>:重启设备成功
17:31:02 696	Layer<2,1-2>:升级成功
17:31:38 965	Layer<3,1-3>:下载固件成功
17:31:38 975	Layer<3,1-3>:重启设备开始
17:31:38 985	Layer<3,1-3>:重启设备成功
17:31:39 001	Layer<3,1-3>:升级成功
17:32:54 363	Layer<2,1-2>:测试设备开始
17:32:54 371	Layer<2,1-2>:测试设备成功
17:32:54 379	Layer<2,1-2>:校验芯片开始
17:32:54 385	Layer<2,1-2>:校验芯片成功
17:32:54 388	Layer<2,1-2>:获取FlashInfo开始
17:32:54 389	<LAYER 1-2> INFO:FlashInfo: 00 80 CE 01 00 04 04 00 28 00 01
17:32:54 392	Layer<2,1-2>:获取FlashInfo成功
17:32:54 395	Layer<2,1-2>:准备IDB开始
17:32:54 395	<LAYER 1-2> INFO:CS(1)		(14800MB)		(SAMSUNG)
17:32:54 403	Layer<2,1-2>:准备IDB成功
17:32:54 406	Layer<2,1-2>:下载IDB开始
17:32:55 334	Layer<2,1-2>:下载IDB成功
17:32:55 351	Layer<2,1-2>:重启设备开始
17:32:56 353	Layer<2,1-2>:重启设备成功
17:32:56 360	Layer<2,1-2>:等待Loader开始
17:32:57 452	Layer<2,1-2>:等待Loader成功
17:32:57 469	Layer<2,1-2>:测试设备开始
17:32:57 481	Layer<2,1-2>:测试设备成功
17:32:57 493	Layer<2,1-2>:下载固件开始
17:32:57 494	<LAYER 1-2> INFO:Start download image,total=634831980
17:32:57 525	<LAYER 1-2> INFO:Start to download misc,offset=0x4000,size=49152
17:32:57 528	<LAYER 1-2> INFO:Start to download resource,offset=0x6000,size=370176
17:32:57 548	<LAYER 1-2> INFO:Start to download kernel,offset=0xe000,size=7132108
17:32:57 859	<LAYER 1-2> INFO:Start to download boot,offset=0x16000,size=8945664
17:32:58 217	<LAYER 1-2> INFO:Start to download recovery,offset=0x26000,size=10551296
17:32:58 659	<LAYER 1-2> INFO:Start to download system,offset=0x92000,size=607776768
17:33:03 068	Layer<3,1-3>:测试设备开始
17:33:03 072	Layer<3,1-3>:测试设备成功
17:33:03 075	Layer<3,1-3>:校验芯片开始
17:33:03 084	Layer<3,1-3>:校验芯片成功
17:33:03 087	Layer<3,1-3>:获取FlashInfo开始
17:33:03 088	<LAYER 1-3> INFO:FlashInfo: 00 80 CE 01 00 04 04 00 28 00 01
17:33:03 090	Layer<3,1-3>:获取FlashInfo成功
17:33:03 093	Layer<3,1-3>:准备IDB开始
17:33:03 093	<LAYER 1-3> INFO:CS(1)		(14800MB)		(SAMSUNG)
17:33:03 100	Layer<3,1-3>:准备IDB成功
17:33:03 104	Layer<3,1-3>:下载IDB开始
17:33:04 035	Layer<3,1-3>:下载IDB成功
17:33:04 049	Layer<3,1-3>:重启设备开始
17:33:05 051	Layer<3,1-3>:重启设备成功
17:33:05 107	Layer<3,1-3>:等待Loader开始
17:33:06 120	Layer<3,1-3>:等待Loader成功
17:33:06 291	Layer<3,1-3>:测试设备开始
17:33:06 307	Layer<3,1-3>:测试设备成功
17:33:06 315	Layer<3,1-3>:下载固件开始
17:33:06 316	<LAYER 1-3> INFO:Start download image,total=634831980
17:33:06 363	<LAYER 1-3> INFO:Start to download misc,offset=0x4000,size=49152
17:33:06 367	<LAYER 1-3> INFO:Start to download resource,offset=0x6000,size=370176
17:33:06 382	<LAYER 1-3> INFO:Start to download kernel,offset=0xe000,size=7132108
17:33:06 694	<LAYER 1-3> INFO:Start to download boot,offset=0x16000,size=8945664
17:33:07 078	<LAYER 1-3> INFO:Start to download recovery,offset=0x26000,size=10551296
17:33:07 525	<LAYER 1-3> INFO:Start to download system,offset=0x92000,size=607776768
17:33:43 043	Layer<2,1-2>:下载固件成功
17:33:43 048	Layer<2,1-2>:重启设备开始
17:33:43 051	Layer<2,1-2>:重启设备成功
17:33:43 060	Layer<2,1-2>:升级成功
17:33:51 543	Layer<3,1-3>:下载固件成功
17:33:51 553	Layer<3,1-3>:重启设备开始
17:33:51 563	Layer<3,1-3>:重启设备成功
17:33:51 578	Layer<3,1-3>:升级成功
17:35:25 633	Layer<2,1-2>:测试设备开始
17:35:25 643	Layer<2,1-2>:测试设备成功
17:35:25 649	Layer<2,1-2>:校验芯片开始
17:35:25 652	Layer<2,1-2>:校验芯片成功
17:35:25 656	Layer<2,1-2>:获取FlashInfo开始
17:35:25 656	<LAYER 1-2> INFO:FlashInfo: 00 80 CE 01 00 04 04 00 28 00 01
17:35:25 659	Layer<2,1-2>:获取FlashInfo成功
17:35:25 662	Layer<2,1-2>:准备IDB开始
17:35:25 662	<LAYER 1-2> INFO:CS(1)		(14800MB)		(SAMSUNG)
17:35:25 669	Layer<2,1-2>:准备IDB成功
17:35:25 673	Layer<2,1-2>:下载IDB开始
17:35:26 613	Layer<2,1-2>:下载IDB成功
17:35:26 627	Layer<2,1-2>:重启设备开始
17:35:27 630	Layer<2,1-2>:重启设备成功
17:35:27 687	Layer<2,1-2>:等待Loader开始
17:35:28 726	Layer<2,1-2>:等待Loader成功
17:35:28 735	Layer<2,1-2>:测试设备开始
17:35:28 742	Layer<2,1-2>:测试设备成功
17:35:28 748	Layer<2,1-2>:下载固件开始
17:35:28 750	<LAYER 1-2> INFO:Start download image,total=634831980
17:35:28 854	<LAYER 1-2> INFO:Start to download misc,offset=0x4000,size=49152
17:35:28 863	<LAYER 1-2> INFO:Start to download resource,offset=0x6000,size=370176
17:35:28 879	<LAYER 1-2> INFO:Start to download kernel,offset=0xe000,size=7132108
17:35:29 193	<LAYER 1-2> INFO:Start to download boot,offset=0x16000,size=8945664
17:35:29 554	<LAYER 1-2> INFO:Start to download recovery,offset=0x26000,size=10551296
17:35:29 991	<LAYER 1-2> INFO:Start to download system,offset=0x92000,size=607776768
17:35:49 199	Layer<3,1-3>:测试设备开始
17:35:49 202	Layer<3,1-3>:测试设备成功
17:35:49 206	Layer<3,1-3>:校验芯片开始
17:35:49 209	Layer<3,1-3>:校验芯片成功
17:35:49 213	Layer<3,1-3>:获取FlashInfo开始
17:35:49 213	<LAYER 1-3> INFO:FlashInfo: 00 80 CE 01 00 04 04 00 28 00 01
17:35:49 216	Layer<3,1-3>:获取FlashInfo成功
17:35:49 220	Layer<3,1-3>:准备IDB开始
17:35:49 220	<LAYER 1-3> INFO:CS(1)		(14800MB)		(SAMSUNG)
17:35:49 228	Layer<3,1-3>:准备IDB成功
17:35:49 231	Layer<3,1-3>:下载IDB开始
17:35:50 161	Layer<3,1-3>:下载IDB成功
17:35:50 181	Layer<3,1-3>:重启设备开始
17:35:51 185	Layer<3,1-3>:重启设备成功
17:35:51 190	Layer<3,1-3>:等待Loader开始
17:35:52 259	Layer<3,1-3>:等待Loader成功
17:35:52 266	Layer<3,1-3>:测试设备开始
17:35:52 276	Layer<3,1-3>:测试设备成功
17:35:52 283	Layer<3,1-3>:下载固件开始
17:35:52 284	<LAYER 1-3> INFO:Start download image,total=634831980
17:35:52 311	<LAYER 1-3> INFO:Start to download misc,offset=0x4000,size=49152
17:35:52 315	<LAYER 1-3> INFO:Start to download resource,offset=0x6000,size=370176
17:35:52 330	<LAYER 1-3> INFO:Start to download kernel,offset=0xe000,size=7132108
17:35:52 647	<LAYER 1-3> INFO:Start to download boot,offset=0x16000,size=8945664
17:35:53 012	<LAYER 1-3> INFO:Start to download recovery,offset=0x26000,size=10551296
17:35:53 438	<LAYER 1-3> INFO:Start to download system,offset=0x92000,size=607776768
17:36:14 774	Layer<2,1-2>:下载固件成功
17:36:14 784	Layer<2,1-2>:重启设备开始
17:36:14 787	Layer<2,1-2>:重启设备成功
17:36:14 796	Layer<2,1-2>:升级成功
17:36:37 620	Layer<3,1-3>:下载固件成功
17:36:37 629	Layer<3,1-3>:重启设备开始
17:36:37 639	Layer<3,1-3>:重启设备成功
17:36:37 654	Layer<3,1-3>:升级成功
17:37:54 726	Layer<2,1-2>:测试设备开始
17:37:54 734	Layer<2,1-2>:测试设备成功
17:37:54 743	Layer<2,1-2>:校验芯片开始
17:37:54 748	Layer<2,1-2>:校验芯片成功
17:37:54 753	Layer<2,1-2>:获取FlashInfo开始
17:37:54 754	<LAYER 1-2> INFO:FlashInfo: 00 80 CE 01 00 04 04 00 28 00 01
17:37:54 758	Layer<2,1-2>:获取FlashInfo成功
17:37:54 760	Layer<2,1-2>:准备IDB开始
17:37:54 761	<LAYER 1-2> INFO:CS(1)		(14800MB)		(SAMSUNG)
17:37:54 768	Layer<2,1-2>:准备IDB成功
17:37:54 771	Layer<2,1-2>:下载IDB开始
17:37:55 708	Layer<2,1-2>:下载IDB成功
17:37:55 716	Layer<2,1-2>:重启设备开始
17:37:56 719	Layer<2,1-2>:重启设备成功
17:37:56 738	Layer<2,1-2>:等待Loader开始
17:37:57 796	Layer<2,1-2>:等待Loader成功
17:37:57 800	Layer<2,1-2>:测试设备开始
17:37:57 803	Layer<2,1-2>:测试设备成功
17:37:57 817	Layer<2,1-2>:下载固件开始
17:37:57 819	<LAYER 1-2> INFO:Start download image,total=634831980
17:37:57 873	<LAYER 1-2> INFO:Start to download misc,offset=0x4000,size=49152
17:37:57 876	<LAYER 1-2> INFO:Start to download resource,offset=0x6000,size=370176
17:37:57 892	<LAYER 1-2> INFO:Start to download kernel,offset=0xe000,size=7132108
17:37:58 204	<LAYER 1-2> INFO:Start to download boot,offset=0x16000,size=8945664
17:37:58 564	<LAYER 1-2> INFO:Start to download recovery,offset=0x26000,size=10551296
17:37:59 006	<LAYER 1-2> INFO:Start to download system,offset=0x92000,size=607776768
17:38:09 067	Layer<3,1-3>:测试设备开始
17:38:09 075	Layer<3,1-3>:测试设备成功
17:38:09 083	Layer<3,1-3>:校验芯片开始
17:38:09 089	Layer<3,1-3>:校验芯片成功
17:38:09 092	Layer<3,1-3>:获取FlashInfo开始
17:38:09 093	<LAYER 1-3> INFO:FlashInfo: 00 80 CE 01 00 04 04 00 28 00 01
17:38:09 096	Layer<3,1-3>:获取FlashInfo成功
17:38:09 099	Layer<3,1-3>:准备IDB开始
17:38:09 100	<LAYER 1-3> INFO:CS(1)		(14800MB)		(SAMSUNG)
17:38:09 106	Layer<3,1-3>:准备IDB成功
17:38:09 110	Layer<3,1-3>:下载IDB开始
17:38:10 043	Layer<3,1-3>:下载IDB成功
17:38:10 062	Layer<3,1-3>:重启设备开始
17:38:11 065	Layer<3,1-3>:重启设备成功
17:38:11 122	Layer<3,1-3>:等待Loader开始
17:38:12 138	Layer<3,1-3>:等待Loader成功
17:38:12 223	Layer<3,1-3>:测试设备开始
17:38:12 274	Layer<3,1-3>:测试设备成功
17:38:12 285	Layer<3,1-3>:下载固件开始
17:38:12 286	<LAYER 1-3> INFO:Start download image,total=634831980
17:38:12 341	<LAYER 1-3> INFO:Start to download misc,offset=0x4000,size=49152
17:38:12 346	<LAYER 1-3> INFO:Start to download resource,offset=0x6000,size=370176
17:38:12 362	<LAYER 1-3> INFO:Start to download kernel,offset=0xe000,size=7132108
17:38:12 672	<LAYER 1-3> INFO:Start to download boot,offset=0x16000,size=8945664
17:38:13 030	<LAYER 1-3> INFO:Start to download recovery,offset=0x26000,size=10551296
17:38:13 468	<LAYER 1-3> INFO:Start to download system,offset=0x92000,size=607776768
17:38:43 987	Layer<2,1-2>:下载固件成功
17:38:44 005	Layer<2,1-2>:重启设备开始
17:38:44 008	Layer<2,1-2>:重启设备成功
17:38:44 017	Layer<2,1-2>:升级成功
17:38:57 826	Layer<3,1-3>:下载固件成功
17:38:57 842	Layer<3,1-3>:重启设备开始
17:38:57 862	Layer<3,1-3>:重启设备成功
17:38:57 897	Layer<3,1-3>:升级成功
17:40:00 050	Layer<2,1-2>:测试设备开始
17:40:00 055	Layer<2,1-2>:测试设备成功
17:40:00 058	Layer<2,1-2>:校验芯片开始
17:40:00 061	Layer<2,1-2>:校验芯片成功
17:40:00 064	Layer<2,1-2>:获取FlashInfo开始
17:40:00 065	<LAYER 1-2> INFO:FlashInfo: 00 80 CE 01 00 04 04 00 28 00 01
17:40:00 069	Layer<2,1-2>:获取FlashInfo成功
17:40:00 072	Layer<2,1-2>:准备IDB开始
17:40:00 072	<LAYER 1-2> INFO:CS(1)		(14800MB)		(SAMSUNG)
17:40:00 080	Layer<2,1-2>:准备IDB成功
17:40:00 083	Layer<2,1-2>:下载IDB开始
17:40:01 056	Layer<2,1-2>:下载IDB成功
17:40:01 074	Layer<2,1-2>:重启设备开始
17:40:02 078	Layer<2,1-2>:重启设备成功
17:40:02 138	Layer<2,1-2>:等待Loader开始
17:40:03 172	Layer<2,1-2>:等待Loader成功
17:40:03 181	Layer<2,1-2>:测试设备开始
17:40:03 188	Layer<2,1-2>:测试设备成功
17:40:03 197	Layer<2,1-2>:下载固件开始
17:40:03 198	<LAYER 1-2> INFO:Start download image,total=634831980
17:40:03 228	<LAYER 1-2> INFO:Start to download misc,offset=0x4000,size=49152
17:40:03 231	<LAYER 1-2> INFO:Start to download resource,offset=0x6000,size=370176
17:40:03 248	<LAYER 1-2> INFO:Start to download kernel,offset=0xe000,size=7132108
17:40:03 573	<LAYER 1-2> INFO:Start to download boot,offset=0x16000,size=8945664
17:40:03 951	<LAYER 1-2> INFO:Start to download recovery,offset=0x26000,size=10551296
17:40:04 415	<LAYER 1-2> INFO:Start to download system,offset=0x92000,size=607776768
17:40:14 241	Layer<3,1-3>:测试设备开始
17:40:14 250	Layer<3,1-3>:测试设备成功
17:40:14 260	Layer<3,1-3>:校验芯片开始
17:40:14 270	Layer<3,1-3>:校验芯片成功
17:40:14 276	Layer<3,1-3>:获取FlashInfo开始
17:40:14 277	<LAYER 1-3> INFO:FlashInfo: 00 80 CE 01 00 04 04 00 28 00 01
17:40:14 282	Layer<3,1-3>:获取FlashInfo成功
17:40:14 289	Layer<3,1-3>:准备IDB开始
17:40:14 289	<LAYER 1-3> INFO:CS(1)		(14800MB)		(SAMSUNG)
17:40:14 297	Layer<3,1-3>:准备IDB成功
17:40:14 300	Layer<3,1-3>:下载IDB开始
17:40:15 224	Layer<3,1-3>:下载IDB成功
17:40:15 244	Layer<3,1-3>:重启设备开始
17:40:16 247	Layer<3,1-3>:重启设备成功
17:40:16 252	Layer<3,1-3>:等待Loader开始
17:40:17 323	Layer<3,1-3>:等待Loader成功
17:40:17 341	Layer<3,1-3>:测试设备开始
17:40:17 361	Layer<3,1-3>:测试设备成功
17:40:17 383	Layer<3,1-3>:下载固件开始
17:40:17 385	<LAYER 1-3> INFO:Start download image,total=634831980
17:40:17 500	<LAYER 1-3> INFO:Start to download misc,offset=0x4000,size=49152
17:40:17 503	<LAYER 1-3> INFO:Start to download resource,offset=0x6000,size=370176
17:40:17 519	<LAYER 1-3> INFO:Start to download kernel,offset=0xe000,size=7132108
17:40:17 829	<LAYER 1-3> INFO:Start to download boot,offset=0x16000,size=8945664
17:40:18 183	<LAYER 1-3> INFO:Start to download recovery,offset=0x26000,size=10551296
17:40:18 623	<LAYER 1-3> INFO:Start to download system,offset=0x92000,size=607776768
17:40:50 121	Layer<2,1-2>:下载固件成功
17:40:50 131	Layer<2,1-2>:重启设备开始
17:40:50 139	Layer<2,1-2>:重启设备成功
17:40:50 156	Layer<2,1-2>:升级成功
17:41:03 011	Layer<3,1-3>:下载固件成功
17:41:03 021	Layer<3,1-3>:重启设备开始
17:41:03 025	Layer<3,1-3>:重启设备成功
17:41:03 033	Layer<3,1-3>:升级成功
17:43:10 206	Layer<2,1-2>:测试设备开始
17:43:10 213	Layer<2,1-2>:测试设备成功
17:43:10 222	Layer<2,1-2>:校验芯片开始
17:43:10 226	Layer<2,1-2>:校验芯片成功
17:43:10 228	Layer<2,1-2>:获取FlashInfo开始
17:43:10 229	<LAYER 1-2> INFO:FlashInfo: 00 80 CE 01 00 04 04 00 28 00 01
17:43:10 231	Layer<2,1-2>:获取FlashInfo成功
17:43:10 235	Layer<2,1-2>:准备IDB开始
17:43:10 236	<LAYER 1-2> INFO:CS(1)		(14800MB)		(SAMSUNG)
17:43:10 243	Layer<2,1-2>:准备IDB成功
17:43:10 245	Layer<2,1-2>:下载IDB开始
17:43:11 190	Layer<2,1-2>:下载IDB成功
17:43:11 210	Layer<2,1-2>:重启设备开始
17:43:12 213	Layer<2,1-2>:重启设备成功
17:43:12 222	Layer<2,1-2>:等待Loader开始
17:43:13 321	Layer<2,1-2>:等待Loader成功
17:43:13 338	Layer<2,1-2>:测试设备开始
17:43:13 348	Layer<2,1-2>:测试设备成功
17:43:13 356	Layer<2,1-2>:下载固件开始
17:43:13 357	<LAYER 1-2> INFO:Start download image,total=634831980
17:43:13 393	<LAYER 1-2> INFO:Start to download misc,offset=0x4000,size=49152
17:43:13 415	<LAYER 1-2> INFO:Start to download resource,offset=0x6000,size=370176
17:43:13 432	<LAYER 1-2> INFO:Start to download kernel,offset=0xe000,size=7132108
17:43:13 739	<LAYER 1-2> INFO:Start to download boot,offset=0x16000,size=8945664
17:43:14 102	<LAYER 1-2> INFO:Start to download recovery,offset=0x26000,size=10551296
17:43:14 543	<LAYER 1-2> INFO:Start to download system,offset=0x92000,size=607776768
17:43:36 996	Layer<3,1-3>:测试设备开始
17:43:37 000	Layer<3,1-3>:测试设备成功
17:43:37 003	Layer<3,1-3>:校验芯片开始
17:43:37 007	Layer<3,1-3>:校验芯片成功
17:43:37 010	Layer<3,1-3>:获取FlashInfo开始
17:43:37 010	<LAYER 1-3> INFO:FlashInfo: 00 80 CE 01 00 04 04 00 28 00 01
17:43:37 013	Layer<3,1-3>:获取FlashInfo成功
17:43:37 017	Layer<3,1-3>:准备IDB开始
17:43:37 018	<LAYER 1-3> INFO:CS(1)		(14800MB)		(SAMSUNG)
17:43:37 024	Layer<3,1-3>:准备IDB成功
17:43:37 027	Layer<3,1-3>:下载IDB开始
17:43:37 949	Layer<3,1-3>:下载IDB成功
17:43:37 967	Layer<3,1-3>:重启设备开始
17:43:38 970	Layer<3,1-3>:重启设备成功
17:43:39 029	Layer<3,1-3>:等待Loader开始
17:43:40 024	Layer<3,1-3>:等待Loader成功
17:43:40 036	Layer<3,1-3>:测试设备开始
17:43:40 046	Layer<3,1-3>:测试设备成功
17:43:40 059	Layer<3,1-3>:下载固件开始
17:43:40 060	<LAYER 1-3> INFO:Start download image,total=634831980
17:43:40 101	<LAYER 1-3> INFO:Start to download misc,offset=0x4000,size=49152
17:43:40 104	<LAYER 1-3> INFO:Start to download resource,offset=0x6000,size=370176
17:43:40 120	<LAYER 1-3> INFO:Start to download kernel,offset=0xe000,size=7132108
17:43:40 431	<LAYER 1-3> INFO:Start to download boot,offset=0x16000,size=8945664
17:43:40 790	<LAYER 1-3> INFO:Start to download recovery,offset=0x26000,size=10551296
17:43:41 208	<LAYER 1-3> INFO:Start to download system,offset=0x92000,size=607776768
17:43:59 811	Layer<2,1-2>:下载固件成功
17:43:59 821	Layer<2,1-2>:重启设备开始
17:43:59 830	Layer<2,1-2>:重启设备成功
17:43:59 848	Layer<2,1-2>:升级成功
17:44:25 460	Layer<3,1-3>:下载固件成功
17:44:25 478	Layer<3,1-3>:重启设备开始
17:44:25 496	Layer<3,1-3>:重启设备成功
17:44:25 535	Layer<3,1-3>:升级成功
17:45:45 913	Layer<2,1-2>:测试设备开始
17:45:45 923	Layer<2,1-2>:测试设备成功
17:45:45 930	Layer<2,1-2>:校验芯片开始
17:45:45 940	Layer<2,1-2>:校验芯片成功
17:45:45 948	Layer<2,1-2>:获取FlashInfo开始
17:45:45 950	<LAYER 1-2> INFO:FlashInfo: 00 80 CE 01 00 04 04 00 28 00 01
17:45:45 956	Layer<2,1-2>:获取FlashInfo成功
17:45:45 966	Layer<2,1-2>:准备IDB开始
17:45:45 968	<LAYER 1-2> INFO:CS(1)		(14800MB)		(SAMSUNG)
17:45:45 977	Layer<2,1-2>:准备IDB成功
17:45:45 986	Layer<2,1-2>:下载IDB开始
17:45:46 932	Layer<2,1-2>:下载IDB成功
17:45:46 949	Layer<2,1-2>:重启设备开始
17:45:47 953	Layer<2,1-2>:重启设备成功
17:45:48 011	Layer<2,1-2>:等待Loader开始
17:45:49 015	Layer<2,1-2>:等待Loader成功
17:45:49 094	Layer<2,1-2>:测试设备开始
17:45:49 113	Layer<2,1-2>:测试设备成功
17:45:49 139	Layer<2,1-2>:下载固件开始
17:45:49 141	<LAYER 1-2> INFO:Start download image,total=634831980
17:45:49 237	<LAYER 1-2> INFO:Start to download misc,offset=0x4000,size=49152
17:45:49 241	<LAYER 1-2> INFO:Start to download resource,offset=0x6000,size=370176
17:45:49 256	<LAYER 1-2> INFO:Start to download kernel,offset=0xe000,size=7132108
17:45:49 569	<LAYER 1-2> INFO:Start to download boot,offset=0x16000,size=8945664
17:45:49 931	<LAYER 1-2> INFO:Start to download recovery,offset=0x26000,size=10551296
17:45:50 374	<LAYER 1-2> INFO:Start to download system,offset=0x92000,size=607776768
17:46:03 248	Layer<3,1-3>:测试设备开始
17:46:03 250	Layer<3,1-3>:测试设备成功
17:46:03 255	Layer<3,1-3>:校验芯片开始
17:46:03 258	Layer<3,1-3>:校验芯片成功
17:46:03 261	Layer<3,1-3>:获取FlashInfo开始
17:46:03 262	<LAYER 1-3> INFO:FlashInfo: 00 80 CE 01 00 04 04 00 28 00 01
17:46:03 264	Layer<3,1-3>:获取FlashInfo成功
17:46:03 267	Layer<3,1-3>:准备IDB开始
17:46:03 268	<LAYER 1-3> INFO:CS(1)		(14800MB)		(SAMSUNG)
17:46:03 275	Layer<3,1-3>:准备IDB成功
17:46:03 278	Layer<3,1-3>:下载IDB开始
17:46:04 224	Layer<3,1-3>:下载IDB成功
17:46:04 227	Layer<3,1-3>:重启设备开始
17:46:05 233	Layer<3,1-3>:重启设备成功
17:46:05 307	Layer<3,1-3>:等待Loader开始
17:46:06 328	Layer<3,1-3>:等待Loader成功
17:46:06 336	Layer<3,1-3>:测试设备开始
17:46:06 345	Layer<3,1-3>:测试设备成功
17:46:06 355	Layer<3,1-3>:下载固件开始
17:46:06 356	<LAYER 1-3> INFO:Start download image,total=634831980
17:46:06 405	<LAYER 1-3> INFO:Start to download misc,offset=0x4000,size=49152
17:46:06 411	<LAYER 1-3> INFO:Start to download resource,offset=0x6000,size=370176
17:46:06 432	<LAYER 1-3> INFO:Start to download kernel,offset=0xe000,size=7132108
17:46:06 745	<LAYER 1-3> INFO:Start to download boot,offset=0x16000,size=8945664
17:46:07 111	<LAYER 1-3> INFO:Start to download recovery,offset=0x26000,size=10551296
17:46:07 554	<LAYER 1-3> INFO:Start to download system,offset=0x92000,size=607776768
17:46:35 770	Layer<2,1-2>:下载固件成功
17:46:35 773	Layer<2,1-2>:重启设备开始
17:46:35 776	Layer<2,1-2>:重启设备成功
17:46:35 785	Layer<2,1-2>:升级成功
17:46:52 259	Layer<3,1-3>:下载固件成功
17:46:52 271	Layer<3,1-3>:重启设备开始
17:46:52 278	Layer<3,1-3>:重启设备成功
17:46:52 291	Layer<3,1-3>:升级成功
17:48:22 928	Layer<2,1-2>:测试设备开始
17:48:22 944	Layer<2,1-2>:测试设备成功
17:48:22 953	Layer<2,1-2>:校验芯片开始
17:48:22 961	Layer<2,1-2>:校验芯片成功
17:48:22 969	Layer<2,1-2>:获取FlashInfo开始
17:48:22 970	<LAYER 1-2> INFO:FlashInfo: 00 80 CE 01 00 04 04 00 28 00 01
17:48:22 975	Layer<2,1-2>:获取FlashInfo成功
17:48:22 978	Layer<2,1-2>:准备IDB开始
17:48:22 978	<LAYER 1-2> INFO:CS(1)		(14800MB)		(SAMSUNG)
17:48:22 985	Layer<2,1-2>:准备IDB成功
17:48:22 988	Layer<2,1-2>:下载IDB开始
17:48:23 919	Layer<2,1-2>:下载IDB成功
17:48:23 936	Layer<2,1-2>:重启设备开始
17:48:24 939	Layer<2,1-2>:重启设备成功
17:48:25 000	Layer<2,1-2>:等待Loader开始
17:48:26 033	Layer<2,1-2>:等待Loader成功
17:48:26 043	Layer<2,1-2>:测试设备开始
17:48:26 054	Layer<2,1-2>:测试设备成功
17:48:26 062	Layer<2,1-2>:下载固件开始
17:48:26 064	<LAYER 1-2> INFO:Start download image,total=634831980
17:48:26 090	<LAYER 1-2> INFO:Start to download misc,offset=0x4000,size=49152
17:48:26 093	<LAYER 1-2> INFO:Start to download resource,offset=0x6000,size=370176
17:48:26 110	<LAYER 1-2> INFO:Start to download kernel,offset=0xe000,size=7132108
17:48:26 424	<LAYER 1-2> INFO:Start to download boot,offset=0x16000,size=8945664
17:48:26 780	<LAYER 1-2> INFO:Start to download recovery,offset=0x26000,size=10551296
17:48:27 233	<LAYER 1-2> INFO:Start to download system,offset=0x92000,size=607776768
17:48:37 026	Layer<3,1-3>:测试设备开始
17:48:37 029	Layer<3,1-3>:测试设备成功
17:48:37 033	Layer<3,1-3>:校验芯片开始
17:48:37 036	Layer<3,1-3>:校验芯片成功
17:48:37 039	Layer<3,1-3>:获取FlashInfo开始
17:48:37 040	<LAYER 1-3> INFO:FlashInfo: 00 80 CE 01 00 04 04 00 28 00 01
17:48:37 042	Layer<3,1-3>:获取FlashInfo成功
17:48:37 050	Layer<3,1-3>:准备IDB开始
17:48:37 050	<LAYER 1-3> INFO:CS(1)		(14800MB)		(SAMSUNG)
17:48:37 057	Layer<3,1-3>:准备IDB成功
17:48:37 060	Layer<3,1-3>:下载IDB开始
17:48:37 991	Layer<3,1-3>:下载IDB成功
17:48:38 014	Layer<3,1-3>:重启设备开始
17:48:39 017	Layer<3,1-3>:重启设备成功
17:48:39 077	Layer<3,1-3>:等待Loader开始
17:48:40 079	Layer<3,1-3>:等待Loader成功
17:48:40 114	Layer<3,1-3>:测试设备开始
17:48:40 123	Layer<3,1-3>:测试设备成功
17:48:40 134	Layer<3,1-3>:下载固件开始
17:48:40 134	<LAYER 1-3> INFO:Start download image,total=634831980
17:48:40 165	<LAYER 1-3> INFO:Start to download misc,offset=0x4000,size=49152
17:48:40 168	<LAYER 1-3> INFO:Start to download resource,offset=0x6000,size=370176
17:48:40 188	<LAYER 1-3> INFO:Start to download kernel,offset=0xe000,size=7132108
17:48:40 506	<LAYER 1-3> INFO:Start to download boot,offset=0x16000,size=8945664
17:48:40 868	<LAYER 1-3> INFO:Start to download recovery,offset=0x26000,size=10551296
17:48:41 288	<LAYER 1-3> INFO:Start to download system,offset=0x92000,size=607776768
17:49:11 270	Layer<2,1-2>:下载固件成功
17:49:11 275	Layer<2,1-2>:重启设备开始
17:49:11 279	Layer<2,1-2>:重启设备成功
17:49:11 288	Layer<2,1-2>:升级成功
17:49:25 057	Layer<3,1-3>:下载固件成功
17:49:25 066	Layer<3,1-3>:重启设备开始
17:49:25 074	Layer<3,1-3>:重启设备成功
17:49:25 083	Layer<3,1-3>:升级成功
17:50:15 548	Layer<2,1-2>:测试设备开始
17:50:15 558	Layer<2,1-2>:测试设备成功
17:50:15 567	Layer<2,1-2>:校验芯片开始
17:50:15 570	Layer<2,1-2>:校验芯片成功
17:50:15 573	Layer<2,1-2>:获取FlashInfo开始
17:50:15 573	<LAYER 1-2> INFO:FlashInfo: 00 80 CE 01 00 04 04 00 28 00 01
17:50:15 575	Layer<2,1-2>:获取FlashInfo成功
17:50:15 579	Layer<2,1-2>:准备IDB开始
17:50:15 579	<LAYER 1-2> INFO:CS(1)		(14800MB)		(SAMSUNG)
17:50:15 587	Layer<2,1-2>:准备IDB成功
17:50:15 590	Layer<2,1-2>:下载IDB开始
17:50:16 551	Layer<2,1-2>:下载IDB成功
17:50:16 567	Layer<2,1-2>:重启设备开始
17:50:17 570	Layer<2,1-2>:重启设备成功
17:50:17 573	Layer<2,1-2>:等待Loader开始
17:50:18 667	Layer<2,1-2>:等待Loader成功
17:50:18 684	Layer<2,1-2>:测试设备开始
17:50:18 701	Layer<2,1-2>:测试设备成功
17:50:18 715	Layer<2,1-2>:下载固件开始
17:50:18 716	<LAYER 1-2> INFO:Start download image,total=634831980
17:50:18 774	<LAYER 1-2> INFO:Start to download misc,offset=0x4000,size=49152
17:50:18 783	<LAYER 1-2> INFO:Start to download resource,offset=0x6000,size=370176
17:50:18 800	<LAYER 1-2> INFO:Start to download kernel,offset=0xe000,size=7132108
17:50:19 124	<LAYER 1-2> INFO:Start to download boot,offset=0x16000,size=8945664
17:50:19 504	<LAYER 1-2> INFO:Start to download recovery,offset=0x26000,size=10551296
17:50:19 982	<LAYER 1-2> INFO:Start to download system,offset=0x92000,size=607776768
17:50:31 292	Layer<3,1-3>:测试设备开始
17:50:31 302	Layer<3,1-3>:测试设备成功
17:50:31 310	Layer<3,1-3>:校验芯片开始
17:50:31 317	Layer<3,1-3>:校验芯片成功
17:50:31 321	Layer<3,1-3>:获取FlashInfo开始
17:50:31 321	<LAYER 1-3> INFO:FlashInfo: 00 80 CE 01 00 04 04 00 28 00 01
17:50:31 324	Layer<3,1-3>:获取FlashInfo成功
17:50:31 329	Layer<3,1-3>:准备IDB开始
17:50:31 329	<LAYER 1-3> INFO:CS(1)		(14800MB)		(SAMSUNG)
17:50:31 336	Layer<3,1-3>:准备IDB成功
17:50:31 340	Layer<3,1-3>:下载IDB开始
17:50:32 328	Layer<3,1-3>:下载IDB成功
17:50:32 349	Layer<3,1-3>:重启设备开始
17:50:33 352	Layer<3,1-3>:重启设备成功
17:50:33 358	Layer<3,1-3>:等待Loader开始
17:50:34 409	Layer<3,1-3>:等待Loader成功
17:50:34 417	Layer<3,1-3>:测试设备开始
17:50:34 425	Layer<3,1-3>:测试设备成功
17:50:34 435	Layer<3,1-3>:下载固件开始
17:50:34 436	<LAYER 1-3> INFO:Start download image,total=634831980
17:50:34 462	<LAYER 1-3> INFO:Start to download misc,offset=0x4000,size=49152
17:50:34 466	<LAYER 1-3> INFO:Start to download resource,offset=0x6000,size=370176
17:50:34 482	<LAYER 1-3> INFO:Start to download kernel,offset=0xe000,size=7132108
17:50:34 813	<LAYER 1-3> INFO:Start to download boot,offset=0x16000,size=8945664
17:50:35 200	<LAYER 1-3> INFO:Start to download recovery,offset=0x26000,size=10551296
17:50:35 652	<LAYER 1-3> INFO:Start to download system,offset=0x92000,size=607776768
17:51:06 066	Layer<2,1-2>:下载固件成功
17:51:06 074	Layer<2,1-2>:重启设备开始
17:51:06 083	Layer<2,1-2>:重启设备成功
17:51:06 093	Layer<2,1-2>:升级成功
17:51:21 749	Layer<3,1-3>:下载固件成功
17:51:21 758	Layer<3,1-3>:重启设备开始
17:51:21 767	Layer<3,1-3>:重启设备成功
17:51:21 780	Layer<3,1-3>:升级成功
17:52:39 610	Layer<2,1-2>:测试设备开始
17:52:39 613	Layer<2,1-2>:测试设备成功
17:52:39 616	Layer<2,1-2>:校验芯片开始
17:52:39 620	Layer<2,1-2>:校验芯片成功
17:52:39 623	Layer<2,1-2>:获取FlashInfo开始
17:52:39 623	<LAYER 1-2> INFO:FlashInfo: 00 80 CE 01 00 04 04 00 28 00 01
17:52:39 626	Layer<2,1-2>:获取FlashInfo成功
17:52:39 630	Layer<2,1-2>:准备IDB开始
17:52:39 630	<LAYER 1-2> INFO:CS(1)		(14800MB)		(SAMSUNG)
17:52:39 638	Layer<2,1-2>:准备IDB成功
17:52:39 641	Layer<2,1-2>:下载IDB开始
17:52:40 575	Layer<2,1-2>:下载IDB成功
17:52:40 578	Layer<2,1-2>:重启设备开始
17:52:41 581	Layer<2,1-2>:重启设备成功
17:52:41 674	Layer<2,1-2>:等待Loader开始
17:52:42 667	Layer<2,1-2>:等待Loader成功
17:52:42 685	Layer<2,1-2>:测试设备开始
17:52:42 701	Layer<2,1-2>:测试设备成功
17:52:42 717	Layer<2,1-2>:下载固件开始
17:52:42 719	<LAYER 1-2> INFO:Start download image,total=634831980
17:52:42 810	<LAYER 1-2> INFO:Start to download misc,offset=0x4000,size=49152
17:52:42 816	<LAYER 1-2> INFO:Start to download resource,offset=0x6000,size=370176
17:52:42 832	<LAYER 1-2> INFO:Start to download kernel,offset=0xe000,size=7132108
17:52:43 144	<LAYER 1-2> INFO:Start to download boot,offset=0x16000,size=8945664
17:52:43 503	<LAYER 1-2> INFO:Start to download recovery,offset=0x26000,size=10551296
17:52:43 939	<LAYER 1-2> INFO:Start to download system,offset=0x92000,size=607776768
17:52:53 962	Layer<3,1-3>:测试设备开始
17:52:53 968	Layer<3,1-3>:测试设备成功
17:52:53 973	Layer<3,1-3>:校验芯片开始
17:52:53 978	Layer<3,1-3>:校验芯片成功
17:52:53 981	Layer<3,1-3>:获取FlashInfo开始
17:52:53 982	<LAYER 1-3> INFO:FlashInfo: 00 80 CE 01 00 04 04 00 28 00 01
17:52:53 985	Layer<3,1-3>:获取FlashInfo成功
17:52:53 988	Layer<3,1-3>:准备IDB开始
17:52:53 989	<LAYER 1-3> INFO:CS(1)		(14800MB)		(SAMSUNG)
17:52:53 996	Layer<3,1-3>:准备IDB成功
17:52:53 999	Layer<3,1-3>:下载IDB开始
17:52:54 944	Layer<3,1-3>:下载IDB成功
17:52:54 959	Layer<3,1-3>:重启设备开始
17:52:55 961	Layer<3,1-3>:重启设备成功
17:52:55 966	Layer<3,1-3>:等待Loader开始
17:52:57 033	Layer<3,1-3>:等待Loader成功
17:52:57 042	Layer<3,1-3>:测试设备开始
17:52:57 050	Layer<3,1-3>:测试设备成功
17:52:57 064	Layer<3,1-3>:下载固件开始
17:52:57 065	<LAYER 1-3> INFO:Start download image,total=634831980
17:52:57 105	<LAYER 1-3> INFO:Start to download misc,offset=0x4000,size=49152
17:52:57 110	<LAYER 1-3> INFO:Start to download resource,offset=0x6000,size=370176
17:52:57 128	<LAYER 1-3> INFO:Start to download kernel,offset=0xe000,size=7132108
17:52:57 449	<LAYER 1-3> INFO:Start to download boot,offset=0x16000,size=8945664
17:52:57 836	<LAYER 1-3> INFO:Start to download recovery,offset=0x26000,size=10551296
17:52:58 286	<LAYER 1-3> INFO:Start to download system,offset=0x92000,size=607776768
17:53:27 994	Layer<2,1-2>:下载固件成功
17:53:28 001	Layer<2,1-2>:重启设备开始
17:53:28 012	Layer<2,1-2>:重启设备成功
17:53:28 022	Layer<2,1-2>:升级成功
17:53:44 247	Layer<3,1-3>:下载固件成功
17:53:44 254	Layer<3,1-3>:重启设备开始
17:53:44 256	Layer<3,1-3>:重启设备成功
17:53:44 263	Layer<3,1-3>:升级成功
17:54:38 225	Layer<2,1-2>:测试设备开始
17:54:38 228	Layer<2,1-2>:测试设备成功
17:54:38 231	Layer<2,1-2>:校验芯片开始
17:54:38 235	Layer<2,1-2>:校验芯片成功
17:54:38 240	Layer<2,1-2>:获取FlashInfo开始
17:54:38 240	<LAYER 1-2> INFO:FlashInfo: 00 80 CE 01 00 04 04 00 28 00 01
17:54:38 243	Layer<2,1-2>:获取FlashInfo成功
17:54:38 246	Layer<2,1-2>:准备IDB开始
17:54:38 247	<LAYER 1-2> INFO:CS(1)		(14800MB)		(SAMSUNG)
17:54:38 254	Layer<2,1-2>:准备IDB成功
17:54:38 258	Layer<2,1-2>:下载IDB开始
17:54:39 229	Layer<2,1-2>:下载IDB成功
17:54:39 231	Layer<2,1-2>:重启设备开始
17:54:40 237	Layer<2,1-2>:重启设备成功
17:54:40 320	Layer<2,1-2>:等待Loader开始
17:54:41 248	Layer<2,1-2>:等待Loader成功
17:54:41 257	Layer<2,1-2>:测试设备开始
17:54:41 264	Layer<2,1-2>:测试设备成功
17:54:41 273	Layer<2,1-2>:下载固件开始
17:54:41 274	<LAYER 1-2> INFO:Start download image,total=634831980
17:54:41 299	<LAYER 1-2> INFO:Start to download misc,offset=0x4000,size=49152
17:54:41 302	<LAYER 1-2> INFO:Start to download resource,offset=0x6000,size=370176
17:54:41 319	<LAYER 1-2> INFO:Start to download kernel,offset=0xe000,size=7132108
17:54:41 646	<LAYER 1-2> INFO:Start to download boot,offset=0x16000,size=8945664
17:54:42 017	<LAYER 1-2> INFO:Start to download recovery,offset=0x26000,size=10551296
17:54:42 499	<LAYER 1-2> INFO:Start to download system,offset=0x92000,size=607776768
17:54:53 369	Layer<3,1-3>:测试设备开始
17:54:53 372	Layer<3,1-3>:测试设备成功
17:54:53 376	Layer<3,1-3>:校验芯片开始
17:54:53 381	Layer<3,1-3>:校验芯片成功
17:54:53 385	Layer<3,1-3>:获取FlashInfo开始
17:54:53 386	<LAYER 1-3> INFO:FlashInfo: 00 80 CE 01 00 04 04 00 28 00 01
17:54:53 388	Layer<3,1-3>:获取FlashInfo成功
17:54:53 392	Layer<3,1-3>:准备IDB开始
17:54:53 392	<LAYER 1-3> INFO:CS(1)		(14800MB)		(SAMSUNG)
17:54:53 400	Layer<3,1-3>:准备IDB成功
17:54:53 403	Layer<3,1-3>:下载IDB开始
17:54:54 362	Layer<3,1-3>:下载IDB成功
17:54:54 366	Layer<3,1-3>:重启设备开始
17:54:55 367	Layer<3,1-3>:重启设备成功
17:54:55 371	Layer<3,1-3>:等待Loader开始
17:54:56 441	Layer<3,1-3>:等待Loader成功
17:54:56 451	Layer<3,1-3>:测试设备开始
17:54:56 461	Layer<3,1-3>:测试设备成功
17:54:56 471	Layer<3,1-3>:下载固件开始
17:54:56 472	<LAYER 1-3> INFO:Start download image,total=634831980
17:54:56 563	<LAYER 1-3> INFO:Start to download misc,offset=0x4000,size=49152
17:54:56 570	<LAYER 1-3> INFO:Start to download resource,offset=0x6000,size=370176
17:54:56 587	<LAYER 1-3> INFO:Start to download kernel,offset=0xe000,size=7132108
17:54:56 915	<LAYER 1-3> INFO:Start to download boot,offset=0x16000,size=8945664
17:54:57 292	<LAYER 1-3> INFO:Start to download recovery,offset=0x26000,size=10551296
17:54:57 734	<LAYER 1-3> INFO:Start to download system,offset=0x92000,size=607776768
17:55:28 860	Layer<2,1-2>:下载固件成功
17:55:28 863	Layer<2,1-2>:重启设备开始
17:55:28 866	Layer<2,1-2>:重启设备成功
17:55:28 878	Layer<2,1-2>:升级成功
17:55:44 045	Layer<3,1-3>:下载固件成功
17:55:44 064	Layer<3,1-3>:重启设备开始
17:55:44 071	Layer<3,1-3>:重启设备成功
17:55:44 089	Layer<3,1-3>:升级成功
17:57:04 670	Layer<2,1-2>:测试设备开始
17:57:04 675	Layer<2,1-2>:测试设备成功
17:57:04 678	Layer<2,1-2>:校验芯片开始
17:57:04 682	Layer<2,1-2>:校验芯片成功
17:57:04 688	Layer<2,1-2>:获取FlashInfo开始
17:57:04 689	<LAYER 1-2> INFO:FlashInfo: 00 80 CE 01 00 04 04 00 28 00 01
17:57:04 692	Layer<2,1-2>:获取FlashInfo成功
17:57:04 696	Layer<2,1-2>:准备IDB开始
17:57:04 696	<LAYER 1-2> INFO:CS(1)		(14800MB)		(SAMSUNG)
17:57:04 706	Layer<2,1-2>:准备IDB成功
17:57:04 709	Layer<2,1-2>:下载IDB开始
17:57:05 642	Layer<2,1-2>:下载IDB成功
17:57:05 663	Layer<2,1-2>:重启设备开始
17:57:06 666	Layer<2,1-2>:重启设备成功
17:57:06 670	Layer<2,1-2>:等待Loader开始
17:57:07 756	Layer<2,1-2>:等待Loader成功
17:57:07 759	Layer<2,1-2>:测试设备开始
17:57:07 765	Layer<2,1-2>:测试设备成功
17:57:07 773	Layer<2,1-2>:下载固件开始
17:57:07 774	<LAYER 1-2> INFO:Start download image,total=634831980
17:57:07 811	<LAYER 1-2> INFO:Start to download misc,offset=0x4000,size=49152
17:57:07 815	<LAYER 1-2> INFO:Start to download resource,offset=0x6000,size=370176
17:57:07 831	<LAYER 1-2> INFO:Start to download kernel,offset=0xe000,size=7132108
17:57:08 142	<LAYER 1-2> INFO:Start to download boot,offset=0x16000,size=8945664
17:57:08 498	<LAYER 1-2> INFO:Start to download recovery,offset=0x26000,size=10551296
17:57:08 942	<LAYER 1-2> INFO:Start to download system,offset=0x92000,size=607776768
17:57:41 081	Layer<3,1-3>:测试设备开始
17:57:41 091	Layer<3,1-3>:测试设备成功
17:57:41 103	Layer<3,1-3>:校验芯片开始
17:57:41 114	Layer<3,1-3>:校验芯片成功
17:57:41 124	Layer<3,1-3>:获取FlashInfo开始
17:57:41 125	<LAYER 1-3> INFO:FlashInfo: 00 80 CE 01 00 04 04 00 28 00 01
17:57:41 130	Layer<3,1-3>:获取FlashInfo成功
17:57:41 133	Layer<3,1-3>:准备IDB开始
17:57:41 133	<LAYER 1-3> INFO:CS(1)		(14800MB)		(SAMSUNG)
17:57:41 141	Layer<3,1-3>:准备IDB成功
17:57:41 144	Layer<3,1-3>:下载IDB开始
17:57:42 046	Layer<3,1-3>:下载IDB成功
17:57:42 055	Layer<3,1-3>:重启设备开始
17:57:43 058	Layer<3,1-3>:重启设备成功
17:57:43 063	Layer<3,1-3>:等待Loader开始
17:57:44 098	Layer<3,1-3>:等待Loader成功
17:57:44 107	Layer<3,1-3>:测试设备开始
17:57:44 117	Layer<3,1-3>:测试设备成功
17:57:44 125	Layer<3,1-3>:下载固件开始
17:57:44 126	<LAYER 1-3> INFO:Start download image,total=634831980
17:57:44 152	<LAYER 1-3> INFO:Start to download misc,offset=0x4000,size=49152
17:57:44 157	<LAYER 1-3> INFO:Start to download resource,offset=0x6000,size=370176
17:57:44 172	<LAYER 1-3> INFO:Start to download kernel,offset=0xe000,size=7132108
17:57:44 484	<LAYER 1-3> INFO:Start to download boot,offset=0x16000,size=8945664
17:57:44 841	<LAYER 1-3> INFO:Start to download recovery,offset=0x26000,size=10551296
17:57:45 258	<LAYER 1-3> INFO:Start to download system,offset=0x92000,size=607776768
17:57:53 710	Layer<2,1-2>:下载固件成功
17:57:53 718	Layer<2,1-2>:重启设备开始
17:57:53 725	Layer<2,1-2>:重启设备成功
17:57:53 734	Layer<2,1-2>:升级成功
17:58:29 814	Layer<3,1-3>:下载固件成功
17:58:29 823	Layer<3,1-3>:重启设备开始
17:58:29 830	Layer<3,1-3>:重启设备成功
17:58:29 848	Layer<3,1-3>:升级成功
17:59:13 096	Layer<2,1-2>:测试设备开始
17:59:13 110	Layer<2,1-2>:测试设备成功
17:59:13 118	Layer<2,1-2>:校验芯片开始
17:59:13 126	Layer<2,1-2>:校验芯片成功
17:59:13 136	Layer<2,1-2>:获取FlashInfo开始
17:59:13 137	<LAYER 1-2> INFO:FlashInfo: 00 80 CE 01 00 04 04 00 28 00 01
17:59:13 141	Layer<2,1-2>:获取FlashInfo成功
17:59:13 146	Layer<2,1-2>:准备IDB开始
17:59:13 146	<LAYER 1-2> INFO:CS(1)		(14800MB)		(SAMSUNG)
17:59:13 153	Layer<2,1-2>:准备IDB成功
17:59:13 157	Layer<2,1-2>:下载IDB开始
17:59:14 079	Layer<2,1-2>:下载IDB成功
17:59:14 092	Layer<2,1-2>:重启设备开始
17:59:15 095	Layer<2,1-2>:重启设备成功
17:59:15 154	Layer<2,1-2>:等待Loader开始
17:59:16 183	Layer<2,1-2>:等待Loader成功
17:59:16 252	Layer<2,1-2>:测试设备开始
17:59:16 319	Layer<2,1-2>:测试设备成功
17:59:16 368	Layer<2,1-2>:下载固件开始
17:59:16 370	<LAYER 1-2> INFO:Start download image,total=634831980
17:59:16 429	<LAYER 1-2> INFO:Start to download misc,offset=0x4000,size=49152
17:59:16 440	<LAYER 1-2> INFO:Start to download resource,offset=0x6000,size=370176
17:59:16 456	<LAYER 1-2> INFO:Start to download kernel,offset=0xe000,size=7132108
17:59:16 775	<LAYER 1-2> INFO:Start to download boot,offset=0x16000,size=8945664
17:59:17 135	<LAYER 1-2> INFO:Start to download recovery,offset=0x26000,size=10551296
17:59:17 574	<LAYER 1-2> INFO:Start to download system,offset=0x92000,size=607776768
17:59:41 651	Layer<3,1-3>:测试设备开始
17:59:41 662	Layer<3,1-3>:测试设备成功
17:59:41 666	Layer<3,1-3>:校验芯片开始
17:59:41 669	Layer<3,1-3>:校验芯片成功
17:59:41 673	Layer<3,1-3>:获取FlashInfo开始
17:59:41 674	<LAYER 1-3> INFO:FlashInfo: 00 80 CE 01 00 04 04 00 28 00 01
17:59:41 677	Layer<3,1-3>:获取FlashInfo成功
17:59:41 680	Layer<3,1-3>:准备IDB开始
17:59:41 680	<LAYER 1-3> INFO:CS(1)		(14800MB)		(SAMSUNG)
17:59:41 688	Layer<3,1-3>:准备IDB成功
17:59:41 692	Layer<3,1-3>:下载IDB开始
17:59:42 612	Layer<3,1-3>:下载IDB成功
17:59:42 627	Layer<3,1-3>:重启设备开始
17:59:43 630	Layer<3,1-3>:重启设备成功
17:59:43 685	Layer<3,1-3>:等待Loader开始
17:59:44 676	Layer<3,1-3>:等待Loader成功
17:59:44 685	Layer<3,1-3>:测试设备开始
17:59:44 696	Layer<3,1-3>:测试设备成功
17:59:44 705	Layer<3,1-3>:下载固件开始
17:59:44 707	<LAYER 1-3> INFO:Start download image,total=634831980
17:59:44 770	<LAYER 1-3> INFO:Start to download misc,offset=0x4000,size=49152
17:59:44 773	<LAYER 1-3> INFO:Start to download resource,offset=0x6000,size=370176
17:59:44 792	<LAYER 1-3> INFO:Start to download kernel,offset=0xe000,size=7132108
17:59:45 105	<LAYER 1-3> INFO:Start to download boot,offset=0x16000,size=8945664
17:59:45 459	<LAYER 1-3> INFO:Start to download recovery,offset=0x26000,size=10551296
17:59:45 897	<LAYER 1-3> INFO:Start to download system,offset=0x92000,size=607776768
18:00:02 941	Layer<2,1-2>:下载固件成功
18:00:02 945	Layer<2,1-2>:重启设备开始
18:00:02 948	Layer<2,1-2>:重启设备成功
18:00:02 957	Layer<2,1-2>:升级成功
18:00:30 210	Layer<3,1-3>:下载固件成功
18:00:30 221	Layer<3,1-3>:重启设备开始
18:00:30 229	Layer<3,1-3>:重启设备成功
18:00:30 258	Layer<3,1-3>:升级成功
