10:10:43 297	Factory Tool v1.3.7.0 start run
10:11:37 071	Layer<6,1-1-2>:测试设备开始
10:11:37 080	Layer<6,1-1-2>:测试设备成功
10:11:37 085	Layer<6,1-1-2>:校验芯片开始
10:11:37 091	Layer<6,1-1-2>:校验芯片成功
10:11:37 096	Layer<6,1-1-2>:获取FlashInfo开始
10:11:37 098	<LAYER 1-1-2> INFO:FlashInfo: 00 00 E9 00 00 04 04 00 28 00 01
10:11:37 125	Layer<6,1-1-2>:获取FlashInfo成功
10:11:37 131	Layer<6,1-1-2>:准备IDB开始
10:11:37 186	<LAYER 1-1-2> INFO:CS(1)		(7456MB)		(SAMSUNG)
10:11:37 202	Layer<6,1-1-2>:准备IDB成功
10:11:37 212	Layer<6,1-1-2>:下载IDB开始
10:11:38 186	Layer<6,1-1-2>:下载IDB成功
10:11:38 195	Layer<6,1-1-2>:重启设备开始
10:11:39 198	Layer<6,1-1-2>:重启设备成功
10:11:39 206	Layer<6,1-1-2>:等待Loader开始
10:11:53 170	Layer<6,1-1-2>:等待Loader成功
10:11:53 173	Layer<6,1-1-2>:测试设备开始
10:11:53 194	Layer<6,1-1-2>:测试设备成功
10:11:53 253	Layer<6,1-1-2>:下载固件开始
10:11:53 290	<LAYER 1-1-2> INFO:Start download image,total=636364340
10:11:53 352	<LAYER 1-1-2> INFO:Start to download misc,offset=0x4000,size=49152
10:11:53 413	<LAYER 1-1-2> INFO:Start to download resource,offset=0x6000,size=370176
10:11:53 537	<LAYER 1-1-2> INFO:Start to download kernel,offset=0xe000,size=7128468
10:11:54 159	<LAYER 1-1-2> INFO:Start to download boot,offset=0x16000,size=8945664
10:11:54 866	<LAYER 1-1-2> INFO:Start to download recovery,offset=0x26000,size=10551296
10:11:55 529	<LAYER 1-1-2> INFO:Start to download system,offset=0x92000,size=609312768
10:12:45 947	Layer<6,1-1-2>:下载固件成功
10:12:45 978	Layer<6,1-1-2>:重启设备开始
10:12:45 985	Layer<6,1-1-2>:重启设备成功
10:12:46 005	Layer<6,1-1-2>:升级成功
17:57:07 114	Factory Tool v1.3.7.0 start run
17:58:57 251	Layer<6,1-1-2>:测试设备开始
17:58:57 258	Layer<6,1-1-2>:测试设备成功
17:58:57 264	Layer<6,1-1-2>:校验芯片开始
17:58:57 270	Layer<6,1-1-2>:校验芯片成功
17:58:57 276	Layer<6,1-1-2>:获取FlashInfo开始
17:58:57 278	<LAYER 1-1-2> INFO:FlashInfo: 00 00 E9 00 00 04 04 00 28 00 01
17:58:57 282	Layer<6,1-1-2>:获取FlashInfo成功
17:58:57 288	Layer<6,1-1-2>:准备IDB开始
17:58:57 290	<LAYER 1-1-2> INFO:CS(1)		(7456MB)		(SAMSUNG)
17:58:57 304	Layer<6,1-1-2>:准备IDB成功
17:58:57 310	Layer<6,1-1-2>:下载IDB开始
17:58:58 208	Layer<6,1-1-2>:下载IDB成功
17:58:58 217	Layer<6,1-1-2>:重启设备开始
17:58:59 220	Layer<6,1-1-2>:重启设备成功
17:58:59 230	Layer<6,1-1-2>:等待Loader开始
17:59:02 283	Layer<6,1-1-2>:等待Loader成功
17:59:02 288	Layer<6,1-1-2>:测试设备开始
17:59:02 294	Layer<6,1-1-2>:测试设备成功
17:59:02 299	Layer<6,1-1-2>:下载固件开始
17:59:02 301	<LAYER 1-1-2> INFO:Start download image,total=636368188
17:59:02 344	<LAYER 1-1-2> INFO:Start to download misc,offset=0x4000,size=49152
17:59:02 350	<LAYER 1-1-2> INFO:Start to download resource,offset=0x6000,size=370176
17:59:02 420	<LAYER 1-1-2> INFO:Start to download kernel,offset=0xe000,size=7128220
17:59:02 736	<LAYER 1-1-2> INFO:Start to download boot,offset=0x16000,size=8945664
17:59:03 128	<LAYER 1-1-2> INFO:Start to download recovery,offset=0x26000,size=10551296
17:59:03 606	<LAYER 1-1-2> INFO:Start to download system,offset=0x92000,size=609316864
17:59:08 384	Layer<5,1-1-1>:测试设备开始
17:59:08 392	Layer<5,1-1-1>:测试设备成功
17:59:08 398	Layer<5,1-1-1>:校验芯片开始
17:59:08 405	Layer<5,1-1-1>:校验芯片成功
17:59:08 412	Layer<5,1-1-1>:获取FlashInfo开始
17:59:08 414	<LAYER 1-1-1> INFO:FlashInfo: 00 00 E9 00 00 04 04 00 28 00 01
17:59:08 418	Layer<5,1-1-1>:获取FlashInfo成功
17:59:08 426	Layer<5,1-1-1>:准备IDB开始
17:59:08 428	<LAYER 1-1-1> INFO:CS(1)		(7456MB)		(SAMSUNG)
17:59:08 439	Layer<5,1-1-1>:准备IDB成功
17:59:08 445	Layer<5,1-1-1>:下载IDB开始
17:59:09 397	Layer<5,1-1-1>:下载IDB成功
17:59:09 407	Layer<5,1-1-1>:重启设备开始
17:59:10 415	Layer<5,1-1-1>:重启设备成功
17:59:10 422	Layer<5,1-1-1>:等待Loader开始
17:59:12 542	Layer<5,1-1-1>:等待Loader成功
17:59:12 547	Layer<5,1-1-1>:测试设备开始
17:59:12 554	Layer<5,1-1-1>:测试设备成功
17:59:12 559	Layer<5,1-1-1>:下载固件开始
17:59:12 561	<LAYER 1-1-1> INFO:Start download image,total=636368188
17:59:12 618	<LAYER 1-1-1> INFO:Start to download misc,offset=0x4000,size=49152
17:59:12 634	<LAYER 1-1-1> INFO:Start to download resource,offset=0x6000,size=370176
17:59:12 655	<LAYER 1-1-1> INFO:Start to download kernel,offset=0xe000,size=7128220
17:59:13 019	<LAYER 1-1-1> INFO:Start to download boot,offset=0x16000,size=8945664
17:59:13 477	<LAYER 1-1-1> INFO:Start to download recovery,offset=0x26000,size=10551296
17:59:14 029	<LAYER 1-1-1> INFO:Start to download system,offset=0x92000,size=609316864
18:00:02 157	Layer<6,1-1-2>:下载固件成功
18:00:02 171	Layer<6,1-1-2>:重启设备开始
18:00:02 177	Layer<6,1-1-2>:重启设备成功
18:00:02 365	Layer<6,1-1-2>:升级成功
18:00:10 350	Layer<5,1-1-1>:下载固件成功
18:00:10 356	Layer<5,1-1-1>:重启设备开始
18:00:10 405	Layer<5,1-1-1>:重启设备成功
18:00:10 419	Layer<5,1-1-1>:升级成功
18:14:48 116	Layer<6,1-1-2>:测试设备开始
18:14:48 125	Layer<6,1-1-2>:测试设备成功
18:14:48 132	Layer<6,1-1-2>:校验芯片开始
18:14:48 139	Layer<6,1-1-2>:校验芯片成功
18:14:48 146	Layer<6,1-1-2>:获取FlashInfo开始
18:14:48 149	<LAYER 1-1-2> INFO:FlashInfo: 00 00 E9 00 00 04 04 00 28 00 01
18:14:48 154	Layer<6,1-1-2>:获取FlashInfo成功
18:14:48 161	Layer<6,1-1-2>:准备IDB开始
18:14:48 162	<LAYER 1-1-2> INFO:CS(1)		(7456MB)		(SAMSUNG)
18:14:48 172	Layer<6,1-1-2>:准备IDB成功
18:14:48 179	Layer<6,1-1-2>:下载IDB开始
18:14:49 040	Layer<6,1-1-2>:下载IDB成功
18:14:49 046	Layer<6,1-1-2>:重启设备开始
18:14:50 048	Layer<6,1-1-2>:重启设备成功
18:14:50 054	Layer<6,1-1-2>:等待Loader开始
18:14:52 573	Layer<6,1-1-2>:等待Loader成功
18:14:52 583	Layer<6,1-1-2>:测试设备开始
18:14:52 594	Layer<6,1-1-2>:测试设备成功
18:14:52 600	Layer<6,1-1-2>:下载固件开始
18:14:52 630	<LAYER 1-1-2> INFO:Start download image,total=636368188
18:14:52 678	<LAYER 1-1-2> INFO:Start to download misc,offset=0x4000,size=49152
18:14:52 693	<LAYER 1-1-2> INFO:Start to download resource,offset=0x6000,size=370176
18:14:52 732	<LAYER 1-1-2> INFO:Start to download kernel,offset=0xe000,size=7128220
18:14:53 226	<LAYER 1-1-2> INFO:Start to download boot,offset=0x16000,size=8945664
18:14:53 690	<LAYER 1-1-2> INFO:Start to download recovery,offset=0x26000,size=10551296
18:14:54 163	<LAYER 1-1-2> INFO:Start to download system,offset=0x92000,size=609316864
18:15:01 980	Layer<5,1-1-1>:测试设备开始
18:15:01 986	Layer<5,1-1-1>:测试设备成功
18:15:01 992	Layer<5,1-1-1>:校验芯片开始
18:15:01 998	Layer<5,1-1-1>:校验芯片成功
18:15:02 012	Layer<5,1-1-1>:获取FlashInfo开始
18:15:02 014	<LAYER 1-1-1> INFO:FlashInfo: 00 00 E9 00 00 04 04 00 28 00 01
18:15:02 018	Layer<5,1-1-1>:获取FlashInfo成功
18:15:02 024	Layer<5,1-1-1>:准备IDB开始
18:15:02 025	<LAYER 1-1-1> INFO:CS(1)		(7456MB)		(SAMSUNG)
18:15:02 036	Layer<5,1-1-1>:准备IDB成功
18:15:02 041	Layer<5,1-1-1>:下载IDB开始
18:15:02 995	Layer<5,1-1-1>:下载IDB成功
18:15:03 005	Layer<5,1-1-1>:重启设备开始
18:15:04 007	Layer<5,1-1-1>:重启设备成功
18:15:04 025	Layer<5,1-1-1>:等待Loader开始
18:15:06 357	Layer<5,1-1-1>:等待Loader成功
18:15:06 363	Layer<5,1-1-1>:测试设备开始
18:15:06 368	Layer<5,1-1-1>:测试设备成功
18:15:06 374	Layer<5,1-1-1>:下载固件开始
18:15:06 376	<LAYER 1-1-1> INFO:Start download image,total=636368188
18:15:06 427	<LAYER 1-1-1> INFO:Start to download misc,offset=0x4000,size=49152
18:15:06 433	<LAYER 1-1-1> INFO:Start to download resource,offset=0x6000,size=370176
18:15:06 458	<LAYER 1-1-1> INFO:Start to download kernel,offset=0xe000,size=7128220
18:15:06 843	<LAYER 1-1-1> INFO:Start to download boot,offset=0x16000,size=8945664
18:15:07 341	<LAYER 1-1-1> INFO:Start to download recovery,offset=0x26000,size=10551296
18:15:07 880	<LAYER 1-1-1> INFO:Start to download system,offset=0x92000,size=609316864
18:15:54 361	Layer<6,1-1-2>:下载固件成功
18:15:54 374	Layer<6,1-1-2>:重启设备开始
18:15:54 380	Layer<6,1-1-2>:重启设备成功
18:15:54 397	Layer<6,1-1-2>:升级成功
18:16:04 541	Layer<5,1-1-1>:下载固件成功
18:16:04 547	Layer<5,1-1-1>:重启设备开始
18:16:04 553	Layer<5,1-1-1>:重启设备成功
18:16:04 566	Layer<5,1-1-1>:升级成功
18:17:23 108	Layer<6,1-1-2>:测试设备开始
18:17:23 116	Layer<6,1-1-2>:测试设备成功
18:17:23 124	Layer<6,1-1-2>:校验芯片开始
18:17:23 131	Layer<6,1-1-2>:校验芯片成功
18:17:23 138	Layer<6,1-1-2>:获取FlashInfo开始
18:17:23 141	<LAYER 1-1-2> INFO:FlashInfo: 00 00 E9 00 00 04 04 00 28 00 01
18:17:23 144	Layer<6,1-1-2>:获取FlashInfo成功
18:17:23 149	Layer<6,1-1-2>:准备IDB开始
18:17:23 151	<LAYER 1-1-2> INFO:CS(1)		(7456MB)		(SAMSUNG)
18:17:23 165	Layer<6,1-1-2>:准备IDB成功
18:17:23 171	Layer<6,1-1-2>:下载IDB开始
18:17:24 044	Layer<6,1-1-2>:下载IDB成功
18:17:24 052	Layer<6,1-1-2>:重启设备开始
18:17:25 059	Layer<6,1-1-2>:重启设备成功
18:17:25 066	Layer<6,1-1-2>:等待Loader开始
18:17:27 520	Layer<6,1-1-2>:等待Loader成功
18:17:27 527	Layer<6,1-1-2>:测试设备开始
18:17:27 533	Layer<6,1-1-2>:测试设备成功
18:17:27 540	Layer<6,1-1-2>:下载固件开始
18:17:27 542	<LAYER 1-1-2> INFO:Start download image,total=636368188
18:17:27 585	<LAYER 1-1-2> INFO:Start to download misc,offset=0x4000,size=49152
18:17:27 591	<LAYER 1-1-2> INFO:Start to download resource,offset=0x6000,size=370176
18:17:27 613	<LAYER 1-1-2> INFO:Start to download kernel,offset=0xe000,size=7128220
18:17:27 931	<LAYER 1-1-2> INFO:Start to download boot,offset=0x16000,size=8945664
18:17:28 323	<LAYER 1-1-2> INFO:Start to download recovery,offset=0x26000,size=10551296
18:17:28 815	<LAYER 1-1-2> INFO:Start to download system,offset=0x92000,size=609316864
18:17:38 621	Layer<5,1-1-1>:测试设备开始
18:17:38 640	Layer<5,1-1-1>:测试设备成功
18:17:38 642	Layer<5,1-1-1>:校验芯片开始
18:17:38 648	Layer<5,1-1-1>:校验芯片成功
18:17:38 654	Layer<5,1-1-1>:获取FlashInfo开始
18:17:38 657	<LAYER 1-1-1> INFO:FlashInfo: 00 00 E9 00 00 04 04 00 28 00 01
18:17:38 661	Layer<5,1-1-1>:获取FlashInfo成功
18:17:38 667	Layer<5,1-1-1>:准备IDB开始
18:17:38 669	<LAYER 1-1-1> INFO:CS(1)		(7456MB)		(SAMSUNG)
18:17:38 682	Layer<5,1-1-1>:准备IDB成功
18:17:38 688	Layer<5,1-1-1>:下载IDB开始
18:17:39 640	Layer<5,1-1-1>:下载IDB成功
18:17:39 650	Layer<5,1-1-1>:重启设备开始
18:17:40 653	Layer<5,1-1-1>:重启设备成功
18:17:40 661	Layer<5,1-1-1>:等待Loader开始
18:17:43 157	Layer<5,1-1-1>:等待Loader成功
18:17:43 165	Layer<5,1-1-1>:测试设备开始
18:17:43 175	Layer<5,1-1-1>:测试设备成功
18:17:43 181	Layer<5,1-1-1>:下载固件开始
18:17:43 183	<LAYER 1-1-1> INFO:Start download image,total=636368188
18:17:43 243	<LAYER 1-1-1> INFO:Start to download misc,offset=0x4000,size=49152
18:17:43 249	<LAYER 1-1-1> INFO:Start to download resource,offset=0x6000,size=370176
18:17:43 267	<LAYER 1-1-1> INFO:Start to download kernel,offset=0xe000,size=7128220
18:17:43 627	<LAYER 1-1-1> INFO:Start to download boot,offset=0x16000,size=8945664
18:17:44 101	<LAYER 1-1-1> INFO:Start to download recovery,offset=0x26000,size=10551296
18:17:44 666	<LAYER 1-1-1> INFO:Start to download system,offset=0x92000,size=609316864
18:18:26 484	Layer<6,1-1-2>:下载固件成功
18:18:26 493	Layer<6,1-1-2>:重启设备开始
18:18:26 500	Layer<6,1-1-2>:重启设备成功
18:18:26 522	Layer<6,1-1-2>:升级成功
18:18:38 807	Layer<5,1-1-1>:下载固件成功
18:18:38 815	Layer<5,1-1-1>:重启设备开始
18:18:38 824	Layer<5,1-1-1>:重启设备成功
18:18:38 838	Layer<5,1-1-1>:升级成功
18:21:34 847	Layer<6,1-1-2>:测试设备开始
18:21:34 853	Layer<6,1-1-2>:测试设备成功
18:21:34 859	Layer<6,1-1-2>:校验芯片开始
18:21:34 865	Layer<6,1-1-2>:校验芯片成功
18:21:34 871	Layer<6,1-1-2>:获取FlashInfo开始
18:21:34 874	<LAYER 1-1-2> INFO:FlashInfo: 00 00 E9 00 00 04 04 00 28 00 01
18:21:34 877	Layer<6,1-1-2>:获取FlashInfo成功
18:21:34 884	Layer<6,1-1-2>:准备IDB开始
18:21:34 886	<LAYER 1-1-2> INFO:CS(1)		(7456MB)		(SAMSUNG)
18:21:34 898	Layer<6,1-1-2>:准备IDB成功
18:21:34 904	Layer<6,1-1-2>:下载IDB开始
18:21:35 760	Layer<6,1-1-2>:下载IDB成功
18:21:35 770	Layer<6,1-1-2>:重启设备开始
18:21:36 773	Layer<6,1-1-2>:重启设备成功
18:21:36 779	Layer<6,1-1-2>:等待Loader开始
18:21:39 431	Layer<6,1-1-2>:等待Loader成功
18:21:39 443	Layer<6,1-1-2>:测试设备开始
18:21:39 455	Layer<6,1-1-2>:测试设备成功
18:21:39 463	Layer<6,1-1-2>:下载固件开始
18:21:39 466	<LAYER 1-1-2> INFO:Start download image,total=636368188
18:21:39 515	<LAYER 1-1-2> INFO:Start to download misc,offset=0x4000,size=49152
18:21:39 521	<LAYER 1-1-2> INFO:Start to download resource,offset=0x6000,size=370176
18:21:39 543	<LAYER 1-1-2> INFO:Start to download kernel,offset=0xe000,size=7128220
18:21:39 850	<LAYER 1-1-2> INFO:Start to download boot,offset=0x16000,size=8945664
18:21:40 246	<LAYER 1-1-2> INFO:Start to download recovery,offset=0x26000,size=10551296
18:21:40 718	<LAYER 1-1-2> INFO:Start to download system,offset=0x92000,size=609316864
18:22:03 857	Layer<5,1-1-1>:测试设备开始
18:22:03 870	Layer<5,1-1-1>:测试设备成功
18:22:03 877	Layer<5,1-1-1>:校验芯片开始
18:22:03 884	Layer<5,1-1-1>:校验芯片成功
18:22:03 893	Layer<5,1-1-1>:获取FlashInfo开始
18:22:03 895	<LAYER 1-1-1> INFO:FlashInfo: 00 00 E9 00 00 04 04 00 28 00 01
18:22:03 899	Layer<5,1-1-1>:获取FlashInfo成功
18:22:03 905	Layer<5,1-1-1>:准备IDB开始
18:22:03 906	<LAYER 1-1-1> INFO:CS(1)		(7456MB)		(SAMSUNG)
18:22:03 919	Layer<5,1-1-1>:准备IDB成功
18:22:03 926	Layer<5,1-1-1>:下载IDB开始
18:22:04 882	Layer<5,1-1-1>:下载IDB成功
18:22:04 892	Layer<5,1-1-1>:重启设备开始
18:22:05 895	Layer<5,1-1-1>:重启设备成功
18:22:05 901	Layer<5,1-1-1>:等待Loader开始
18:22:08 201	Layer<5,1-1-1>:等待Loader成功
18:22:08 214	Layer<5,1-1-1>:测试设备开始
18:22:08 219	Layer<5,1-1-1>:测试设备成功
18:22:08 225	Layer<5,1-1-1>:下载固件开始
18:22:08 227	<LAYER 1-1-1> INFO:Start download image,total=636368188
18:22:08 280	<LAYER 1-1-1> INFO:Start to download misc,offset=0x4000,size=49152
18:22:08 286	<LAYER 1-1-1> INFO:Start to download resource,offset=0x6000,size=370176
18:22:08 309	<LAYER 1-1-1> INFO:Start to download kernel,offset=0xe000,size=7128220
18:22:08 693	<LAYER 1-1-1> INFO:Start to download boot,offset=0x16000,size=8945664
18:22:09 176	<LAYER 1-1-1> INFO:Start to download recovery,offset=0x26000,size=10551296
18:22:09 776	<LAYER 1-1-1> INFO:Start to download system,offset=0x92000,size=609316864
18:22:35 740	Layer<6,1-1-2>:下载固件成功
18:22:35 752	Layer<6,1-1-2>:重启设备开始
18:22:35 758	Layer<6,1-1-2>:重启设备成功
18:22:35 775	Layer<6,1-1-2>:升级成功
18:23:00 016	Layer<5,1-1-1>:下载固件成功
18:23:00 025	Layer<5,1-1-1>:重启设备开始
18:23:00 033	Layer<5,1-1-1>:重启设备成功
18:23:00 048	Layer<5,1-1-1>:升级成功
18:24:02 774	Layer<6,1-1-2>:测试设备开始
18:24:02 782	Layer<6,1-1-2>:测试设备成功
18:24:02 788	Layer<6,1-1-2>:校验芯片开始
18:24:02 796	Layer<6,1-1-2>:校验芯片成功
18:24:02 803	Layer<6,1-1-2>:获取FlashInfo开始
18:24:02 805	<LAYER 1-1-2> INFO:FlashInfo: 00 00 E9 00 00 04 04 00 28 00 01
18:24:02 811	Layer<6,1-1-2>:获取FlashInfo成功
18:24:02 818	Layer<6,1-1-2>:准备IDB开始
18:24:02 820	<LAYER 1-1-2> INFO:CS(1)		(7456MB)		(SAMSUNG)
18:24:02 829	Layer<6,1-1-2>:准备IDB成功
18:24:02 837	Layer<6,1-1-2>:下载IDB开始
18:24:03 771	Layer<6,1-1-2>:下载IDB成功
18:24:03 780	Layer<6,1-1-2>:重启设备开始
18:24:04 784	Layer<6,1-1-2>:重启设备成功
18:24:04 790	Layer<6,1-1-2>:等待Loader开始
18:24:07 796	Layer<6,1-1-2>:等待Loader成功
18:24:07 807	Layer<6,1-1-2>:测试设备开始
18:24:07 813	Layer<6,1-1-2>:测试设备成功
18:24:07 819	Layer<6,1-1-2>:下载固件开始
18:24:07 822	<LAYER 1-1-2> INFO:Start download image,total=636368188
18:24:07 867	<LAYER 1-1-2> INFO:Start to download misc,offset=0x4000,size=49152
18:24:07 873	<LAYER 1-1-2> INFO:Start to download resource,offset=0x6000,size=370176
18:24:07 889	<LAYER 1-1-2> INFO:Start to download kernel,offset=0xe000,size=7128220
18:24:08 198	<LAYER 1-1-2> INFO:Start to download boot,offset=0x16000,size=8945664
18:24:08 598	<LAYER 1-1-2> INFO:Start to download recovery,offset=0x26000,size=10551296
18:24:09 065	<LAYER 1-1-2> INFO:Start to download system,offset=0x92000,size=609316864
18:24:21 266	Layer<5,1-1-1>:测试设备开始
18:24:21 272	Layer<5,1-1-1>:测试设备成功
18:24:21 278	Layer<5,1-1-1>:校验芯片开始
18:24:21 286	Layer<5,1-1-1>:校验芯片成功
18:24:21 294	Layer<5,1-1-1>:获取FlashInfo开始
18:24:21 297	<LAYER 1-1-1> INFO:FlashInfo: 00 00 E9 00 00 04 04 00 28 00 01
18:24:21 301	Layer<5,1-1-1>:获取FlashInfo成功
18:24:21 307	Layer<5,1-1-1>:准备IDB开始
18:24:21 309	<LAYER 1-1-1> INFO:CS(1)		(7456MB)		(SAMSUNG)
18:24:21 320	Layer<5,1-1-1>:准备IDB成功
18:24:21 326	Layer<5,1-1-1>:下载IDB开始
18:24:22 254	Layer<5,1-1-1>:下载IDB成功
18:24:22 275	Layer<5,1-1-1>:重启设备开始
18:24:23 278	Layer<5,1-1-1>:重启设备成功
18:24:23 285	Layer<5,1-1-1>:等待Loader开始
18:24:25 617	Layer<5,1-1-1>:等待Loader成功
18:24:25 623	Layer<5,1-1-1>:测试设备开始
18:24:25 629	Layer<5,1-1-1>:测试设备成功
18:24:25 635	Layer<5,1-1-1>:下载固件开始
18:24:25 637	<LAYER 1-1-1> INFO:Start download image,total=636368188
18:24:25 687	<LAYER 1-1-1> INFO:Start to download misc,offset=0x4000,size=49152
18:24:25 693	<LAYER 1-1-1> INFO:Start to download resource,offset=0x6000,size=370176
18:24:25 719	<LAYER 1-1-1> INFO:Start to download kernel,offset=0xe000,size=7128220
18:24:26 096	<LAYER 1-1-1> INFO:Start to download boot,offset=0x16000,size=8945664
18:24:26 578	<LAYER 1-1-1> INFO:Start to download recovery,offset=0x26000,size=10551296
18:24:27 144	<LAYER 1-1-1> INFO:Start to download system,offset=0x92000,size=609316864
18:25:06 620	Layer<6,1-1-2>:下载固件成功
18:25:06 628	Layer<6,1-1-2>:重启设备开始
18:25:06 643	Layer<6,1-1-2>:重启设备成功
18:25:06 658	Layer<6,1-1-2>:升级成功
18:25:20 606	Layer<5,1-1-1>:下载固件成功
18:25:20 614	Layer<5,1-1-1>:重启设备开始
18:25:20 621	Layer<5,1-1-1>:重启设备成功
18:25:20 635	Layer<5,1-1-1>:升级成功
18:30:48 311	Layer<6,1-1-2>:测试设备开始
18:30:48 317	Layer<6,1-1-2>:测试设备成功
18:30:48 323	Layer<6,1-1-2>:校验芯片开始
18:30:48 330	Layer<6,1-1-2>:校验芯片成功
18:30:48 336	Layer<6,1-1-2>:获取FlashInfo开始
18:30:48 338	<LAYER 1-1-2> INFO:FlashInfo: 00 00 E9 00 00 04 04 00 28 00 01
18:30:48 342	Layer<6,1-1-2>:获取FlashInfo成功
18:30:48 348	Layer<6,1-1-2>:准备IDB开始
18:30:48 393	<LAYER 1-1-2> INFO:CS(1)		(7456MB)		(SAMSUNG)
18:30:48 408	Layer<6,1-1-2>:准备IDB成功
18:30:48 420	Layer<6,1-1-2>:下载IDB开始
18:30:49 306	Layer<6,1-1-2>:下载IDB成功
18:30:49 312	Layer<6,1-1-2>:重启设备开始
18:30:50 314	Layer<6,1-1-2>:重启设备成功
18:30:50 322	Layer<6,1-1-2>:等待Loader开始
18:30:52 966	Layer<6,1-1-2>:等待Loader成功
18:30:52 978	Layer<6,1-1-2>:测试设备开始
18:30:52 988	Layer<6,1-1-2>:测试设备成功
18:30:52 994	Layer<6,1-1-2>:下载固件开始
18:30:52 996	<LAYER 1-1-2> INFO:Start download image,total=636368188
18:30:53 041	<LAYER 1-1-2> INFO:Start to download misc,offset=0x4000,size=49152
18:30:53 047	<LAYER 1-1-2> INFO:Start to download resource,offset=0x6000,size=370176
18:30:53 068	<LAYER 1-1-2> INFO:Start to download kernel,offset=0xe000,size=7128220
18:30:53 390	<LAYER 1-1-2> INFO:Start to download boot,offset=0x16000,size=8945664
18:30:53 781	<LAYER 1-1-2> INFO:Start to download recovery,offset=0x26000,size=10551296
18:30:54 249	<LAYER 1-1-2> INFO:Start to download system,offset=0x92000,size=609316864
18:31:36 762	Layer<5,1-1-1>:测试设备开始
18:31:36 770	Layer<5,1-1-1>:测试设备成功
18:31:36 777	Layer<5,1-1-1>:校验芯片开始
18:31:36 783	Layer<5,1-1-1>:校验芯片成功
18:31:36 789	Layer<5,1-1-1>:获取FlashInfo开始
18:31:36 792	<LAYER 1-1-1> INFO:FlashInfo: 00 00 E9 00 00 04 04 00 28 00 01
18:31:36 797	Layer<5,1-1-1>:获取FlashInfo成功
18:31:36 803	Layer<5,1-1-1>:准备IDB开始
18:31:36 805	<LAYER 1-1-1> INFO:CS(1)		(7456MB)		(SAMSUNG)
18:31:36 821	Layer<5,1-1-1>:准备IDB成功
18:31:36 828	Layer<5,1-1-1>:下载IDB开始
18:31:37 782	Layer<5,1-1-1>:下载IDB成功
18:31:37 792	Layer<5,1-1-1>:重启设备开始
18:31:38 796	Layer<5,1-1-1>:重启设备成功
18:31:38 809	Layer<5,1-1-1>:等待Loader开始
18:31:39 603	Layer<6,1-1-2>:下载固件成功
18:31:39 609	Layer<6,1-1-2>:重启设备开始
18:31:39 615	Layer<6,1-1-2>:重启设备成功
18:31:39 630	Layer<6,1-1-2>:升级成功
18:31:41 446	Layer<5,1-1-1>:等待Loader成功
18:31:41 456	Layer<5,1-1-1>:测试设备开始
18:31:41 466	Layer<5,1-1-1>:测试设备成功
18:31:41 471	Layer<5,1-1-1>:下载固件开始
18:31:41 474	<LAYER 1-1-1> INFO:Start download image,total=636368188
18:31:41 517	<LAYER 1-1-1> INFO:Start to download misc,offset=0x4000,size=49152
18:31:41 523	<LAYER 1-1-1> INFO:Start to download resource,offset=0x6000,size=370176
18:31:41 539	<LAYER 1-1-1> INFO:Start to download kernel,offset=0xe000,size=7128220
18:31:41 844	<LAYER 1-1-1> INFO:Start to download boot,offset=0x16000,size=8945664
18:31:42 240	<LAYER 1-1-1> INFO:Start to download recovery,offset=0x26000,size=10551296
18:31:42 711	<LAYER 1-1-1> INFO:Start to download system,offset=0x92000,size=609316864
18:32:28 287	Layer<5,1-1-1>:下载固件成功
18:32:28 296	Layer<5,1-1-1>:重启设备开始
18:32:28 301	Layer<5,1-1-1>:重启设备成功
18:32:28 315	Layer<5,1-1-1>:升级成功
18:33:11 264	Layer<6,1-1-2>:测试设备开始
18:33:11 270	Layer<6,1-1-2>:测试设备成功
18:33:11 277	Layer<6,1-1-2>:校验芯片开始
18:33:11 283	Layer<6,1-1-2>:校验芯片成功
18:33:11 294	Layer<6,1-1-2>:获取FlashInfo开始
18:33:11 297	<LAYER 1-1-2> INFO:FlashInfo: 00 00 E9 00 00 04 04 00 28 00 01
18:33:11 299	Layer<6,1-1-2>:获取FlashInfo成功
18:33:11 305	Layer<6,1-1-2>:准备IDB开始
18:33:11 307	<LAYER 1-1-2> INFO:CS(1)		(7456MB)		(SAMSUNG)
18:33:11 321	Layer<6,1-1-2>:准备IDB成功
18:33:11 327	Layer<6,1-1-2>:下载IDB开始
18:33:12 218	Layer<6,1-1-2>:下载IDB成功
18:33:12 230	Layer<6,1-1-2>:重启设备开始
18:33:13 234	Layer<6,1-1-2>:重启设备成功
18:33:13 241	Layer<6,1-1-2>:等待Loader开始
18:33:15 855	Layer<6,1-1-2>:等待Loader成功
18:33:15 866	Layer<6,1-1-2>:测试设备开始
18:33:15 876	Layer<6,1-1-2>:测试设备成功
18:33:15 883	Layer<6,1-1-2>:下载固件开始
18:33:15 885	<LAYER 1-1-2> INFO:Start download image,total=636368188
18:33:15 932	<LAYER 1-1-2> INFO:Start to download misc,offset=0x4000,size=49152
18:33:15 938	<LAYER 1-1-2> INFO:Start to download resource,offset=0x6000,size=370176
18:33:15 955	<LAYER 1-1-2> INFO:Start to download kernel,offset=0xe000,size=7128220
18:33:16 268	<LAYER 1-1-2> INFO:Start to download boot,offset=0x16000,size=8945664
18:33:16 666	<LAYER 1-1-2> INFO:Start to download recovery,offset=0x26000,size=10551296
18:33:17 128	<LAYER 1-1-2> INFO:Start to download system,offset=0x92000,size=609316864
18:33:34 849	Layer<5,1-1-1>:测试设备开始
18:33:34 855	Layer<5,1-1-1>:测试设备成功
18:33:34 862	Layer<5,1-1-1>:校验芯片开始
18:33:34 868	Layer<5,1-1-1>:校验芯片成功
18:33:34 874	Layer<5,1-1-1>:获取FlashInfo开始
18:33:34 876	<LAYER 1-1-1> INFO:FlashInfo: 00 00 E9 00 00 04 04 00 28 00 01
18:33:34 880	Layer<5,1-1-1>:获取FlashInfo成功
18:33:34 886	Layer<5,1-1-1>:准备IDB开始
18:33:34 887	<LAYER 1-1-1> INFO:CS(1)		(7456MB)		(SAMSUNG)
18:33:34 897	Layer<5,1-1-1>:准备IDB成功
18:33:34 903	Layer<5,1-1-1>:下载IDB开始
18:33:35 815	Layer<5,1-1-1>:下载IDB成功
18:33:35 825	Layer<5,1-1-1>:重启设备开始
18:33:36 829	Layer<5,1-1-1>:重启设备成功
18:33:36 838	Layer<5,1-1-1>:等待Loader开始
18:33:39 157	Layer<5,1-1-1>:等待Loader成功
18:33:39 162	Layer<5,1-1-1>:测试设备开始
18:33:39 168	Layer<5,1-1-1>:测试设备成功
18:33:39 175	Layer<5,1-1-1>:下载固件开始
18:33:39 177	<LAYER 1-1-1> INFO:Start download image,total=636368188
18:33:39 228	<LAYER 1-1-1> INFO:Start to download misc,offset=0x4000,size=49152
18:33:39 234	<LAYER 1-1-1> INFO:Start to download resource,offset=0x6000,size=370176
18:33:39 259	<LAYER 1-1-1> INFO:Start to download kernel,offset=0xe000,size=7128220
18:33:39 637	<LAYER 1-1-1> INFO:Start to download boot,offset=0x16000,size=8945664
18:33:40 104	<LAYER 1-1-1> INFO:Start to download recovery,offset=0x26000,size=10551296
18:33:40 663	<LAYER 1-1-1> INFO:Start to download system,offset=0x92000,size=609316864
18:34:13 668	Layer<6,1-1-2>:下载固件成功
18:34:13 674	Layer<6,1-1-2>:重启设备开始
18:34:13 686	Layer<6,1-1-2>:重启设备成功
18:34:13 701	Layer<6,1-1-2>:升级成功
18:34:32 140	Layer<5,1-1-1>:下载固件成功
18:34:32 146	Layer<5,1-1-1>:重启设备开始
18:34:32 152	Layer<5,1-1-1>:重启设备成功
18:34:32 166	Layer<5,1-1-1>:升级成功
18:37:42 409	Layer<6,1-1-2>:测试设备开始
18:37:42 416	Layer<6,1-1-2>:测试设备成功
18:37:42 422	Layer<6,1-1-2>:校验芯片开始
18:37:42 428	Layer<6,1-1-2>:校验芯片成功
18:37:42 434	Layer<6,1-1-2>:获取FlashInfo开始
18:37:42 436	<LAYER 1-1-2> INFO:FlashInfo: 00 00 E9 00 00 04 04 00 28 00 01
18:37:42 440	Layer<6,1-1-2>:获取FlashInfo成功
18:37:42 446	Layer<6,1-1-2>:准备IDB开始
18:37:42 448	<LAYER 1-1-2> INFO:CS(1)		(7456MB)		(SAMSUNG)
18:37:42 460	Layer<6,1-1-2>:准备IDB成功
18:37:42 466	Layer<6,1-1-2>:下载IDB开始
18:37:43 341	Layer<6,1-1-2>:下载IDB成功
18:37:43 349	Layer<6,1-1-2>:重启设备开始
18:37:44 352	Layer<6,1-1-2>:重启设备成功
18:37:44 399	Layer<6,1-1-2>:等待Loader开始
18:37:46 902	Layer<6,1-1-2>:等待Loader成功
18:37:46 911	Layer<6,1-1-2>:测试设备开始
18:37:46 921	Layer<6,1-1-2>:测试设备成功
18:37:46 929	Layer<6,1-1-2>:下载固件开始
18:37:46 931	<LAYER 1-1-2> INFO:Start download image,total=636368188
18:37:46 976	<LAYER 1-1-2> INFO:Start to download misc,offset=0x4000,size=49152
18:37:46 983	<LAYER 1-1-2> INFO:Start to download resource,offset=0x6000,size=370176
18:37:47 005	<LAYER 1-1-2> INFO:Start to download kernel,offset=0xe000,size=7128220
18:37:47 310	<LAYER 1-1-2> INFO:Start to download boot,offset=0x16000,size=8945664
18:37:47 697	<LAYER 1-1-2> INFO:Start to download recovery,offset=0x26000,size=10551296
18:37:48 186	<LAYER 1-1-2> INFO:Start to download system,offset=0x92000,size=609316864
18:37:57 175	Layer<5,1-1-1>:测试设备开始
18:37:57 181	Layer<5,1-1-1>:测试设备成功
18:37:57 187	Layer<5,1-1-1>:校验芯片开始
18:37:57 193	Layer<5,1-1-1>:校验芯片成功
18:37:57 200	Layer<5,1-1-1>:获取FlashInfo开始
18:37:57 203	<LAYER 1-1-1> INFO:FlashInfo: 00 00 E9 00 00 04 04 00 28 00 01
18:37:57 207	Layer<5,1-1-1>:获取FlashInfo成功
18:37:57 213	Layer<5,1-1-1>:准备IDB开始
18:37:57 214	<LAYER 1-1-1> INFO:CS(1)		(7456MB)		(SAMSUNG)
18:37:57 225	Layer<5,1-1-1>:准备IDB成功
18:37:57 231	Layer<5,1-1-1>:下载IDB开始
18:37:58 157	Layer<5,1-1-1>:下载IDB成功
18:37:58 168	Layer<5,1-1-1>:重启设备开始
18:37:59 178	Layer<5,1-1-1>:重启设备成功
18:37:59 182	Layer<5,1-1-1>:等待Loader开始
18:38:01 325	Layer<5,1-1-1>:等待Loader成功
18:38:01 333	Layer<5,1-1-1>:测试设备开始
18:38:01 341	Layer<5,1-1-1>:测试设备成功
18:38:01 348	Layer<5,1-1-1>:下载固件开始
18:38:01 350	<LAYER 1-1-1> INFO:Start download image,total=636368188
18:38:01 417	<LAYER 1-1-1> INFO:Start to download misc,offset=0x4000,size=49152
18:38:01 425	<LAYER 1-1-1> INFO:Start to download resource,offset=0x6000,size=370176
18:38:01 463	<LAYER 1-1-1> INFO:Start to download kernel,offset=0xe000,size=7128220
18:38:01 833	<LAYER 1-1-1> INFO:Start to download boot,offset=0x16000,size=8945664
18:38:02 301	<LAYER 1-1-1> INFO:Start to download recovery,offset=0x26000,size=10551296
18:38:02 886	<LAYER 1-1-1> INFO:Start to download system,offset=0x92000,size=609316864
18:38:45 707	Layer<6,1-1-2>:下载固件成功
18:38:45 713	Layer<6,1-1-2>:重启设备开始
18:38:45 720	Layer<6,1-1-2>:重启设备成功
18:38:45 742	Layer<6,1-1-2>:升级成功
18:38:57 475	Layer<5,1-1-1>:下载固件成功
18:38:57 484	Layer<5,1-1-1>:重启设备开始
18:38:57 490	Layer<5,1-1-1>:重启设备成功
18:38:57 503	Layer<5,1-1-1>:升级成功
18:40:14 249	Layer<6,1-1-2>:测试设备开始
18:40:14 255	Layer<6,1-1-2>:测试设备成功
18:40:14 262	Layer<6,1-1-2>:校验芯片开始
18:40:14 268	Layer<6,1-1-2>:校验芯片成功
18:40:14 275	Layer<6,1-1-2>:获取FlashInfo开始
18:40:14 277	<LAYER 1-1-2> INFO:FlashInfo: 00 00 E9 00 00 04 04 00 28 00 01
18:40:14 281	Layer<6,1-1-2>:获取FlashInfo成功
18:40:14 287	Layer<6,1-1-2>:准备IDB开始
18:40:14 289	<LAYER 1-1-2> INFO:CS(1)		(7456MB)		(SAMSUNG)
18:40:14 302	Layer<6,1-1-2>:准备IDB成功
18:40:14 308	Layer<6,1-1-2>:下载IDB开始
18:40:15 189	Layer<6,1-1-2>:下载IDB成功
18:40:15 197	Layer<6,1-1-2>:重启设备开始
18:40:16 199	Layer<6,1-1-2>:重启设备成功
18:40:16 205	Layer<6,1-1-2>:等待Loader开始
18:40:18 899	Layer<6,1-1-2>:等待Loader成功
18:40:18 908	Layer<6,1-1-2>:测试设备开始
18:40:18 914	Layer<6,1-1-2>:测试设备成功
18:40:18 920	Layer<6,1-1-2>:下载固件开始
18:40:18 922	<LAYER 1-1-2> INFO:Start download image,total=636368188
18:40:18 966	<LAYER 1-1-2> INFO:Start to download misc,offset=0x4000,size=49152
18:40:18 972	<LAYER 1-1-2> INFO:Start to download resource,offset=0x6000,size=370176
18:40:18 989	<LAYER 1-1-2> INFO:Start to download kernel,offset=0xe000,size=7128220
18:40:19 303	<LAYER 1-1-2> INFO:Start to download boot,offset=0x16000,size=8945664
18:40:19 701	<LAYER 1-1-2> INFO:Start to download recovery,offset=0x26000,size=10551296
18:40:20 177	<LAYER 1-1-2> INFO:Start to download system,offset=0x92000,size=609316864
18:40:25 320	Layer<5,1-1-1>:测试设备开始
18:40:25 329	Layer<5,1-1-1>:测试设备成功
18:40:25 338	Layer<5,1-1-1>:校验芯片开始
18:40:25 347	Layer<5,1-1-1>:校验芯片成功
18:40:25 354	Layer<5,1-1-1>:获取FlashInfo开始
18:40:25 357	<LAYER 1-1-1> INFO:FlashInfo: 00 00 E9 00 00 04 04 00 28 00 01
18:40:25 362	Layer<5,1-1-1>:获取FlashInfo成功
18:40:25 369	Layer<5,1-1-1>:准备IDB开始
18:40:25 371	<LAYER 1-1-1> INFO:CS(1)		(7456MB)		(SAMSUNG)
18:40:25 382	Layer<5,1-1-1>:准备IDB成功
18:40:25 389	Layer<5,1-1-1>:下载IDB开始
18:40:26 303	Layer<5,1-1-1>:下载IDB成功
18:40:26 316	Layer<5,1-1-1>:重启设备开始
18:40:27 325	Layer<5,1-1-1>:重启设备成功
18:40:27 330	Layer<5,1-1-1>:等待Loader开始
18:40:29 535	Layer<5,1-1-1>:等待Loader成功
18:40:29 544	Layer<5,1-1-1>:测试设备开始
18:40:29 553	Layer<5,1-1-1>:测试设备成功
18:40:29 560	Layer<5,1-1-1>:下载固件开始
18:40:29 562	<LAYER 1-1-1> INFO:Start download image,total=636368188
18:40:29 615	<LAYER 1-1-1> INFO:Start to download misc,offset=0x4000,size=49152
18:40:29 622	<LAYER 1-1-1> INFO:Start to download resource,offset=0x6000,size=370176
18:40:29 651	<LAYER 1-1-1> INFO:Start to download kernel,offset=0xe000,size=7128220
18:40:30 025	<LAYER 1-1-1> INFO:Start to download boot,offset=0x16000,size=8945664
18:40:30 483	<LAYER 1-1-1> INFO:Start to download recovery,offset=0x26000,size=10551296
18:40:31 042	<LAYER 1-1-1> INFO:Start to download system,offset=0x92000,size=609316864
18:41:18 660	Layer<6,1-1-2>:下载固件成功
18:41:18 667	Layer<6,1-1-2>:重启设备开始
18:41:18 679	Layer<6,1-1-2>:重启设备成功
18:41:18 695	Layer<6,1-1-2>:升级成功
18:41:27 102	Layer<5,1-1-1>:下载固件成功
18:41:27 110	Layer<5,1-1-1>:重启设备开始
18:41:27 119	Layer<5,1-1-1>:重启设备成功
18:41:27 136	Layer<5,1-1-1>:升级成功
18:42:47 319	Layer<6,1-1-2>:测试设备开始
18:42:47 325	Layer<6,1-1-2>:测试设备成功
18:42:47 331	Layer<6,1-1-2>:校验芯片开始
18:42:47 337	Layer<6,1-1-2>:校验芯片成功
18:42:47 343	Layer<6,1-1-2>:获取FlashInfo开始
18:42:47 345	<LAYER 1-1-2> INFO:FlashInfo: 00 00 E9 00 00 04 04 00 28 00 01
18:42:47 349	Layer<6,1-1-2>:获取FlashInfo成功
18:42:47 355	Layer<6,1-1-2>:准备IDB开始
18:42:47 357	<LAYER 1-1-2> INFO:CS(1)		(7456MB)		(SAMSUNG)
18:42:47 369	Layer<6,1-1-2>:准备IDB成功
18:42:47 375	Layer<6,1-1-2>:下载IDB开始
18:42:48 239	Layer<6,1-1-2>:下载IDB成功
18:42:48 248	Layer<6,1-1-2>:重启设备开始
18:42:49 251	Layer<6,1-1-2>:重启设备成功
18:42:49 259	Layer<6,1-1-2>:等待Loader开始
18:42:51 752	Layer<6,1-1-2>:等待Loader成功
18:42:51 757	Layer<6,1-1-2>:测试设备开始
18:42:51 763	Layer<6,1-1-2>:测试设备成功
18:42:51 769	Layer<6,1-1-2>:下载固件开始
18:42:51 802	<LAYER 1-1-2> INFO:Start download image,total=636368188
18:42:51 846	<LAYER 1-1-2> INFO:Start to download misc,offset=0x4000,size=49152
18:42:51 895	<LAYER 1-1-2> INFO:Start to download resource,offset=0x6000,size=370176
18:42:51 967	<LAYER 1-1-2> INFO:Start to download kernel,offset=0xe000,size=7128220
18:42:52 558	<LAYER 1-1-2> INFO:Start to download boot,offset=0x16000,size=8945664
18:42:53 131	<LAYER 1-1-2> INFO:Start to download recovery,offset=0x26000,size=10551296
18:42:53 607	<LAYER 1-1-2> INFO:Start to download system,offset=0x92000,size=609316864
18:43:04 724	Layer<5,1-1-1>:测试设备开始
18:43:04 730	Layer<5,1-1-1>:测试设备成功
18:43:04 737	Layer<5,1-1-1>:校验芯片开始
18:43:04 753	Layer<5,1-1-1>:校验芯片成功
18:43:04 758	Layer<5,1-1-1>:获取FlashInfo开始
18:43:04 760	<LAYER 1-1-1> INFO:FlashInfo: 00 00 E9 00 00 04 04 00 28 00 01
18:43:04 764	Layer<5,1-1-1>:获取FlashInfo成功
18:43:04 770	Layer<5,1-1-1>:准备IDB开始
18:43:04 772	<LAYER 1-1-1> INFO:CS(1)		(7456MB)		(SAMSUNG)
18:43:04 782	Layer<5,1-1-1>:准备IDB成功
18:43:04 789	Layer<5,1-1-1>:下载IDB开始
18:43:05 722	Layer<5,1-1-1>:下载IDB成功
18:43:05 734	Layer<5,1-1-1>:重启设备开始
18:43:06 737	Layer<5,1-1-1>:重启设备成功
18:43:06 743	Layer<5,1-1-1>:等待Loader开始
18:43:09 086	Layer<5,1-1-1>:等待Loader成功
18:43:09 092	Layer<5,1-1-1>:测试设备开始
18:43:09 105	Layer<5,1-1-1>:测试设备成功
18:43:09 111	Layer<5,1-1-1>:下载固件开始
18:43:09 130	<LAYER 1-1-1> INFO:Start download image,total=636368188
18:43:09 180	<LAYER 1-1-1> INFO:Start to download misc,offset=0x4000,size=49152
18:43:09 192	<LAYER 1-1-1> INFO:Start to download resource,offset=0x6000,size=370176
18:43:09 213	<LAYER 1-1-1> INFO:Start to download kernel,offset=0xe000,size=7128220
18:43:09 587	<LAYER 1-1-1> INFO:Start to download boot,offset=0x16000,size=8945664
18:43:10 058	<LAYER 1-1-1> INFO:Start to download recovery,offset=0x26000,size=10551296
18:43:10 610	<LAYER 1-1-1> INFO:Start to download system,offset=0x92000,size=609316864
18:43:51 005	Layer<6,1-1-2>:下载固件成功
18:43:51 012	Layer<6,1-1-2>:重启设备开始
18:43:51 018	Layer<6,1-1-2>:重启设备成功
18:43:51 043	Layer<6,1-1-2>:升级成功
18:44:04 267	Layer<5,1-1-1>:下载固件成功
18:44:04 273	Layer<5,1-1-1>:重启设备开始
18:44:04 279	Layer<5,1-1-1>:重启设备成功
18:44:04 292	Layer<5,1-1-1>:升级成功
18:44:58 072	Layer<6,1-1-2>:测试设备开始
18:44:58 079	Layer<6,1-1-2>:测试设备成功
18:44:58 091	Layer<6,1-1-2>:校验芯片开始
18:44:58 098	Layer<6,1-1-2>:校验芯片成功
18:44:58 100	Layer<6,1-1-2>:获取FlashInfo开始
18:44:58 103	<LAYER 1-1-2> INFO:FlashInfo: 00 00 E9 00 00 04 04 00 28 00 01
18:44:58 106	Layer<6,1-1-2>:获取FlashInfo成功
18:44:58 112	Layer<6,1-1-2>:准备IDB开始
18:44:58 114	<LAYER 1-1-2> INFO:CS(1)		(7456MB)		(SAMSUNG)
18:44:58 127	Layer<6,1-1-2>:准备IDB成功
18:44:58 133	Layer<6,1-1-2>:下载IDB开始
18:44:58 982	Layer<6,1-1-2>:下载IDB成功
18:44:58 989	Layer<6,1-1-2>:重启设备开始
18:44:59 991	Layer<6,1-1-2>:重启设备成功
18:44:59 999	Layer<6,1-1-2>:等待Loader开始
18:45:02 097	Layer<6,1-1-2>:等待Loader成功
18:45:02 104	Layer<6,1-1-2>:测试设备开始
18:45:02 111	Layer<6,1-1-2>:测试设备成功
18:45:02 117	Layer<6,1-1-2>:下载固件开始
18:45:02 120	<LAYER 1-1-2> INFO:Start download image,total=636368188
18:45:02 168	<LAYER 1-1-2> INFO:Start to download misc,offset=0x4000,size=49152
18:45:02 175	<LAYER 1-1-2> INFO:Start to download resource,offset=0x6000,size=370176
18:45:02 198	<LAYER 1-1-2> INFO:Start to download kernel,offset=0xe000,size=7128220
18:45:02 503	<LAYER 1-1-2> INFO:Start to download boot,offset=0x16000,size=8945664
18:45:02 912	<LAYER 1-1-2> INFO:Start to download recovery,offset=0x26000,size=10551296
18:45:03 386	<LAYER 1-1-2> INFO:Start to download system,offset=0x92000,size=609316864
18:45:29 917	Layer<5,1-1-1>:测试设备开始
18:45:29 923	Layer<5,1-1-1>:测试设备成功
18:45:29 929	Layer<5,1-1-1>:校验芯片开始
18:45:29 935	Layer<5,1-1-1>:校验芯片成功
18:45:29 941	Layer<5,1-1-1>:获取FlashInfo开始
18:45:29 944	<LAYER 1-1-1> INFO:FlashInfo: 00 00 E9 00 00 04 04 00 28 00 01
18:45:29 948	Layer<5,1-1-1>:获取FlashInfo成功
18:45:29 954	Layer<5,1-1-1>:准备IDB开始
18:45:29 956	<LAYER 1-1-1> INFO:CS(1)		(7456MB)		(SAMSUNG)
18:45:29 966	Layer<5,1-1-1>:准备IDB成功
18:45:29 972	Layer<5,1-1-1>:下载IDB开始
18:45:30 856	Layer<5,1-1-1>:下载IDB成功
18:45:30 866	Layer<5,1-1-1>:重启设备开始
18:45:31 869	Layer<5,1-1-1>:重启设备成功
18:45:31 878	Layer<5,1-1-1>:等待Loader开始
18:45:34 161	Layer<5,1-1-1>:等待Loader成功
18:45:34 167	Layer<5,1-1-1>:测试设备开始
18:45:34 173	Layer<5,1-1-1>:测试设备成功
18:45:34 179	Layer<5,1-1-1>:下载固件开始
18:45:34 181	<LAYER 1-1-1> INFO:Start download image,total=636368188
18:45:34 239	<LAYER 1-1-1> INFO:Start to download misc,offset=0x4000,size=49152
18:45:34 245	<LAYER 1-1-1> INFO:Start to download resource,offset=0x6000,size=370176
18:45:34 270	<LAYER 1-1-1> INFO:Start to download kernel,offset=0xe000,size=7128220
18:45:34 649	<LAYER 1-1-1> INFO:Start to download boot,offset=0x16000,size=8945664
18:45:35 143	<LAYER 1-1-1> INFO:Start to download recovery,offset=0x26000,size=10551296
18:45:35 707	<LAYER 1-1-1> INFO:Start to download system,offset=0x92000,size=609316864
18:45:56 657	Layer<6,1-1-2>:下载固件成功
18:45:56 663	Layer<6,1-1-2>:重启设备开始
18:45:56 669	Layer<6,1-1-2>:重启设备成功
18:45:56 691	Layer<6,1-1-2>:升级成功
18:46:25 141	Layer<5,1-1-1>:下载固件成功
18:46:25 149	Layer<5,1-1-1>:重启设备开始
18:46:25 156	Layer<5,1-1-1>:重启设备成功
18:46:25 170	Layer<5,1-1-1>:升级成功
18:47:04 114	Layer<6,1-1-2>:测试设备开始
18:47:04 119	Layer<6,1-1-2>:测试设备成功
18:47:04 125	Layer<6,1-1-2>:校验芯片开始
18:47:04 131	Layer<6,1-1-2>:校验芯片成功
18:47:04 136	Layer<6,1-1-2>:获取FlashInfo开始
18:47:04 138	<LAYER 1-1-2> INFO:FlashInfo: 00 00 E9 00 00 04 04 00 28 00 01
18:47:04 142	Layer<6,1-1-2>:获取FlashInfo成功
18:47:04 148	Layer<6,1-1-2>:准备IDB开始
18:47:04 149	<LAYER 1-1-2> INFO:CS(1)		(7456MB)		(SAMSUNG)
18:47:04 160	Layer<6,1-1-2>:准备IDB成功
18:47:04 166	Layer<6,1-1-2>:下载IDB开始
18:47:05 040	Layer<6,1-1-2>:下载IDB成功
18:47:05 049	Layer<6,1-1-2>:重启设备开始
18:47:06 051	Layer<6,1-1-2>:重启设备成功
18:47:06 057	Layer<6,1-1-2>:等待Loader开始
18:47:08 498	Layer<6,1-1-2>:等待Loader成功
18:47:08 506	Layer<6,1-1-2>:测试设备开始
18:47:08 514	Layer<6,1-1-2>:测试设备成功
18:47:08 522	Layer<6,1-1-2>:下载固件开始
18:47:08 525	<LAYER 1-1-2> INFO:Start download image,total=636368188
18:47:08 570	<LAYER 1-1-2> INFO:Start to download misc,offset=0x4000,size=49152
18:47:08 576	<LAYER 1-1-2> INFO:Start to download resource,offset=0x6000,size=370176
18:47:08 599	<LAYER 1-1-2> INFO:Start to download kernel,offset=0xe000,size=7128220
18:47:08 907	<LAYER 1-1-2> INFO:Start to download boot,offset=0x16000,size=8945664
18:47:09 301	<LAYER 1-1-2> INFO:Start to download recovery,offset=0x26000,size=10551296
18:47:09 774	<LAYER 1-1-2> INFO:Start to download system,offset=0x92000,size=609316864
18:47:31 691	Layer<5,1-1-1>:测试设备开始
18:47:31 697	Layer<5,1-1-1>:测试设备成功
18:47:31 704	Layer<5,1-1-1>:校验芯片开始
18:47:31 710	Layer<5,1-1-1>:校验芯片成功
18:47:31 716	Layer<5,1-1-1>:获取FlashInfo开始
18:47:31 718	<LAYER 1-1-1> INFO:FlashInfo: 00 00 E9 00 00 04 04 00 28 00 01
18:47:31 722	Layer<5,1-1-1>:获取FlashInfo成功
18:47:31 727	Layer<5,1-1-1>:准备IDB开始
18:47:31 729	<LAYER 1-1-1> INFO:CS(1)		(7456MB)		(SAMSUNG)
18:47:31 739	Layer<5,1-1-1>:准备IDB成功
18:47:31 745	Layer<5,1-1-1>:下载IDB开始
18:47:32 670	Layer<5,1-1-1>:下载IDB成功
18:47:32 680	Layer<5,1-1-1>:重启设备开始
18:47:33 693	Layer<5,1-1-1>:重启设备成功
18:47:33 700	Layer<5,1-1-1>:等待Loader开始
18:47:35 978	Layer<5,1-1-1>:等待Loader成功
18:47:35 984	Layer<5,1-1-1>:测试设备开始
18:47:35 990	Layer<5,1-1-1>:测试设备成功
18:47:35 997	Layer<5,1-1-1>:下载固件开始
18:47:35 999	<LAYER 1-1-1> INFO:Start download image,total=636368188
18:47:36 082	<LAYER 1-1-1> INFO:Start to download misc,offset=0x4000,size=49152
18:47:36 094	<LAYER 1-1-1> INFO:Start to download resource,offset=0x6000,size=370176
18:47:36 113	<LAYER 1-1-1> INFO:Start to download kernel,offset=0xe000,size=7128220
18:47:36 485	<LAYER 1-1-1> INFO:Start to download boot,offset=0x16000,size=8945664
18:47:36 950	<LAYER 1-1-1> INFO:Start to download recovery,offset=0x26000,size=10551296
18:47:37 539	<LAYER 1-1-1> INFO:Start to download system,offset=0x92000,size=609316864
18:48:05 340	Layer<6,1-1-2>:下载固件成功
18:48:05 347	Layer<6,1-1-2>:重启设备开始
18:48:05 353	Layer<6,1-1-2>:重启设备成功
18:48:05 375	Layer<6,1-1-2>:升级成功
18:48:28 078	Layer<5,1-1-1>:下载固件成功
18:48:28 086	Layer<5,1-1-1>:重启设备开始
18:48:28 092	Layer<5,1-1-1>:重启设备成功
18:48:28 106	Layer<5,1-1-1>:升级成功
18:49:14 792	Layer<6,1-1-2>:测试设备开始
18:49:14 799	Layer<6,1-1-2>:测试设备成功
18:49:14 805	Layer<6,1-1-2>:校验芯片开始
18:49:14 812	Layer<6,1-1-2>:校验芯片成功
18:49:14 818	Layer<6,1-1-2>:获取FlashInfo开始
18:49:14 820	<LAYER 1-1-2> INFO:FlashInfo: 00 00 E9 00 00 04 04 00 28 00 01
18:49:14 825	Layer<6,1-1-2>:获取FlashInfo成功
18:49:14 831	Layer<6,1-1-2>:准备IDB开始
18:49:14 832	<LAYER 1-1-2> INFO:CS(1)		(7456MB)		(SAMSUNG)
18:49:14 846	Layer<6,1-1-2>:准备IDB成功
18:49:14 852	Layer<6,1-1-2>:下载IDB开始
18:49:15 757	Layer<6,1-1-2>:下载IDB成功
18:49:15 765	Layer<6,1-1-2>:重启设备开始
18:49:16 769	Layer<6,1-1-2>:重启设备成功
18:49:16 776	Layer<6,1-1-2>:等待Loader开始
18:49:19 272	Layer<6,1-1-2>:等待Loader成功
18:49:19 283	Layer<6,1-1-2>:测试设备开始
18:49:19 294	Layer<6,1-1-2>:测试设备成功
18:49:19 300	Layer<6,1-1-2>:下载固件开始
18:49:19 302	<LAYER 1-1-2> INFO:Start download image,total=636368188
18:49:19 346	<LAYER 1-1-2> INFO:Start to download misc,offset=0x4000,size=49152
18:49:19 352	<LAYER 1-1-2> INFO:Start to download resource,offset=0x6000,size=370176
18:49:19 373	<LAYER 1-1-2> INFO:Start to download kernel,offset=0xe000,size=7128220
18:49:19 684	<LAYER 1-1-2> INFO:Start to download boot,offset=0x16000,size=8945664
18:49:20 084	<LAYER 1-1-2> INFO:Start to download recovery,offset=0x26000,size=10551296
18:49:20 556	<LAYER 1-1-2> INFO:Start to download system,offset=0x92000,size=609316864
18:49:58 442	Layer<5,1-1-1>:测试设备开始
18:49:58 448	Layer<5,1-1-1>:测试设备成功
18:49:58 454	Layer<5,1-1-1>:校验芯片开始
18:49:58 460	Layer<5,1-1-1>:校验芯片成功
18:49:58 467	Layer<5,1-1-1>:获取FlashInfo开始
18:49:58 469	<LAYER 1-1-1> INFO:FlashInfo: 00 00 E9 00 00 04 04 00 28 00 01
18:49:58 474	Layer<5,1-1-1>:获取FlashInfo成功
18:49:58 480	Layer<5,1-1-1>:准备IDB开始
18:49:58 482	<LAYER 1-1-1> INFO:CS(1)		(7456MB)		(SAMSUNG)
18:49:58 493	Layer<5,1-1-1>:准备IDB成功
18:49:58 500	Layer<5,1-1-1>:下载IDB开始
18:49:59 400	Layer<5,1-1-1>:下载IDB成功
18:49:59 409	Layer<5,1-1-1>:重启设备开始
18:50:00 417	Layer<5,1-1-1>:重启设备成功
18:50:00 425	Layer<5,1-1-1>:等待Loader开始
18:50:02 750	Layer<5,1-1-1>:等待Loader成功
18:50:02 756	Layer<5,1-1-1>:测试设备开始
18:50:02 762	Layer<5,1-1-1>:测试设备成功
18:50:02 768	Layer<5,1-1-1>:下载固件开始
18:50:02 770	<LAYER 1-1-1> INFO:Start download image,total=636368188
18:50:02 829	<LAYER 1-1-1> INFO:Start to download misc,offset=0x4000,size=49152
18:50:02 835	<LAYER 1-1-1> INFO:Start to download resource,offset=0x6000,size=370176
18:50:02 860	<LAYER 1-1-1> INFO:Start to download kernel,offset=0xe000,size=7128220
18:50:03 245	<LAYER 1-1-1> INFO:Start to download boot,offset=0x16000,size=8945664
18:50:03 725	<LAYER 1-1-1> INFO:Start to download recovery,offset=0x26000,size=10551296
18:50:04 306	<LAYER 1-1-1> INFO:Start to download system,offset=0x92000,size=609316864
18:50:07 498	Layer<6,1-1-2>:下载固件成功
18:50:07 506	Layer<6,1-1-2>:重启设备开始
18:50:07 512	Layer<6,1-1-2>:重启设备成功
18:50:07 528	Layer<6,1-1-2>:升级成功
18:50:50 240	Layer<5,1-1-1>:下载固件成功
18:50:50 248	Layer<5,1-1-1>:重启设备开始
18:50:50 257	Layer<5,1-1-1>:重启设备成功
18:50:50 270	Layer<5,1-1-1>:升级成功
18:51:46 227	Layer<6,1-1-2>:测试设备开始
18:51:46 235	Layer<6,1-1-2>:测试设备成功
18:51:46 243	Layer<6,1-1-2>:校验芯片开始
18:51:46 252	Layer<6,1-1-2>:校验芯片成功
18:51:46 259	Layer<6,1-1-2>:获取FlashInfo开始
18:51:46 261	<LAYER 1-1-2> INFO:FlashInfo: 00 00 E9 00 00 04 04 00 28 00 01
18:51:46 266	Layer<6,1-1-2>:获取FlashInfo成功
18:51:46 274	Layer<6,1-1-2>:准备IDB开始
18:51:46 276	<LAYER 1-1-2> INFO:CS(1)		(7456MB)		(SAMSUNG)
18:51:46 286	Layer<6,1-1-2>:准备IDB成功
18:51:46 292	Layer<6,1-1-2>:下载IDB开始
18:51:47 208	Layer<6,1-1-2>:下载IDB成功
18:51:47 215	Layer<6,1-1-2>:重启设备开始
18:51:48 224	Layer<6,1-1-2>:重启设备成功
18:51:48 229	Layer<6,1-1-2>:等待Loader开始
18:51:50 860	Layer<6,1-1-2>:等待Loader成功
18:51:50 870	Layer<6,1-1-2>:测试设备开始
18:51:50 881	Layer<6,1-1-2>:测试设备成功
18:51:50 888	Layer<6,1-1-2>:下载固件开始
18:51:50 891	<LAYER 1-1-2> INFO:Start download image,total=636368188
18:51:50 934	<LAYER 1-1-2> INFO:Start to download misc,offset=0x4000,size=49152
18:51:50 940	<LAYER 1-1-2> INFO:Start to download resource,offset=0x6000,size=370176
18:51:50 956	<LAYER 1-1-2> INFO:Start to download kernel,offset=0xe000,size=7128220
18:51:51 268	<LAYER 1-1-2> INFO:Start to download boot,offset=0x16000,size=8945664
18:51:51 656	<LAYER 1-1-2> INFO:Start to download recovery,offset=0x26000,size=10551296
18:51:52 143	<LAYER 1-1-2> INFO:Start to download system,offset=0x92000,size=609316864
18:52:03 996	Layer<5,1-1-1>:测试设备开始
18:52:04 001	Layer<5,1-1-1>:测试设备成功
18:52:04 007	Layer<5,1-1-1>:校验芯片开始
18:52:04 013	Layer<5,1-1-1>:校验芯片成功
18:52:04 019	Layer<5,1-1-1>:获取FlashInfo开始
18:52:04 021	<LAYER 1-1-1> INFO:FlashInfo: 00 00 E9 00 00 04 04 00 28 00 01
18:52:04 025	Layer<5,1-1-1>:获取FlashInfo成功
18:52:04 032	Layer<5,1-1-1>:准备IDB开始
18:52:04 034	<LAYER 1-1-1> INFO:CS(1)		(7456MB)		(SAMSUNG)
18:52:04 045	Layer<5,1-1-1>:准备IDB成功
18:52:04 051	Layer<5,1-1-1>:下载IDB开始
18:52:05 012	Layer<5,1-1-1>:下载IDB成功
18:52:05 020	Layer<5,1-1-1>:重启设备开始
18:52:06 022	Layer<5,1-1-1>:重启设备成功
18:52:06 028	Layer<5,1-1-1>:等待Loader开始
18:52:08 348	Layer<5,1-1-1>:等待Loader成功
18:52:08 354	Layer<5,1-1-1>:测试设备开始
18:52:08 359	Layer<5,1-1-1>:测试设备成功
18:52:08 365	Layer<5,1-1-1>:下载固件开始
18:52:08 368	<LAYER 1-1-1> INFO:Start download image,total=636368188
18:52:08 418	<LAYER 1-1-1> INFO:Start to download misc,offset=0x4000,size=49152
18:52:08 424	<LAYER 1-1-1> INFO:Start to download resource,offset=0x6000,size=370176
18:52:08 448	<LAYER 1-1-1> INFO:Start to download kernel,offset=0xe000,size=7128220
18:52:08 810	<LAYER 1-1-1> INFO:Start to download boot,offset=0x16000,size=8945664
18:52:09 269	<LAYER 1-1-1> INFO:Start to download recovery,offset=0x26000,size=10551296
18:52:09 832	<LAYER 1-1-1> INFO:Start to download system,offset=0x92000,size=609316864
18:52:49 250	Layer<6,1-1-2>:下载固件成功
18:52:49 258	Layer<6,1-1-2>:重启设备开始
18:52:49 266	Layer<6,1-1-2>:重启设备成功
18:52:49 282	Layer<6,1-1-2>:升级成功
18:53:03 101	Layer<5,1-1-1>:下载固件成功
18:53:03 109	Layer<5,1-1-1>:重启设备开始
18:53:03 118	Layer<5,1-1-1>:重启设备成功
18:53:03 134	Layer<5,1-1-1>:升级成功
18:54:42 044	Layer<6,1-1-2>:测试设备开始
18:54:42 051	Layer<6,1-1-2>:测试设备成功
18:54:42 056	Layer<6,1-1-2>:校验芯片开始
18:54:42 062	Layer<6,1-1-2>:校验芯片成功
18:54:42 068	Layer<6,1-1-2>:获取FlashInfo开始
18:54:42 070	<LAYER 1-1-2> INFO:FlashInfo: 00 00 E9 00 00 04 04 00 28 00 01
18:54:42 074	Layer<6,1-1-2>:获取FlashInfo成功
18:54:42 080	Layer<6,1-1-2>:准备IDB开始
18:54:42 082	<LAYER 1-1-2> INFO:CS(1)		(7456MB)		(SAMSUNG)
18:54:42 095	Layer<6,1-1-2>:准备IDB成功
18:54:42 100	Layer<6,1-1-2>:下载IDB开始
18:54:43 010	Layer<6,1-1-2>:下载IDB成功
18:54:43 019	Layer<6,1-1-2>:重启设备开始
18:54:44 022	Layer<6,1-1-2>:重启设备成功
18:54:44 029	Layer<6,1-1-2>:等待Loader开始
18:54:46 501	Layer<6,1-1-2>:等待Loader成功
18:54:46 510	Layer<6,1-1-2>:测试设备开始
18:54:46 518	Layer<6,1-1-2>:测试设备成功
18:54:46 524	Layer<6,1-1-2>:下载固件开始
18:54:46 564	<LAYER 1-1-2> INFO:Start download image,total=636368188
18:54:46 630	<LAYER 1-1-2> INFO:Start to download misc,offset=0x4000,size=49152
18:54:46 636	<LAYER 1-1-2> INFO:Start to download resource,offset=0x6000,size=370176
18:54:46 662	<LAYER 1-1-2> INFO:Start to download kernel,offset=0xe000,size=7128220
18:54:47 110	<LAYER 1-1-2> INFO:Start to download boot,offset=0x16000,size=8945664
18:54:47 509	<LAYER 1-1-2> INFO:Start to download recovery,offset=0x26000,size=10551296
18:54:48 024	<LAYER 1-1-2> INFO:Start to download system,offset=0x92000,size=609316864
18:54:57 729	Layer<5,1-1-1>:测试设备开始
18:54:57 735	Layer<5,1-1-1>:测试设备成功
18:54:57 741	Layer<5,1-1-1>:校验芯片开始
18:54:57 747	Layer<5,1-1-1>:校验芯片成功
18:54:57 753	Layer<5,1-1-1>:获取FlashInfo开始
18:54:57 755	<LAYER 1-1-1> INFO:FlashInfo: 00 00 E9 00 00 04 04 00 28 00 01
18:54:57 759	Layer<5,1-1-1>:获取FlashInfo成功
18:54:57 765	Layer<5,1-1-1>:准备IDB开始
18:54:57 767	<LAYER 1-1-1> INFO:CS(1)		(7456MB)		(SAMSUNG)
18:54:57 777	Layer<5,1-1-1>:准备IDB成功
18:54:57 783	Layer<5,1-1-1>:下载IDB开始
18:54:58 685	Layer<5,1-1-1>:下载IDB成功
18:54:58 695	Layer<5,1-1-1>:重启设备开始
18:54:59 703	Layer<5,1-1-1>:重启设备成功
18:54:59 709	Layer<5,1-1-1>:等待Loader开始
18:55:02 012	Layer<5,1-1-1>:等待Loader成功
18:55:02 018	Layer<5,1-1-1>:测试设备开始
18:55:02 023	Layer<5,1-1-1>:测试设备成功
18:55:02 029	Layer<5,1-1-1>:下载固件开始
18:55:02 031	<LAYER 1-1-1> INFO:Start download image,total=636368188
18:55:02 075	<LAYER 1-1-1> INFO:Start to download misc,offset=0x4000,size=49152
18:55:02 087	<LAYER 1-1-1> INFO:Start to download resource,offset=0x6000,size=370176
18:55:02 140	<LAYER 1-1-1> INFO:Start to download kernel,offset=0xe000,size=7128220
18:55:02 644	<LAYER 1-1-1> INFO:Start to download boot,offset=0x16000,size=8945664
18:55:03 192	<LAYER 1-1-1> INFO:Start to download recovery,offset=0x26000,size=10551296
18:55:03 723	<LAYER 1-1-1> INFO:Start to download system,offset=0x92000,size=609316864
18:55:48 884	Layer<6,1-1-2>:下载固件成功
18:55:48 890	Layer<6,1-1-2>:重启设备开始
18:55:48 896	Layer<6,1-1-2>:重启设备成功
18:55:48 913	Layer<6,1-1-2>:升级成功
18:55:59 150	Layer<5,1-1-1>:下载固件成功
18:55:59 159	Layer<5,1-1-1>:重启设备开始
18:55:59 167	Layer<5,1-1-1>:重启设备成功
18:55:59 182	Layer<5,1-1-1>:升级成功
18:57:02 270	Layer<6,1-1-2>:测试设备开始
18:57:02 276	Layer<6,1-1-2>:测试设备成功
18:57:02 282	Layer<6,1-1-2>:校验芯片开始
18:57:02 289	Layer<6,1-1-2>:校验芯片成功
18:57:02 295	Layer<6,1-1-2>:获取FlashInfo开始
18:57:02 297	<LAYER 1-1-2> INFO:FlashInfo: 00 00 E9 00 00 04 04 00 28 00 01
18:57:02 301	Layer<6,1-1-2>:获取FlashInfo成功
18:57:02 307	Layer<6,1-1-2>:准备IDB开始
18:57:02 309	<LAYER 1-1-2> INFO:CS(1)		(7456MB)		(SAMSUNG)
18:57:02 321	Layer<6,1-1-2>:准备IDB成功
18:57:02 350	Layer<6,1-1-2>:下载IDB开始
18:57:03 254	Layer<6,1-1-2>:下载IDB成功
18:57:03 262	Layer<6,1-1-2>:重启设备开始
18:57:04 269	Layer<6,1-1-2>:重启设备成功
18:57:04 284	Layer<6,1-1-2>:等待Loader开始
18:57:07 147	Layer<6,1-1-2>:等待Loader成功
18:57:07 159	Layer<6,1-1-2>:测试设备开始
18:57:07 171	Layer<6,1-1-2>:测试设备成功
18:57:07 178	Layer<6,1-1-2>:下载固件开始
18:57:07 180	<LAYER 1-1-2> INFO:Start download image,total=636368188
18:57:07 225	<LAYER 1-1-2> INFO:Start to download misc,offset=0x4000,size=49152
18:57:07 231	<LAYER 1-1-2> INFO:Start to download resource,offset=0x6000,size=370176
18:57:07 258	<LAYER 1-1-2> INFO:Start to download kernel,offset=0xe000,size=7128220
18:57:07 565	<LAYER 1-1-2> INFO:Start to download boot,offset=0x16000,size=8945664
18:57:07 939	<LAYER 1-1-2> INFO:Start to download recovery,offset=0x26000,size=10551296
18:57:08 410	<LAYER 1-1-2> INFO:Start to download system,offset=0x92000,size=609316864
18:57:16 368	Layer<5,1-1-1>:测试设备开始
18:57:16 374	Layer<5,1-1-1>:测试设备成功
18:57:16 380	Layer<5,1-1-1>:校验芯片开始
18:57:16 387	Layer<5,1-1-1>:校验芯片成功
18:57:16 392	Layer<5,1-1-1>:获取FlashInfo开始
18:57:16 394	<LAYER 1-1-1> INFO:FlashInfo: 00 00 E9 00 00 04 04 00 28 00 01
18:57:16 399	Layer<5,1-1-1>:获取FlashInfo成功
18:57:16 405	Layer<5,1-1-1>:准备IDB开始
18:57:16 407	<LAYER 1-1-1> INFO:CS(1)		(7456MB)		(SAMSUNG)
18:57:16 417	Layer<5,1-1-1>:准备IDB成功
18:57:16 423	Layer<5,1-1-1>:下载IDB开始
18:57:17 330	Layer<5,1-1-1>:下载IDB成功
18:57:17 341	Layer<5,1-1-1>:重启设备开始
18:57:18 349	Layer<5,1-1-1>:重启设备成功
18:57:18 357	Layer<5,1-1-1>:等待Loader开始
18:57:20 803	Layer<5,1-1-1>:等待Loader成功
18:57:20 811	Layer<5,1-1-1>:测试设备开始
18:57:20 816	Layer<5,1-1-1>:测试设备成功
18:57:20 822	Layer<5,1-1-1>:下载固件开始
18:57:20 824	<LAYER 1-1-1> INFO:Start download image,total=636368188
18:57:20 877	<LAYER 1-1-1> INFO:Start to download misc,offset=0x4000,size=49152
18:57:20 883	<LAYER 1-1-1> INFO:Start to download resource,offset=0x6000,size=370176
18:57:20 912	<LAYER 1-1-1> INFO:Start to download kernel,offset=0xe000,size=7128220
18:57:21 293	<LAYER 1-1-1> INFO:Start to download boot,offset=0x16000,size=8945664
18:57:21 765	<LAYER 1-1-1> INFO:Start to download recovery,offset=0x26000,size=10551296
18:57:22 351	<LAYER 1-1-1> INFO:Start to download system,offset=0x92000,size=609316864
18:58:06 660	Layer<6,1-1-2>:下载固件成功
18:58:06 667	Layer<6,1-1-2>:重启设备开始
18:58:06 673	Layer<6,1-1-2>:重启设备成功
18:58:06 697	Layer<6,1-1-2>:升级成功
18:58:17 452	Layer<5,1-1-1>:下载固件成功
18:58:17 463	Layer<5,1-1-1>:重启设备开始
18:58:17 469	Layer<5,1-1-1>:重启设备成功
18:58:17 483	Layer<5,1-1-1>:升级成功
18:59:27 979	Layer<6,1-1-2>:测试设备开始
18:59:27 985	Layer<6,1-1-2>:测试设备成功
18:59:27 990	Layer<6,1-1-2>:校验芯片开始
18:59:27 996	Layer<6,1-1-2>:校验芯片成功
18:59:28 002	Layer<6,1-1-2>:获取FlashInfo开始
18:59:28 004	<LAYER 1-1-2> INFO:FlashInfo: 00 00 E9 00 00 04 04 00 28 00 01
18:59:28 008	Layer<6,1-1-2>:获取FlashInfo成功
18:59:28 014	Layer<6,1-1-2>:准备IDB开始
18:59:28 016	<LAYER 1-1-2> INFO:CS(1)		(7456MB)		(SAMSUNG)
18:59:28 027	Layer<6,1-1-2>:准备IDB成功
18:59:28 033	Layer<6,1-1-2>:下载IDB开始
18:59:28 967	Layer<6,1-1-2>:下载IDB成功
18:59:28 973	Layer<6,1-1-2>:重启设备开始
18:59:29 975	Layer<6,1-1-2>:重启设备成功
18:59:29 982	Layer<6,1-1-2>:等待Loader开始
18:59:32 619	Layer<6,1-1-2>:等待Loader成功
18:59:32 629	Layer<6,1-1-2>:测试设备开始
18:59:32 640	Layer<6,1-1-2>:测试设备成功
18:59:32 648	Layer<6,1-1-2>:下载固件开始
18:59:32 650	<LAYER 1-1-2> INFO:Start download image,total=636368188
18:59:32 693	<LAYER 1-1-2> INFO:Start to download misc,offset=0x4000,size=49152
18:59:32 699	<LAYER 1-1-2> INFO:Start to download resource,offset=0x6000,size=370176
18:59:32 726	<LAYER 1-1-2> INFO:Start to download kernel,offset=0xe000,size=7128220
18:59:33 042	<LAYER 1-1-2> INFO:Start to download boot,offset=0x16000,size=8945664
18:59:33 429	<LAYER 1-1-2> INFO:Start to download recovery,offset=0x26000,size=10551296
18:59:33 900	<LAYER 1-1-2> INFO:Start to download system,offset=0x92000,size=609316864
18:59:39 612	Layer<5,1-1-1>:测试设备开始
18:59:39 618	Layer<5,1-1-1>:测试设备成功
18:59:39 624	Layer<5,1-1-1>:校验芯片开始
18:59:39 631	Layer<5,1-1-1>:校验芯片成功
18:59:39 639	Layer<5,1-1-1>:获取FlashInfo开始
18:59:39 642	<LAYER 1-1-1> INFO:FlashInfo: 00 00 E9 00 00 04 04 00 28 00 01
18:59:39 651	Layer<5,1-1-1>:获取FlashInfo成功
18:59:39 658	Layer<5,1-1-1>:准备IDB开始
18:59:39 659	<LAYER 1-1-1> INFO:CS(1)		(7456MB)		(SAMSUNG)
18:59:39 670	Layer<5,1-1-1>:准备IDB成功
18:59:39 676	Layer<5,1-1-1>:下载IDB开始
18:59:40 577	Layer<5,1-1-1>:下载IDB成功
18:59:40 588	Layer<5,1-1-1>:重启设备开始
18:59:41 592	Layer<5,1-1-1>:重启设备成功
18:59:41 599	Layer<5,1-1-1>:等待Loader开始
18:59:44 007	Layer<5,1-1-1>:等待Loader成功
18:59:44 013	Layer<5,1-1-1>:测试设备开始
18:59:44 031	Layer<5,1-1-1>:测试设备成功
18:59:44 041	Layer<5,1-1-1>:下载固件开始
18:59:44 043	<LAYER 1-1-1> INFO:Start download image,total=636368188
18:59:44 096	<LAYER 1-1-1> INFO:Start to download misc,offset=0x4000,size=49152
18:59:44 102	<LAYER 1-1-1> INFO:Start to download resource,offset=0x6000,size=370176
18:59:44 126	<LAYER 1-1-1> INFO:Start to download kernel,offset=0xe000,size=7128220
18:59:44 510	<LAYER 1-1-1> INFO:Start to download boot,offset=0x16000,size=8945664
18:59:44 992	<LAYER 1-1-1> INFO:Start to download recovery,offset=0x26000,size=10551296
18:59:45 546	<LAYER 1-1-1> INFO:Start to download system,offset=0x92000,size=609316864
19:00:32 151	Layer<6,1-1-2>:下载固件成功
19:00:32 158	Layer<6,1-1-2>:重启设备开始
19:00:32 165	Layer<6,1-1-2>:重启设备成功
19:00:32 183	Layer<6,1-1-2>:升级成功
19:00:41 231	Layer<5,1-1-1>:下载固件成功
19:00:41 239	Layer<5,1-1-1>:重启设备开始
19:00:41 249	Layer<5,1-1-1>:重启设备成功
19:00:41 266	Layer<5,1-1-1>:升级成功
19:01:54 860	Layer<6,1-1-2>:测试设备开始
19:01:54 866	Layer<6,1-1-2>:测试设备成功
19:01:54 872	Layer<6,1-1-2>:校验芯片开始
19:01:54 879	Layer<6,1-1-2>:校验芯片成功
19:01:54 885	Layer<6,1-1-2>:获取FlashInfo开始
19:01:54 888	<LAYER 1-1-2> INFO:FlashInfo: 00 00 E9 00 00 04 04 00 28 00 01
19:01:54 892	Layer<6,1-1-2>:获取FlashInfo成功
19:01:54 898	Layer<6,1-1-2>:准备IDB开始
19:01:54 900	<LAYER 1-1-2> INFO:CS(1)		(7456MB)		(SAMSUNG)
19:01:54 911	Layer<6,1-1-2>:准备IDB成功
19:01:54 917	Layer<6,1-1-2>:下载IDB开始
19:01:55 824	Layer<6,1-1-2>:下载IDB成功
19:01:55 834	Layer<6,1-1-2>:重启设备开始
19:01:56 839	Layer<6,1-1-2>:重启设备成功
19:01:56 848	Layer<6,1-1-2>:等待Loader开始
19:01:59 335	Layer<6,1-1-2>:等待Loader成功
19:01:59 346	Layer<6,1-1-2>:测试设备开始
19:01:59 354	Layer<6,1-1-2>:测试设备成功
19:01:59 360	Layer<6,1-1-2>:下载固件开始
19:01:59 363	<LAYER 1-1-2> INFO:Start download image,total=636368188
19:01:59 411	<LAYER 1-1-2> INFO:Start to download misc,offset=0x4000,size=49152
19:01:59 417	<LAYER 1-1-2> INFO:Start to download resource,offset=0x6000,size=370176
19:01:59 437	<LAYER 1-1-2> INFO:Start to download kernel,offset=0xe000,size=7128220
19:01:59 745	<LAYER 1-1-2> INFO:Start to download boot,offset=0x16000,size=8945664
19:02:00 137	<LAYER 1-1-2> INFO:Start to download recovery,offset=0x26000,size=10551296
19:02:00 598	<LAYER 1-1-2> INFO:Start to download system,offset=0x92000,size=609316864
19:02:14 623	Layer<5,1-1-1>:测试设备开始
19:02:14 632	Layer<5,1-1-1>:测试设备成功
19:02:14 639	Layer<5,1-1-1>:校验芯片开始
19:02:14 651	Layer<5,1-1-1>:校验芯片成功
19:02:14 657	Layer<5,1-1-1>:获取FlashInfo开始
19:02:14 659	<LAYER 1-1-1> INFO:FlashInfo: 00 00 E9 00 00 04 04 00 28 00 01
19:02:14 663	Layer<5,1-1-1>:获取FlashInfo成功
19:02:14 670	Layer<5,1-1-1>:准备IDB开始
19:02:14 671	<LAYER 1-1-1> INFO:CS(1)		(7456MB)		(SAMSUNG)
19:02:14 679	<LAYER 1-1-1> ERROR:GetIDBData-->memcmp failed,src(0),Dst(1)
19:02:14 684	<LAYER 1-1-1> ERROR:GetIDBData-->memcmp failed,src(0),Dst(1)
19:02:14 687	Layer<5,1-1-1>:准备IDB成功
19:02:14 693	Layer<5,1-1-1>:下载IDB开始
19:02:15 639	Layer<5,1-1-1>:下载IDB成功
19:02:15 649	Layer<5,1-1-1>:重启设备开始
19:02:16 652	Layer<5,1-1-1>:重启设备成功
19:02:16 658	Layer<5,1-1-1>:等待Loader开始
19:02:18 943	Layer<5,1-1-1>:等待Loader成功
19:02:18 949	Layer<5,1-1-1>:测试设备开始
19:02:18 955	Layer<5,1-1-1>:测试设备成功
19:02:18 961	Layer<5,1-1-1>:下载固件开始
19:02:18 963	<LAYER 1-1-1> INFO:Start download image,total=636368188
19:02:19 011	<LAYER 1-1-1> INFO:Start to download misc,offset=0x4000,size=49152
19:02:19 019	<LAYER 1-1-1> INFO:Start to download resource,offset=0x6000,size=370176
19:02:19 038	<LAYER 1-1-1> INFO:Start to download kernel,offset=0xe000,size=7128220
19:02:19 406	<LAYER 1-1-1> INFO:Start to download boot,offset=0x16000,size=8945664
19:02:19 881	<LAYER 1-1-1> INFO:Start to download recovery,offset=0x26000,size=10551296
19:02:20 439	<LAYER 1-1-1> INFO:Start to download system,offset=0x92000,size=609316864
19:02:57 780	Layer<6,1-1-2>:下载固件成功
19:02:57 788	Layer<6,1-1-2>:重启设备开始
19:02:57 794	Layer<6,1-1-2>:重启设备成功
19:02:57 815	Layer<6,1-1-2>:升级成功
19:03:13 361	Layer<5,1-1-1>:下载固件成功
19:03:13 370	Layer<5,1-1-1>:重启设备开始
19:03:13 379	Layer<5,1-1-1>:重启设备成功
19:03:13 395	Layer<5,1-1-1>:升级成功
19:03:58 925	Layer<6,1-1-2>:测试设备开始
19:03:58 932	Layer<6,1-1-2>:测试设备成功
19:03:58 938	Layer<6,1-1-2>:校验芯片开始
19:03:58 944	Layer<6,1-1-2>:校验芯片成功
19:03:58 950	Layer<6,1-1-2>:获取FlashInfo开始
19:03:58 952	<LAYER 1-1-2> INFO:FlashInfo: 00 00 E9 00 00 04 04 00 28 00 01
19:03:58 956	Layer<6,1-1-2>:获取FlashInfo成功
19:03:58 962	Layer<6,1-1-2>:准备IDB开始
19:03:58 963	<LAYER 1-1-2> INFO:CS(1)		(7456MB)		(SAMSUNG)
19:03:58 976	Layer<6,1-1-2>:准备IDB成功
19:03:58 982	Layer<6,1-1-2>:下载IDB开始
19:03:59 860	Layer<6,1-1-2>:下载IDB成功
19:03:59 869	Layer<6,1-1-2>:重启设备开始
19:04:00 872	Layer<6,1-1-2>:重启设备成功
19:04:00 878	Layer<6,1-1-2>:等待Loader开始
19:04:03 503	Layer<6,1-1-2>:等待Loader成功
19:04:03 510	Layer<6,1-1-2>:测试设备开始
19:04:03 516	Layer<6,1-1-2>:测试设备成功
19:04:03 522	Layer<6,1-1-2>:下载固件开始
19:04:03 524	<LAYER 1-1-2> INFO:Start download image,total=636368188
19:04:03 566	<LAYER 1-1-2> INFO:Start to download misc,offset=0x4000,size=49152
19:04:03 573	<LAYER 1-1-2> INFO:Start to download resource,offset=0x6000,size=370176
19:04:03 594	<LAYER 1-1-2> INFO:Start to download kernel,offset=0xe000,size=7128220
19:04:03 897	<LAYER 1-1-2> INFO:Start to download boot,offset=0x16000,size=8945664
19:04:04 291	<LAYER 1-1-2> INFO:Start to download recovery,offset=0x26000,size=10551296
19:04:04 765	<LAYER 1-1-2> INFO:Start to download system,offset=0x92000,size=609316864
19:04:14 662	Layer<5,1-1-1>:测试设备开始
19:04:14 670	Layer<5,1-1-1>:测试设备成功
19:04:14 677	Layer<5,1-1-1>:校验芯片开始
19:04:14 683	Layer<5,1-1-1>:校验芯片成功
19:04:14 690	Layer<5,1-1-1>:获取FlashInfo开始
19:04:14 692	<LAYER 1-1-1> INFO:FlashInfo: 00 00 E9 00 00 04 04 00 28 00 01
19:04:14 697	Layer<5,1-1-1>:获取FlashInfo成功
19:04:14 702	Layer<5,1-1-1>:准备IDB开始
19:04:14 704	<LAYER 1-1-1> INFO:CS(1)		(7456MB)		(SAMSUNG)
19:04:14 714	Layer<5,1-1-1>:准备IDB成功
19:04:14 720	Layer<5,1-1-1>:下载IDB开始
19:04:15 634	Layer<5,1-1-1>:下载IDB成功
19:04:15 643	Layer<5,1-1-1>:重启设备开始
19:04:16 651	Layer<5,1-1-1>:重启设备成功
19:04:16 659	Layer<5,1-1-1>:等待Loader开始
19:04:18 951	Layer<5,1-1-1>:等待Loader成功
19:04:18 957	Layer<5,1-1-1>:测试设备开始
19:04:18 963	Layer<5,1-1-1>:测试设备成功
19:04:18 969	Layer<5,1-1-1>:下载固件开始
19:04:18 970	<LAYER 1-1-1> INFO:Start download image,total=636368188
19:04:19 017	<LAYER 1-1-1> INFO:Start to download misc,offset=0x4000,size=49152
19:04:19 024	<LAYER 1-1-1> INFO:Start to download resource,offset=0x6000,size=370176
19:04:19 041	<LAYER 1-1-1> INFO:Start to download kernel,offset=0xe000,size=7128220
19:04:19 407	<LAYER 1-1-1> INFO:Start to download boot,offset=0x16000,size=8945664
19:04:19 868	<LAYER 1-1-1> INFO:Start to download recovery,offset=0x26000,size=10551296
19:04:20 428	<LAYER 1-1-1> INFO:Start to download system,offset=0x92000,size=609316864
19:05:02 615	Layer<6,1-1-2>:下载固件成功
19:05:02 621	Layer<6,1-1-2>:重启设备开始
19:05:02 633	Layer<6,1-1-2>:重启设备成功
19:05:02 648	Layer<6,1-1-2>:升级成功
19:05:14 652	Layer<5,1-1-1>:下载固件成功
19:05:14 657	Layer<5,1-1-1>:重启设备开始
19:05:14 663	Layer<5,1-1-1>:重启设备成功
19:05:14 677	Layer<5,1-1-1>:升级成功
19:06:04 621	Layer<6,1-1-2>:测试设备开始
19:06:04 628	Layer<6,1-1-2>:测试设备成功
19:06:04 634	Layer<6,1-1-2>:校验芯片开始
19:06:04 640	Layer<6,1-1-2>:校验芯片成功
19:06:04 646	Layer<6,1-1-2>:获取FlashInfo开始
19:06:04 648	<LAYER 1-1-2> INFO:FlashInfo: 00 00 E9 00 00 04 04 00 28 00 01
19:06:04 652	Layer<6,1-1-2>:获取FlashInfo成功
19:06:04 659	Layer<6,1-1-2>:准备IDB开始
19:06:04 660	<LAYER 1-1-2> INFO:CS(1)		(7456MB)		(SAMSUNG)
19:06:04 673	Layer<6,1-1-2>:准备IDB成功
19:06:04 679	Layer<6,1-1-2>:下载IDB开始
19:06:05 591	Layer<6,1-1-2>:下载IDB成功
19:06:05 600	Layer<6,1-1-2>:重启设备开始
19:06:06 603	Layer<6,1-1-2>:重启设备成功
19:06:06 609	Layer<6,1-1-2>:等待Loader开始
19:06:09 314	Layer<6,1-1-2>:等待Loader成功
19:06:09 324	Layer<6,1-1-2>:测试设备开始
19:06:09 335	Layer<6,1-1-2>:测试设备成功
19:06:09 341	Layer<6,1-1-2>:下载固件开始
19:06:09 343	<LAYER 1-1-2> INFO:Start download image,total=636368188
19:06:09 389	<LAYER 1-1-2> INFO:Start to download misc,offset=0x4000,size=49152
19:06:09 396	<LAYER 1-1-2> INFO:Start to download resource,offset=0x6000,size=370176
19:06:09 411	<LAYER 1-1-2> INFO:Start to download kernel,offset=0xe000,size=7128220
19:06:09 720	<LAYER 1-1-2> INFO:Start to download boot,offset=0x16000,size=8945664
19:06:10 117	<LAYER 1-1-2> INFO:Start to download recovery,offset=0x26000,size=10551296
19:06:10 594	<LAYER 1-1-2> INFO:Start to download system,offset=0x92000,size=609316864
19:06:18 512	Layer<5,1-1-1>:测试设备开始
19:06:18 519	Layer<5,1-1-1>:测试设备成功
19:06:18 528	Layer<5,1-1-1>:校验芯片开始
19:06:18 543	Layer<5,1-1-1>:校验芯片成功
19:06:18 550	Layer<5,1-1-1>:获取FlashInfo开始
19:06:18 553	<LAYER 1-1-1> INFO:FlashInfo: 00 00 E9 00 00 04 04 00 28 00 01
19:06:18 557	Layer<5,1-1-1>:获取FlashInfo成功
19:06:18 563	Layer<5,1-1-1>:准备IDB开始
19:06:18 564	<LAYER 1-1-1> INFO:CS(1)		(7456MB)		(SAMSUNG)
19:06:18 578	Layer<5,1-1-1>:准备IDB成功
19:06:18 584	Layer<5,1-1-1>:下载IDB开始
19:06:19 542	Layer<5,1-1-1>:下载IDB成功
19:06:19 549	Layer<5,1-1-1>:重启设备开始
19:06:20 553	Layer<5,1-1-1>:重启设备成功
19:06:20 781	Layer<5,1-1-1>:等待Loader开始
19:06:23 143	Layer<5,1-1-1>:等待Loader成功
19:06:23 149	Layer<5,1-1-1>:测试设备开始
19:06:23 155	Layer<5,1-1-1>:测试设备成功
19:06:23 162	Layer<5,1-1-1>:下载固件开始
19:06:23 164	<LAYER 1-1-1> INFO:Start download image,total=636368188
19:06:23 212	<LAYER 1-1-1> INFO:Start to download misc,offset=0x4000,size=49152
19:06:23 219	<LAYER 1-1-1> INFO:Start to download resource,offset=0x6000,size=370176
19:06:23 245	<LAYER 1-1-1> INFO:Start to download kernel,offset=0xe000,size=7128220
19:06:23 606	<LAYER 1-1-1> INFO:Start to download boot,offset=0x16000,size=8945664
19:06:24 083	<LAYER 1-1-1> INFO:Start to download recovery,offset=0x26000,size=10551296
19:06:24 635	<LAYER 1-1-1> INFO:Start to download system,offset=0x92000,size=609316864
19:07:08 553	Layer<6,1-1-2>:下载固件成功
19:07:08 560	Layer<6,1-1-2>:重启设备开始
19:07:08 567	Layer<6,1-1-2>:重启设备成功
19:07:08 583	Layer<6,1-1-2>:升级成功
19:07:19 537	Layer<5,1-1-1>:下载固件成功
19:07:19 542	Layer<5,1-1-1>:重启设备开始
19:07:19 548	Layer<5,1-1-1>:重启设备成功
19:07:19 562	Layer<5,1-1-1>:升级成功
19:08:31 427	Layer<6,1-1-2>:测试设备开始
19:08:31 432	Layer<6,1-1-2>:测试设备成功
19:08:31 438	Layer<6,1-1-2>:校验芯片开始
19:08:31 444	Layer<6,1-1-2>:校验芯片成功
19:08:31 449	Layer<6,1-1-2>:获取FlashInfo开始
19:08:31 452	<LAYER 1-1-2> INFO:FlashInfo: 00 00 E9 00 00 04 04 00 28 00 01
19:08:31 459	Layer<6,1-1-2>:获取FlashInfo成功
19:08:31 467	Layer<6,1-1-2>:准备IDB开始
19:08:31 469	<LAYER 1-1-2> INFO:CS(1)		(7456MB)		(SAMSUNG)
19:08:31 482	Layer<6,1-1-2>:准备IDB成功
19:08:31 488	Layer<6,1-1-2>:下载IDB开始
19:08:32 385	Layer<6,1-1-2>:下载IDB成功
19:08:32 399	Layer<6,1-1-2>:重启设备开始
19:08:33 402	Layer<6,1-1-2>:重启设备成功
19:08:33 410	Layer<6,1-1-2>:等待Loader开始
19:08:36 012	Layer<6,1-1-2>:等待Loader成功
19:08:36 021	Layer<6,1-1-2>:测试设备开始
19:08:36 031	Layer<6,1-1-2>:测试设备成功
19:08:36 039	Layer<6,1-1-2>:下载固件开始
19:08:36 041	<LAYER 1-1-2> INFO:Start download image,total=636368188
19:08:36 085	<LAYER 1-1-2> INFO:Start to download misc,offset=0x4000,size=49152
19:08:36 091	<LAYER 1-1-2> INFO:Start to download resource,offset=0x6000,size=370176
19:08:36 112	<LAYER 1-1-2> INFO:Start to download kernel,offset=0xe000,size=7128220
19:08:36 421	<LAYER 1-1-2> INFO:Start to download boot,offset=0x16000,size=8945664
19:08:36 814	<LAYER 1-1-2> INFO:Start to download recovery,offset=0x26000,size=10551296
19:08:37 290	<LAYER 1-1-2> INFO:Start to download system,offset=0x92000,size=609316864
19:08:45 940	Layer<5,1-1-1>:测试设备开始
19:08:45 946	Layer<5,1-1-1>:测试设备成功
19:08:45 952	Layer<5,1-1-1>:校验芯片开始
19:08:45 959	Layer<5,1-1-1>:校验芯片成功
19:08:45 964	Layer<5,1-1-1>:获取FlashInfo开始
19:08:45 967	<LAYER 1-1-1> INFO:FlashInfo: 00 00 E9 00 00 04 04 00 28 00 01
19:08:45 980	Layer<5,1-1-1>:获取FlashInfo成功
19:08:45 988	Layer<5,1-1-1>:准备IDB开始
19:08:45 990	<LAYER 1-1-1> INFO:CS(1)		(7456MB)		(SAMSUNG)
19:08:46 000	Layer<5,1-1-1>:准备IDB成功
19:08:46 006	Layer<5,1-1-1>:下载IDB开始
19:08:46 943	Layer<5,1-1-1>:下载IDB成功
19:08:46 954	Layer<5,1-1-1>:重启设备开始
19:08:47 964	Layer<5,1-1-1>:重启设备成功
19:08:47 972	Layer<5,1-1-1>:等待Loader开始
19:08:50 404	Layer<5,1-1-1>:等待Loader成功
19:08:50 413	Layer<5,1-1-1>:测试设备开始
19:08:50 431	Layer<5,1-1-1>:测试设备成功
19:08:50 439	Layer<5,1-1-1>:下载固件开始
19:08:50 441	<LAYER 1-1-1> INFO:Start download image,total=636368188
19:08:50 494	<LAYER 1-1-1> INFO:Start to download misc,offset=0x4000,size=49152
19:08:50 500	<LAYER 1-1-1> INFO:Start to download resource,offset=0x6000,size=370176
19:08:50 531	<LAYER 1-1-1> INFO:Start to download kernel,offset=0xe000,size=7128220
19:08:50 913	<LAYER 1-1-1> INFO:Start to download boot,offset=0x16000,size=8945664
19:08:51 391	<LAYER 1-1-1> INFO:Start to download recovery,offset=0x26000,size=10551296
19:08:51 946	<LAYER 1-1-1> INFO:Start to download system,offset=0x92000,size=609316864
19:09:35 061	Layer<6,1-1-2>:下载固件成功
19:09:35 068	Layer<6,1-1-2>:重启设备开始
19:09:35 075	Layer<6,1-1-2>:重启设备成功
19:09:35 097	Layer<6,1-1-2>:升级成功
19:09:46 559	Layer<5,1-1-1>:下载固件成功
19:09:46 567	Layer<5,1-1-1>:重启设备开始
19:09:46 572	Layer<5,1-1-1>:重启设备成功
19:09:46 586	Layer<5,1-1-1>:升级成功
19:10:52 694	Layer<6,1-1-2>:测试设备开始
19:10:52 703	Layer<6,1-1-2>:测试设备成功
19:10:52 711	Layer<6,1-1-2>:校验芯片开始
19:10:52 719	Layer<6,1-1-2>:校验芯片成功
19:10:52 726	Layer<6,1-1-2>:获取FlashInfo开始
19:10:52 728	<LAYER 1-1-2> INFO:FlashInfo: 00 00 E9 00 00 04 04 00 28 00 01
19:10:52 740	Layer<6,1-1-2>:获取FlashInfo成功
19:10:52 752	Layer<6,1-1-2>:准备IDB开始
19:10:52 755	<LAYER 1-1-2> INFO:CS(1)		(7456MB)		(SAMSUNG)
19:10:52 771	Layer<6,1-1-2>:准备IDB成功
19:10:52 779	Layer<6,1-1-2>:下载IDB开始
19:10:53 615	Layer<6,1-1-2>:下载IDB成功
19:10:53 623	Layer<6,1-1-2>:重启设备开始
19:10:54 626	Layer<6,1-1-2>:重启设备成功
19:10:54 640	Layer<6,1-1-2>:等待Loader开始
19:10:57 215	Layer<6,1-1-2>:等待Loader成功
19:10:57 227	Layer<6,1-1-2>:测试设备开始
19:10:57 239	Layer<6,1-1-2>:测试设备成功
19:10:57 252	Layer<6,1-1-2>:下载固件开始
19:10:57 256	<LAYER 1-1-2> INFO:Start download image,total=636368188
19:10:57 309	<LAYER 1-1-2> INFO:Start to download misc,offset=0x4000,size=49152
19:10:57 315	<LAYER 1-1-2> INFO:Start to download resource,offset=0x6000,size=370176
19:10:57 332	<LAYER 1-1-2> INFO:Start to download kernel,offset=0xe000,size=7128220
19:10:57 641	<LAYER 1-1-2> INFO:Start to download boot,offset=0x16000,size=8945664
19:10:58 040	<LAYER 1-1-2> INFO:Start to download recovery,offset=0x26000,size=10551296
19:10:58 524	<LAYER 1-1-2> INFO:Start to download system,offset=0x92000,size=609316864
19:11:17 086	Layer<5,1-1-1>:测试设备开始
19:11:17 090	Layer<5,1-1-1>:测试设备成功
19:11:17 097	Layer<5,1-1-1>:校验芯片开始
19:11:17 103	Layer<5,1-1-1>:校验芯片成功
19:11:17 109	Layer<5,1-1-1>:获取FlashInfo开始
19:11:17 111	<LAYER 1-1-1> INFO:FlashInfo: 00 00 E9 00 00 04 04 00 28 00 01
19:11:17 115	Layer<5,1-1-1>:获取FlashInfo成功
19:11:17 121	Layer<5,1-1-1>:准备IDB开始
19:11:17 123	<LAYER 1-1-1> INFO:CS(1)		(7456MB)		(SAMSUNG)
19:11:17 136	Layer<5,1-1-1>:准备IDB成功
19:11:17 142	Layer<5,1-1-1>:下载IDB开始
19:11:18 124	Layer<5,1-1-1>:下载IDB成功
19:11:18 131	Layer<5,1-1-1>:重启设备开始
19:11:19 133	Layer<5,1-1-1>:重启设备成功
19:11:19 142	Layer<5,1-1-1>:等待Loader开始
19:11:21 478	Layer<5,1-1-1>:等待Loader成功
19:11:21 520	Layer<5,1-1-1>:测试设备开始
19:11:21 526	Layer<5,1-1-1>:测试设备成功
19:11:21 532	Layer<5,1-1-1>:下载固件开始
19:11:21 535	<LAYER 1-1-1> INFO:Start download image,total=636368188
19:11:21 594	<LAYER 1-1-1> INFO:Start to download misc,offset=0x4000,size=49152
19:11:21 601	<LAYER 1-1-1> INFO:Start to download resource,offset=0x6000,size=370176
19:11:21 635	<LAYER 1-1-1> INFO:Start to download kernel,offset=0xe000,size=7128220
19:11:22 019	<LAYER 1-1-1> INFO:Start to download boot,offset=0x16000,size=8945664
19:11:22 499	<LAYER 1-1-1> INFO:Start to download recovery,offset=0x26000,size=10551296
19:11:23 057	<LAYER 1-1-1> INFO:Start to download system,offset=0x92000,size=609316864
19:11:54 922	Layer<6,1-1-2>:下载固件成功
19:11:54 932	Layer<6,1-1-2>:重启设备开始
19:11:54 941	Layer<6,1-1-2>:重启设备成功
19:11:54 959	Layer<6,1-1-2>:升级成功
19:12:14 392	Layer<5,1-1-1>:下载固件成功
19:12:14 401	Layer<5,1-1-1>:重启设备开始
19:12:14 408	Layer<5,1-1-1>:重启设备成功
19:12:14 424	Layer<5,1-1-1>:升级成功
19:14:06 316	Layer<6,1-1-2>:测试设备开始
19:14:06 323	Layer<6,1-1-2>:测试设备成功
19:14:06 330	Layer<6,1-1-2>:校验芯片开始
19:14:06 337	Layer<6,1-1-2>:校验芯片成功
19:14:06 344	Layer<6,1-1-2>:获取FlashInfo开始
19:14:06 346	<LAYER 1-1-2> INFO:FlashInfo: 00 00 E9 00 00 04 04 00 28 00 01
19:14:06 401	Layer<6,1-1-2>:获取FlashInfo成功
19:14:06 414	Layer<6,1-1-2>:准备IDB开始
19:14:06 418	<LAYER 1-1-2> INFO:CS(1)		(7456MB)		(SAMSUNG)
19:14:06 434	Layer<6,1-1-2>:准备IDB成功
19:14:06 440	Layer<6,1-1-2>:下载IDB开始
19:14:07 408	Layer<6,1-1-2>:下载IDB成功
19:14:07 417	Layer<6,1-1-2>:重启设备开始
19:14:08 421	Layer<6,1-1-2>:重启设备成功
19:14:08 428	Layer<6,1-1-2>:等待Loader开始
19:14:11 161	Layer<6,1-1-2>:等待Loader成功
19:14:11 172	Layer<6,1-1-2>:测试设备开始
19:14:11 182	Layer<6,1-1-2>:测试设备成功
19:14:11 193	Layer<6,1-1-2>:下载固件开始
19:14:11 196	<LAYER 1-1-2> INFO:Start download image,total=636368188
19:14:11 241	<LAYER 1-1-2> INFO:Start to download misc,offset=0x4000,size=49152
19:14:11 246	<LAYER 1-1-2> INFO:Start to download resource,offset=0x6000,size=370176
19:14:11 270	<LAYER 1-1-2> INFO:Start to download kernel,offset=0xe000,size=7128220
19:14:11 585	<LAYER 1-1-2> INFO:Start to download boot,offset=0x16000,size=8945664
19:14:11 976	<LAYER 1-1-2> INFO:Start to download recovery,offset=0x26000,size=10551296
19:14:12 446	<LAYER 1-1-2> INFO:Start to download system,offset=0x92000,size=609316864
19:14:23 863	Layer<5,1-1-1>:测试设备开始
19:14:23 869	Layer<5,1-1-1>:测试设备成功
19:14:23 882	Layer<5,1-1-1>:校验芯片开始
19:14:23 893	Layer<5,1-1-1>:校验芯片成功
19:14:23 899	Layer<5,1-1-1>:获取FlashInfo开始
19:14:23 901	<LAYER 1-1-1> INFO:FlashInfo: 00 00 E9 00 00 04 04 00 28 00 01
19:14:23 905	Layer<5,1-1-1>:获取FlashInfo成功
19:14:23 912	Layer<5,1-1-1>:准备IDB开始
19:14:23 913	<LAYER 1-1-1> INFO:CS(1)		(7456MB)		(SAMSUNG)
19:14:23 924	Layer<5,1-1-1>:准备IDB成功
19:14:23 930	Layer<5,1-1-1>:下载IDB开始
19:14:24 952	Layer<5,1-1-1>:下载IDB成功
19:14:24 964	Layer<5,1-1-1>:重启设备开始
19:14:25 967	Layer<5,1-1-1>:重启设备成功
19:14:25 974	Layer<5,1-1-1>:等待Loader开始
19:14:28 330	Layer<5,1-1-1>:等待Loader成功
19:14:28 336	Layer<5,1-1-1>:测试设备开始
19:14:28 342	Layer<5,1-1-1>:测试设备成功
19:14:28 350	Layer<5,1-1-1>:下载固件开始
19:14:28 352	<LAYER 1-1-1> INFO:Start download image,total=636368188
19:14:28 403	<LAYER 1-1-1> INFO:Start to download misc,offset=0x4000,size=49152
19:14:28 409	<LAYER 1-1-1> INFO:Start to download resource,offset=0x6000,size=370176
19:14:28 427	<LAYER 1-1-1> INFO:Start to download kernel,offset=0xe000,size=7128220
19:14:28 814	<LAYER 1-1-1> INFO:Start to download boot,offset=0x16000,size=8945664
19:14:29 286	<LAYER 1-1-1> INFO:Start to download recovery,offset=0x26000,size=10551296
19:14:29 841	<LAYER 1-1-1> INFO:Start to download system,offset=0x92000,size=609316864
19:15:10 260	Layer<6,1-1-2>:下载固件成功
19:15:10 268	Layer<6,1-1-2>:重启设备开始
19:15:10 281	Layer<6,1-1-2>:重启设备成功
19:15:10 296	Layer<6,1-1-2>:升级成功
19:15:23 578	Layer<5,1-1-1>:下载固件成功
19:15:23 586	Layer<5,1-1-1>:重启设备开始
19:15:23 591	Layer<5,1-1-1>:重启设备成功
19:15:23 606	Layer<5,1-1-1>:升级成功
19:16:28 236	Layer<6,1-1-2>:测试设备开始
19:16:28 242	Layer<6,1-1-2>:测试设备成功
19:16:28 252	Layer<6,1-1-2>:校验芯片开始
19:16:28 259	Layer<6,1-1-2>:校验芯片成功
19:16:28 267	Layer<6,1-1-2>:获取FlashInfo开始
19:16:28 270	<LAYER 1-1-2> INFO:FlashInfo: 00 00 E9 00 00 04 04 00 28 00 01
19:16:28 275	Layer<6,1-1-2>:获取FlashInfo成功
19:16:28 284	Layer<6,1-1-2>:准备IDB开始
19:16:28 286	<LAYER 1-1-2> INFO:CS(1)		(7456MB)		(SAMSUNG)
19:16:28 297	Layer<6,1-1-2>:准备IDB成功
19:16:28 304	Layer<6,1-1-2>:下载IDB开始
19:16:29 533	Layer<6,1-1-2>:下载IDB成功
19:16:29 540	Layer<6,1-1-2>:重启设备开始
19:16:30 544	Layer<6,1-1-2>:重启设备成功
19:16:30 554	Layer<6,1-1-2>:等待Loader开始
19:16:32 537	Layer<6,1-1-2>:等待Loader成功
19:16:32 543	Layer<6,1-1-2>:测试设备开始
19:16:32 549	Layer<6,1-1-2>:测试设备成功
19:16:32 555	Layer<6,1-1-2>:下载固件开始
19:16:32 557	<LAYER 1-1-2> INFO:Start download image,total=636368188
19:16:32 600	<LAYER 1-1-2> INFO:Start to download misc,offset=0x4000,size=49152
19:16:32 607	<LAYER 1-1-2> INFO:Start to download resource,offset=0x6000,size=370176
19:16:32 628	<LAYER 1-1-2> INFO:Start to download kernel,offset=0xe000,size=7128220
19:16:32 937	<LAYER 1-1-2> INFO:Start to download boot,offset=0x16000,size=8945664
19:16:33 330	<LAYER 1-1-2> INFO:Start to download recovery,offset=0x26000,size=10551296
19:16:33 805	<LAYER 1-1-2> INFO:Start to download system,offset=0x92000,size=609316864
19:16:51 836	Layer<5,1-1-1>:测试设备开始
19:16:51 842	Layer<5,1-1-1>:测试设备成功
19:16:51 848	Layer<5,1-1-1>:校验芯片开始
19:16:51 854	Layer<5,1-1-1>:校验芯片成功
19:16:51 860	Layer<5,1-1-1>:获取FlashInfo开始
19:16:51 862	<LAYER 1-1-1> INFO:FlashInfo: 00 00 E9 00 00 04 04 00 28 00 01
19:16:51 866	Layer<5,1-1-1>:获取FlashInfo成功
19:16:51 874	Layer<5,1-1-1>:准备IDB开始
19:16:51 875	<LAYER 1-1-1> INFO:CS(1)		(7456MB)		(SAMSUNG)
19:16:51 886	Layer<5,1-1-1>:准备IDB成功
19:16:51 893	Layer<5,1-1-1>:下载IDB开始
19:16:52 844	Layer<5,1-1-1>:下载IDB成功
19:16:52 853	Layer<5,1-1-1>:重启设备开始
19:16:53 856	Layer<5,1-1-1>:重启设备成功
19:16:53 867	Layer<5,1-1-1>:等待Loader开始
19:16:56 345	Layer<5,1-1-1>:等待Loader成功
19:16:56 352	Layer<5,1-1-1>:测试设备开始
19:16:56 358	Layer<5,1-1-1>:测试设备成功
19:16:56 364	Layer<5,1-1-1>:下载固件开始
19:16:56 367	<LAYER 1-1-1> INFO:Start download image,total=636368188
19:16:56 419	<LAYER 1-1-1> INFO:Start to download misc,offset=0x4000,size=49152
19:16:56 432	<LAYER 1-1-1> INFO:Start to download resource,offset=0x6000,size=370176
19:16:56 456	<LAYER 1-1-1> INFO:Start to download kernel,offset=0xe000,size=7128220
19:16:56 822	<LAYER 1-1-1> INFO:Start to download boot,offset=0x16000,size=8945664
19:16:57 299	<LAYER 1-1-1> INFO:Start to download recovery,offset=0x26000,size=10551296
19:16:57 851	<LAYER 1-1-1> INFO:Start to download system,offset=0x92000,size=609316864
19:17:30 429	Layer<6,1-1-2>:下载固件成功
19:17:30 435	Layer<6,1-1-2>:重启设备开始
19:17:30 442	Layer<6,1-1-2>:重启设备成功
19:17:30 466	Layer<6,1-1-2>:升级成功
19:17:49 379	Layer<5,1-1-1>:下载固件成功
19:17:49 387	Layer<5,1-1-1>:重启设备开始
19:17:49 392	Layer<5,1-1-1>:重启设备成功
19:17:49 407	Layer<5,1-1-1>:升级成功
19:19:52 857	Layer<6,1-1-2>:测试设备开始
19:19:52 864	Layer<6,1-1-2>:测试设备成功
19:19:52 870	Layer<6,1-1-2>:校验芯片开始
19:19:52 875	Layer<6,1-1-2>:校验芯片成功
19:19:52 881	Layer<6,1-1-2>:获取FlashInfo开始
19:19:52 884	<LAYER 1-1-2> INFO:FlashInfo: 00 00 E9 00 00 04 04 00 28 00 01
19:19:52 888	Layer<6,1-1-2>:获取FlashInfo成功
19:19:52 894	Layer<6,1-1-2>:准备IDB开始
19:19:52 895	<LAYER 1-1-2> INFO:CS(1)		(7456MB)		(SAMSUNG)
19:19:52 912	Layer<6,1-1-2>:准备IDB成功
19:19:52 914	Layer<6,1-1-2>:下载IDB开始
19:19:53 853	Layer<6,1-1-2>:下载IDB成功
19:19:53 862	Layer<6,1-1-2>:重启设备开始
19:19:54 864	Layer<6,1-1-2>:重启设备成功
19:19:54 872	Layer<6,1-1-2>:等待Loader开始
19:19:57 569	Layer<6,1-1-2>:等待Loader成功
19:19:57 578	Layer<6,1-1-2>:测试设备开始
19:19:57 586	Layer<6,1-1-2>:测试设备成功
19:19:57 593	Layer<6,1-1-2>:下载固件开始
19:19:57 596	<LAYER 1-1-2> INFO:Start download image,total=636368188
19:19:57 642	<LAYER 1-1-2> INFO:Start to download misc,offset=0x4000,size=49152
19:19:57 648	<LAYER 1-1-2> INFO:Start to download resource,offset=0x6000,size=370176
19:19:57 665	<LAYER 1-1-2> INFO:Start to download kernel,offset=0xe000,size=7128220
19:19:57 973	<LAYER 1-1-2> INFO:Start to download boot,offset=0x16000,size=8945664
19:19:58 380	<LAYER 1-1-2> INFO:Start to download recovery,offset=0x26000,size=10551296
19:19:58 861	<LAYER 1-1-2> INFO:Start to download system,offset=0x92000,size=609316864
19:20:06 828	Layer<5,1-1-1>:测试设备开始
19:20:06 834	Layer<5,1-1-1>:测试设备成功
19:20:06 841	Layer<5,1-1-1>:校验芯片开始
19:20:06 847	Layer<5,1-1-1>:校验芯片成功
19:20:06 853	Layer<5,1-1-1>:获取FlashInfo开始
19:20:06 855	<LAYER 1-1-1> INFO:FlashInfo: 00 00 E9 00 00 04 04 00 28 00 01
19:20:06 860	Layer<5,1-1-1>:获取FlashInfo成功
19:20:06 866	Layer<5,1-1-1>:准备IDB开始
19:20:06 868	<LAYER 1-1-1> INFO:CS(1)		(7456MB)		(SAMSUNG)
19:20:06 880	Layer<5,1-1-1>:准备IDB成功
19:20:06 886	Layer<5,1-1-1>:下载IDB开始
19:20:07 860	Layer<5,1-1-1>:下载IDB成功
19:20:07 878	Layer<5,1-1-1>:重启设备开始
19:20:08 882	Layer<5,1-1-1>:重启设备成功
19:20:08 890	Layer<5,1-1-1>:等待Loader开始
19:20:11 522	Layer<5,1-1-1>:等待Loader成功
19:20:11 530	Layer<5,1-1-1>:测试设备开始
19:20:11 536	Layer<5,1-1-1>:测试设备成功
19:20:11 542	Layer<5,1-1-1>:下载固件开始
19:20:11 545	<LAYER 1-1-1> INFO:Start download image,total=636368188
19:20:11 605	<LAYER 1-1-1> INFO:Start to download misc,offset=0x4000,size=49152
19:20:11 611	<LAYER 1-1-1> INFO:Start to download resource,offset=0x6000,size=370176
19:20:11 636	<LAYER 1-1-1> INFO:Start to download kernel,offset=0xe000,size=7128220
19:20:11 997	<LAYER 1-1-1> INFO:Start to download boot,offset=0x16000,size=8945664
19:20:12 479	<LAYER 1-1-1> INFO:Start to download recovery,offset=0x26000,size=10551296
19:20:13 031	<LAYER 1-1-1> INFO:Start to download system,offset=0x92000,size=609316864
19:20:56 847	Layer<6,1-1-2>:下载固件成功
19:20:56 854	Layer<6,1-1-2>:重启设备开始
19:20:56 860	Layer<6,1-1-2>:重启设备成功
19:20:56 884	Layer<6,1-1-2>:升级成功
19:21:07 865	Layer<5,1-1-1>:下载固件成功
19:21:07 872	Layer<5,1-1-1>:重启设备开始
19:21:07 878	Layer<5,1-1-1>:重启设备成功
19:21:07 892	Layer<5,1-1-1>:升级成功
19:22:14 459	Layer<6,1-1-2>:测试设备开始
19:22:14 466	Layer<6,1-1-2>:测试设备成功
19:22:14 474	Layer<6,1-1-2>:校验芯片开始
19:22:14 480	Layer<6,1-1-2>:校验芯片成功
19:22:14 486	Layer<6,1-1-2>:获取FlashInfo开始
19:22:14 488	<LAYER 1-1-2> INFO:FlashInfo: 00 00 E9 00 00 04 04 00 28 00 01
19:22:14 492	Layer<6,1-1-2>:获取FlashInfo成功
19:22:14 498	Layer<6,1-1-2>:准备IDB开始
19:22:14 500	<LAYER 1-1-2> INFO:CS(1)		(7456MB)		(SAMSUNG)
19:22:14 510	Layer<6,1-1-2>:准备IDB成功
19:22:14 516	Layer<6,1-1-2>:下载IDB开始
19:22:15 437	Layer<6,1-1-2>:下载IDB成功
19:22:15 446	Layer<6,1-1-2>:重启设备开始
19:22:16 448	Layer<6,1-1-2>:重启设备成功
19:22:16 454	Layer<6,1-1-2>:等待Loader开始
19:22:19 456	Layer<6,1-1-2>:等待Loader成功
19:22:19 466	Layer<6,1-1-2>:测试设备开始
19:22:19 475	Layer<6,1-1-2>:测试设备成功
19:22:19 481	Layer<6,1-1-2>:下载固件开始
19:22:19 483	<LAYER 1-1-2> INFO:Start download image,total=636368188
19:22:19 528	<LAYER 1-1-2> INFO:Start to download misc,offset=0x4000,size=49152
19:22:19 534	<LAYER 1-1-2> INFO:Start to download resource,offset=0x6000,size=370176
19:22:19 552	<LAYER 1-1-2> INFO:Start to download kernel,offset=0xe000,size=7128220
19:22:19 867	<LAYER 1-1-2> INFO:Start to download boot,offset=0x16000,size=8945664
19:22:20 261	<LAYER 1-1-2> INFO:Start to download recovery,offset=0x26000,size=10551296
19:22:20 746	<LAYER 1-1-2> INFO:Start to download system,offset=0x92000,size=609316864
19:22:29 656	Layer<5,1-1-1>:测试设备开始
19:22:29 663	Layer<5,1-1-1>:测试设备成功
19:22:29 669	Layer<5,1-1-1>:校验芯片开始
19:22:29 676	Layer<5,1-1-1>:校验芯片成功
19:22:29 683	Layer<5,1-1-1>:获取FlashInfo开始
19:22:29 685	<LAYER 1-1-1> INFO:FlashInfo: 00 00 E9 00 00 04 04 00 28 00 01
19:22:29 689	Layer<5,1-1-1>:获取FlashInfo成功
19:22:29 696	Layer<5,1-1-1>:准备IDB开始
19:22:29 697	<LAYER 1-1-1> INFO:CS(1)		(7456MB)		(SAMSUNG)
19:22:29 711	Layer<5,1-1-1>:准备IDB成功
19:22:29 718	Layer<5,1-1-1>:下载IDB开始
19:22:30 693	Layer<5,1-1-1>:下载IDB成功
19:22:30 700	Layer<5,1-1-1>:重启设备开始
19:22:31 702	Layer<5,1-1-1>:重启设备成功
19:22:31 708	Layer<5,1-1-1>:等待Loader开始
19:22:34 225	Layer<5,1-1-1>:等待Loader成功
19:22:34 231	Layer<5,1-1-1>:测试设备开始
19:22:34 237	Layer<5,1-1-1>:测试设备成功
19:22:34 243	Layer<5,1-1-1>:下载固件开始
19:22:34 246	<LAYER 1-1-1> INFO:Start download image,total=636368188
19:22:34 291	<LAYER 1-1-1> INFO:Start to download misc,offset=0x4000,size=49152
19:22:34 298	<LAYER 1-1-1> INFO:Start to download resource,offset=0x6000,size=370176
19:22:34 317	<LAYER 1-1-1> INFO:Start to download kernel,offset=0xe000,size=7128220
19:22:34 687	<LAYER 1-1-1> INFO:Start to download boot,offset=0x16000,size=8945664
19:22:35 159	<LAYER 1-1-1> INFO:Start to download recovery,offset=0x26000,size=10551296
19:22:35 728	<LAYER 1-1-1> INFO:Start to download system,offset=0x92000,size=609316864
19:23:18 546	Layer<6,1-1-2>:下载固件成功
19:23:18 552	Layer<6,1-1-2>:重启设备开始
19:23:18 558	Layer<6,1-1-2>:重启设备成功
19:23:18 575	Layer<6,1-1-2>:升级成功
19:23:30 339	Layer<5,1-1-1>:下载固件成功
19:23:30 345	Layer<5,1-1-1>:重启设备开始
19:23:30 351	Layer<5,1-1-1>:重启设备成功
19:23:30 365	Layer<5,1-1-1>:升级成功
19:25:24 875	Layer<6,1-1-2>:测试设备开始
19:25:24 881	Layer<6,1-1-2>:测试设备成功
19:25:24 887	Layer<6,1-1-2>:校验芯片开始
19:25:24 893	Layer<6,1-1-2>:校验芯片成功
19:25:24 904	Layer<6,1-1-2>:获取FlashInfo开始
19:25:24 906	<LAYER 1-1-2> INFO:FlashInfo: 00 00 E9 00 00 04 04 00 28 00 01
19:25:24 909	Layer<6,1-1-2>:获取FlashInfo成功
19:25:24 916	Layer<6,1-1-2>:准备IDB开始
19:25:24 917	<LAYER 1-1-2> INFO:CS(1)		(7456MB)		(SAMSUNG)
19:25:24 932	Layer<6,1-1-2>:准备IDB成功
19:25:24 938	Layer<6,1-1-2>:下载IDB开始
19:25:25 863	Layer<6,1-1-2>:下载IDB成功
19:25:25 872	Layer<6,1-1-2>:重启设备开始
19:25:26 875	Layer<6,1-1-2>:重启设备成功
19:25:26 883	Layer<6,1-1-2>:等待Loader开始
19:25:29 350	Layer<6,1-1-2>:等待Loader成功
19:25:29 362	Layer<6,1-1-2>:测试设备开始
19:25:29 375	Layer<6,1-1-2>:测试设备成功
19:25:29 381	Layer<6,1-1-2>:下载固件开始
19:25:29 383	<LAYER 1-1-2> INFO:Start download image,total=636368188
19:25:29 427	<LAYER 1-1-2> INFO:Start to download misc,offset=0x4000,size=49152
19:25:29 433	<LAYER 1-1-2> INFO:Start to download resource,offset=0x6000,size=370176
19:25:29 450	<LAYER 1-1-2> INFO:Start to download kernel,offset=0xe000,size=7128220
19:25:29 759	<LAYER 1-1-2> INFO:Start to download boot,offset=0x16000,size=8945664
19:25:30 151	<LAYER 1-1-2> INFO:Start to download recovery,offset=0x26000,size=10551296
19:25:30 626	<LAYER 1-1-2> INFO:Start to download system,offset=0x92000,size=609316864
19:25:42 389	Layer<5,1-1-1>:测试设备开始
19:25:42 395	Layer<5,1-1-1>:测试设备成功
19:25:42 401	Layer<5,1-1-1>:校验芯片开始
19:25:42 409	Layer<5,1-1-1>:校验芯片成功
19:25:42 415	Layer<5,1-1-1>:获取FlashInfo开始
19:25:42 417	<LAYER 1-1-1> INFO:FlashInfo: 00 00 E9 00 00 04 04 00 28 00 01
19:25:42 421	Layer<5,1-1-1>:获取FlashInfo成功
19:25:42 428	Layer<5,1-1-1>:准备IDB开始
19:25:42 429	<LAYER 1-1-1> INFO:CS(1)		(7456MB)		(SAMSUNG)
19:25:42 445	Layer<5,1-1-1>:准备IDB成功
19:25:42 450	Layer<5,1-1-1>:下载IDB开始
19:25:43 372	Layer<5,1-1-1>:下载IDB成功
19:25:43 383	Layer<5,1-1-1>:重启设备开始
19:25:44 386	Layer<5,1-1-1>:重启设备成功
19:25:44 404	Layer<5,1-1-1>:等待Loader开始
19:25:46 861	Layer<5,1-1-1>:等待Loader成功
19:25:46 876	Layer<5,1-1-1>:测试设备开始
19:25:46 886	Layer<5,1-1-1>:测试设备成功
19:25:46 894	Layer<5,1-1-1>:下载固件开始
19:25:46 896	<LAYER 1-1-1> INFO:Start download image,total=636368188
19:25:46 951	<LAYER 1-1-1> INFO:Start to download misc,offset=0x4000,size=49152
19:25:46 957	<LAYER 1-1-1> INFO:Start to download resource,offset=0x6000,size=370176
19:25:46 981	<LAYER 1-1-1> INFO:Start to download kernel,offset=0xe000,size=7128220
19:25:47 354	<LAYER 1-1-1> INFO:Start to download boot,offset=0x16000,size=8945664
19:25:47 826	<LAYER 1-1-1> INFO:Start to download recovery,offset=0x26000,size=10551296
19:25:48 397	<LAYER 1-1-1> INFO:Start to download system,offset=0x92000,size=609316864
19:26:27 997	Layer<6,1-1-2>:下载固件成功
19:26:28 010	Layer<6,1-1-2>:重启设备开始
19:26:28 016	Layer<6,1-1-2>:重启设备成功
19:26:28 034	Layer<6,1-1-2>:升级成功
19:26:41 871	Layer<5,1-1-1>:下载固件成功
19:26:41 880	Layer<5,1-1-1>:重启设备开始
19:26:41 888	Layer<5,1-1-1>:重启设备成功
19:26:41 902	Layer<5,1-1-1>:升级成功
19:27:30 575	Layer<6,1-1-2>:测试设备开始
19:27:30 582	Layer<6,1-1-2>:测试设备成功
19:27:30 588	Layer<6,1-1-2>:校验芯片开始
19:27:30 594	Layer<6,1-1-2>:校验芯片成功
19:27:30 600	Layer<6,1-1-2>:获取FlashInfo开始
19:27:30 602	<LAYER 1-1-2> INFO:FlashInfo: 00 00 E9 00 00 04 04 00 28 00 01
19:27:30 606	Layer<6,1-1-2>:获取FlashInfo成功
19:27:30 613	Layer<6,1-1-2>:准备IDB开始
19:27:30 615	<LAYER 1-1-2> INFO:CS(1)		(7456MB)		(SAMSUNG)
19:27:30 625	Layer<6,1-1-2>:准备IDB成功
19:27:30 632	Layer<6,1-1-2>:下载IDB开始
19:27:31 530	Layer<6,1-1-2>:下载IDB成功
19:27:31 540	Layer<6,1-1-2>:重启设备开始
19:27:32 543	Layer<6,1-1-2>:重启设备成功
19:27:32 549	Layer<6,1-1-2>:等待Loader开始
19:27:35 220	Layer<6,1-1-2>:等待Loader成功
19:27:35 228	Layer<6,1-1-2>:测试设备开始
19:27:35 237	Layer<6,1-1-2>:测试设备成功
19:27:35 246	Layer<6,1-1-2>:下载固件开始
19:27:35 249	<LAYER 1-1-2> INFO:Start download image,total=636368188
19:27:35 295	<LAYER 1-1-2> INFO:Start to download misc,offset=0x4000,size=49152
19:27:35 301	<LAYER 1-1-2> INFO:Start to download resource,offset=0x6000,size=370176
19:27:35 323	<LAYER 1-1-2> INFO:Start to download kernel,offset=0xe000,size=7128220
19:27:35 637	<LAYER 1-1-2> INFO:Start to download boot,offset=0x16000,size=8945664
19:27:36 036	<LAYER 1-1-2> INFO:Start to download recovery,offset=0x26000,size=10551296
19:27:36 536	<LAYER 1-1-2> INFO:Start to download system,offset=0x92000,size=609316864
19:28:21 303	Layer<6,1-1-2>:下载固件成功
19:28:21 309	Layer<6,1-1-2>:重启设备开始
19:28:21 315	Layer<6,1-1-2>:重启设备成功
19:28:21 329	Layer<6,1-1-2>:升级成功
19:34:36 960	Layer<6,1-1-2>:测试设备开始
19:34:36 968	Layer<6,1-1-2>:测试设备成功
19:34:36 974	Layer<6,1-1-2>:校验芯片开始
19:34:36 980	Layer<6,1-1-2>:校验芯片成功
19:34:36 986	Layer<6,1-1-2>:获取FlashInfo开始
19:34:36 989	<LAYER 1-1-2> INFO:FlashInfo: 00 00 E9 00 00 04 04 00 28 00 01
19:34:36 993	Layer<6,1-1-2>:获取FlashInfo成功
19:34:36 999	Layer<6,1-1-2>:准备IDB开始
19:34:37 000	<LAYER 1-1-2> INFO:CS(1)		(7456MB)		(SAMSUNG)
19:34:37 013	Layer<6,1-1-2>:准备IDB成功
19:34:37 019	Layer<6,1-1-2>:下载IDB开始
19:34:37 866	Layer<6,1-1-2>:下载IDB成功
19:34:37 874	Layer<6,1-1-2>:重启设备开始
19:34:38 878	Layer<6,1-1-2>:重启设备成功
19:34:38 890	Layer<6,1-1-2>:等待Loader开始
19:34:41 593	Layer<6,1-1-2>:等待Loader成功
19:34:41 603	Layer<6,1-1-2>:测试设备开始
19:34:41 614	Layer<6,1-1-2>:测试设备成功
19:34:41 620	Layer<6,1-1-2>:下载固件开始
19:34:41 622	<LAYER 1-1-2> INFO:Start download image,total=636368196
19:34:41 666	<LAYER 1-1-2> INFO:Start to download misc,offset=0x4000,size=49152
19:34:41 672	<LAYER 1-1-2> INFO:Start to download resource,offset=0x6000,size=370176
19:34:41 695	<LAYER 1-1-2> INFO:Start to download kernel,offset=0xe000,size=7128228
19:34:42 007	<LAYER 1-1-2> INFO:Start to download boot,offset=0x16000,size=8945664
19:34:42 393	<LAYER 1-1-2> INFO:Start to download recovery,offset=0x26000,size=10551296
19:34:42 873	<LAYER 1-1-2> INFO:Start to download system,offset=0x92000,size=609316864
19:35:28 193	Layer<6,1-1-2>:下载固件成功
19:35:28 202	Layer<6,1-1-2>:重启设备开始
19:35:28 209	Layer<6,1-1-2>:重启设备成功
19:35:28 222	Layer<6,1-1-2>:升级成功
