09:45:36 513	Factory Tool v1.3.7.0 start run
09:46:53 649	Layer<6,1-1-2>:测试设备开始
09:46:53 694	Layer<6,1-1-2>:测试设备成功
09:46:53 701	Layer<6,1-1-2>:校验芯片开始
09:46:53 716	Layer<6,1-1-2>:校验芯片成功
09:46:53 721	Layer<6,1-1-2>:获取FlashInfo开始
09:46:53 724	<LAYER 1-1-2> INFO:FlashInfo: 00 00 E9 00 00 04 04 00 28 00 01
09:46:53 728	Layer<6,1-1-2>:获取FlashInfo成功
09:46:53 733	Layer<6,1-1-2>:准备IDB开始
09:46:53 771	<LAYER 1-1-2> INFO:CS(1)		(7456MB)		(SAMSUNG)
09:46:53 787	Layer<6,1-1-2>:准备IDB成功
09:46:53 791	Layer<6,1-1-2>:下载IDB开始
09:46:54 695	Layer<6,1-1-2>:下载IDB成功
09:46:54 700	Layer<6,1-1-2>:重启设备开始
09:46:55 704	Layer<6,1-1-2>:重启设备成功
09:46:55 711	Layer<6,1-1-2>:等待Loader开始
09:47:05 710	Layer<6,1-1-2>:等待Loader成功
09:47:05 717	Layer<6,1-1-2>:测试设备开始
09:47:05 722	Layer<6,1-1-2>:测试设备成功
09:47:05 728	Layer<6,1-1-2>:下载固件开始
09:47:05 749	<LAYER 1-1-2> INFO:Start download image,total=636319572
09:47:05 805	<LAYER 1-1-2> INFO:Start to download misc,offset=0x4000,size=49152
09:47:05 838	<LAYER 1-1-2> INFO:Start to download resource,offset=0x6000,size=369664
09:47:05 920	<LAYER 1-1-2> INFO:Start to download kernel,offset=0xe000,size=7125172
09:47:06 458	<LAYER 1-1-2> INFO:Start to download boot,offset=0x16000,size=8929280
09:47:06 998	<LAYER 1-1-2> INFO:Start to download recovery,offset=0x26000,size=10534912
09:47:07 529	<LAYER 1-1-2> INFO:Start to download system,offset=0x92000,size=609304576
09:48:00 305	Layer<6,1-1-2>:下载固件成功
09:48:00 338	Layer<6,1-1-2>:重启设备开始
09:48:00 344	Layer<6,1-1-2>:重启设备成功
09:48:00 362	Layer<6,1-1-2>:升级成功
09:49:06 417	Layer<6,1-1-2>:测试设备开始
09:49:06 424	Layer<6,1-1-2>:测试设备成功
09:49:06 431	Layer<6,1-1-2>:校验芯片开始
09:49:06 437	Layer<6,1-1-2>:校验芯片成功
09:49:06 444	Layer<6,1-1-2>:获取FlashInfo开始
09:49:06 447	<LAYER 1-1-2> INFO:FlashInfo: 00 00 E9 00 00 04 04 00 28 00 01
09:49:06 451	Layer<6,1-1-2>:获取FlashInfo成功
09:49:06 458	Layer<6,1-1-2>:准备IDB开始
09:49:06 460	<LAYER 1-1-2> INFO:CS(1)		(7456MB)		(SAMSUNG)
09:49:06 472	Layer<6,1-1-2>:准备IDB成功
09:49:06 479	Layer<6,1-1-2>:下载IDB开始
09:49:06 683	Error:RKU_Write-->WriteFile failed,bRet=0,err=31,size=8448,write=0
09:49:08 685	ERROR:RKU_ResetPipe-->DeviceIoControl failed,err=87
09:49:08 689	<LAYER 1-1-2> ERROR:WriteIDBlock-->RKU_WriteSector failed,RetCode(-3)
09:49:13 694	Error:RKU_Read-->ReadFile failed,bRet=1,err=0,size=13,read=0
09:49:15 696	ERROR:RKU_ResetPipe-->DeviceIoControl failed,err=87
09:49:15 698	<LAYER 1-1-2> ERROR:WriteIDBlock-->RKU_WriteSector-->RKU_EraseBlock failed,RetCode(-4)
09:49:15 702	[Error] Layer<6,1-1-2>:下载IDB失败
09:49:15 802	<LAYER 1-1-2> ERROR:BufferWriteBack-->Found IDB
09:51:37 032	Layer<6,1-1-2>:测试设备开始
09:51:37 041	Layer<6,1-1-2>:测试设备成功
09:51:37 050	Layer<6,1-1-2>:校验芯片开始
09:51:37 057	Layer<6,1-1-2>:校验芯片成功
09:51:37 063	Layer<6,1-1-2>:获取FlashInfo开始
09:51:37 065	<LAYER 1-1-2> INFO:FlashInfo: 00 00 E9 00 00 04 04 00 28 00 01
09:51:37 069	Layer<6,1-1-2>:获取FlashInfo成功
09:51:37 075	Layer<6,1-1-2>:准备IDB开始
09:51:37 077	<LAYER 1-1-2> INFO:CS(1)		(7456MB)		(SAMSUNG)
09:51:37 088	<LAYER 1-1-2> ERROR:GetIDBData-->memcmp failed,src(0),Dst(1)
09:51:37 093	<LAYER 1-1-2> ERROR:GetIDBData-->memcmp failed,src(0),Dst(1)
09:51:37 098	Layer<6,1-1-2>:准备IDB成功
09:51:37 104	Layer<6,1-1-2>:下载IDB开始
09:51:37 377	Error:RKU_Write-->WriteFile failed,bRet=0,err=31,size=31,write=0
09:51:39 379	ERROR:RKU_ResetPipe-->CreateFile \\?\USB#VID_2207&PID_320A#6&3A252BA0&0&2#{a5dcbf10-6530-11d2-901f-00c04fb951ed} failed,err=2
09:51:39 402	<LAYER 1-1-2> ERROR:WriteIDBlock-->RKU_ReadSector failed,RetCode(-3)
09:51:39 403	Error:RKU_Open-->CreateFile failed,err=2,path=\\?\USB#VID_2207&PID_320A#6&3A252BA0&0&2#{a5dcbf10-6530-11d2-901f-00c04fb951ed}
09:51:39 404	<LAYER 1-1-2> ERROR:WriteIDBlock-->RKU_ReadSector-->RKU_EraseBlock failed,RetCode(-1)
09:51:39 407	[Error] Layer<6,1-1-2>:下载IDB失败
09:51:39 408	Error:RKU_Open-->CreateFile failed,err=2,path=\\?\USB#VID_2207&PID_320A#6&3A252BA0&0&2#{a5dcbf10-6530-11d2-901f-00c04fb951ed}
09:51:39 409	<LAYER 1-1-2> ERROR:FindIDBlock-->RKU_ReadSector failed,RetCode(-1)
09:51:39 411	Error:RKU_Open-->CreateFile failed,err=2,path=\\?\USB#VID_2207&PID_320A#6&3A252BA0&0&2#{a5dcbf10-6530-11d2-901f-00c04fb951ed}
09:51:39 412	<LAYER 1-1-2> ERROR:BufferWriteBack-->RKU_EraseBlock failed,Block(5),RetCode(-1)
09:51:39 414	Error:RKU_Open-->CreateFile failed,err=2,path=\\?\USB#VID_2207&PID_320A#6&3A252BA0&0&2#{a5dcbf10-6530-11d2-901f-00c04fb951ed}
09:51:39 415	<LAYER 1-1-2> ERROR:BufferWriteBack-->RKU_EraseBlock failed,Block(6),RetCode(-1)
09:51:39 416	Error:RKU_Open-->CreateFile failed,err=2,path=\\?\USB#VID_2207&PID_320A#6&3A252BA0&0&2#{a5dcbf10-6530-11d2-901f-00c04fb951ed}
09:51:39 417	<LAYER 1-1-2> ERROR:BufferWriteBack-->RKU_EraseBlock failed,Block(7),RetCode(-1)
09:51:39 419	Error:RKU_Open-->CreateFile failed,err=2,path=\\?\USB#VID_2207&PID_320A#6&3A252BA0&0&2#{a5dcbf10-6530-11d2-901f-00c04fb951ed}
09:51:39 420	<LAYER 1-1-2> ERROR:BufferWriteBack-->RKU_EraseBlock failed,Block(8),RetCode(-1)
09:51:39 421	Error:RKU_Open-->CreateFile failed,err=2,path=\\?\USB#VID_2207&PID_320A#6&3A252BA0&0&2#{a5dcbf10-6530-11d2-901f-00c04fb951ed}
09:51:39 423	<LAYER 1-1-2> ERROR:BufferWriteBack-->RKU_EraseBlock failed,Block(9),RetCode(-1)
09:51:39 424	<LAYER 1-1-2> ERROR:BufferWriteBack failed
09:51:54 767	Layer<6,1-1-2>:测试设备开始
09:51:54 773	Layer<6,1-1-2>:测试设备成功
09:51:54 779	Layer<6,1-1-2>:校验芯片开始
09:51:54 785	Layer<6,1-1-2>:校验芯片成功
09:51:54 794	Layer<6,1-1-2>:获取FlashInfo开始
09:51:54 797	<LAYER 1-1-2> INFO:FlashInfo: 00 00 E9 00 00 04 04 00 28 00 01
09:51:54 802	Layer<6,1-1-2>:获取FlashInfo成功
09:51:54 808	Layer<6,1-1-2>:准备IDB开始
09:51:54 809	<LAYER 1-1-2> INFO:CS(1)		(7456MB)		(SAMSUNG)
09:51:54 819	<LAYER 1-1-2> ERROR:GetIDBData-->memcmp failed,src(0),Dst(1)
09:51:54 823	<LAYER 1-1-2> ERROR:GetIDBData-->memcmp failed,src(0),Dst(1)
09:51:54 826	Layer<6,1-1-2>:准备IDB成功
09:51:54 832	Layer<6,1-1-2>:下载IDB开始
09:51:55 077	Error:RKU_Read-->ReadFile failed,bRet=0,err=31,size=8448,read=0
09:51:57 078	ERROR:RKU_ResetPipe-->CreateFile \\?\USB#VID_2207&PID_320A#6&3A252BA0&0&2#{a5dcbf10-6530-11d2-901f-00c04fb951ed} failed,err=2
09:51:57 080	<LAYER 1-1-2> ERROR:WriteIDBlock-->RKU_ReadSector failed,RetCode(-4)
09:51:57 084	Error:RKU_Open-->CreateFile failed,err=2,path=\\?\USB#VID_2207&PID_320A#6&3A252BA0&0&2#{a5dcbf10-6530-11d2-901f-00c04fb951ed}
09:51:57 086	<LAYER 1-1-2> ERROR:WriteIDBlock-->RKU_ReadSector-->RKU_EraseBlock failed,RetCode(-1)
09:51:57 091	[Error] Layer<6,1-1-2>:下载IDB失败
09:51:57 094	Error:RKU_Open-->CreateFile failed,err=2,path=\\?\USB#VID_2207&PID_320A#6&3A252BA0&0&2#{a5dcbf10-6530-11d2-901f-00c04fb951ed}
09:51:57 096	<LAYER 1-1-2> ERROR:FindIDBlock-->RKU_ReadSector failed,RetCode(-1)
09:51:57 099	Error:RKU_Open-->CreateFile failed,err=2,path=\\?\USB#VID_2207&PID_320A#6&3A252BA0&0&2#{a5dcbf10-6530-11d2-901f-00c04fb951ed}
09:51:57 102	<LAYER 1-1-2> ERROR:BufferWriteBack-->RKU_EraseBlock failed,Block(5),RetCode(-1)
09:51:57 105	Error:RKU_Open-->CreateFile failed,err=2,path=\\?\USB#VID_2207&PID_320A#6&3A252BA0&0&2#{a5dcbf10-6530-11d2-901f-00c04fb951ed}
09:51:57 106	<LAYER 1-1-2> ERROR:BufferWriteBack-->RKU_EraseBlock failed,Block(6),RetCode(-1)
09:51:57 108	Error:RKU_Open-->CreateFile failed,err=2,path=\\?\USB#VID_2207&PID_320A#6&3A252BA0&0&2#{a5dcbf10-6530-11d2-901f-00c04fb951ed}
09:51:57 109	<LAYER 1-1-2> ERROR:BufferWriteBack-->RKU_EraseBlock failed,Block(7),RetCode(-1)
09:51:57 110	Error:RKU_Open-->CreateFile failed,err=2,path=\\?\USB#VID_2207&PID_320A#6&3A252BA0&0&2#{a5dcbf10-6530-11d2-901f-00c04fb951ed}
09:51:57 111	<LAYER 1-1-2> ERROR:BufferWriteBack-->RKU_EraseBlock failed,Block(8),RetCode(-1)
09:51:57 112	Error:RKU_Open-->CreateFile failed,err=2,path=\\?\USB#VID_2207&PID_320A#6&3A252BA0&0&2#{a5dcbf10-6530-11d2-901f-00c04fb951ed}
09:51:57 114	<LAYER 1-1-2> ERROR:BufferWriteBack-->RKU_EraseBlock failed,Block(9),RetCode(-1)
09:51:57 115	<LAYER 1-1-2> ERROR:BufferWriteBack failed
09:51:58 327	Layer<6,1-1-2>:测试设备开始
09:51:58 329	Error:RKU_Read-->ReadFile failed,bRet=0,err=31,size=13,read=0
09:52:00 331	ERROR:RKU_ResetPipe-->DeviceIoControl failed,err=87
09:52:00 333	<LAYER 1-1-2> ERROR:TestDevice-->RKU_TestDeviceReady failed,RetCode(-4),path=\\?\USB#VID_2207&PID_320A#6&3A252BA0&0&2#{a5dcbf10-6530-11d2-901f-00c04fb951ed}
09:52:06 336	Error:RKU_Read-->ReadFile failed,bRet=1,err=0,size=13,read=0
09:52:08 340	ERROR:RKU_ResetPipe-->DeviceIoControl failed,err=87
09:52:08 343	<LAYER 1-1-2> ERROR:TestDevice-->RKU_TestDeviceReady failed,RetCode(-4),path=\\?\USB#VID_2207&PID_320A#6&3A252BA0&0&2#{a5dcbf10-6530-11d2-901f-00c04fb951ed}
09:52:14 345	Error:RKU_Write-->WriteFile failed,bRet=1,err=0,size=31,write=0
09:52:16 348	ERROR:RKU_ResetPipe-->DeviceIoControl failed,err=87
09:52:16 350	<LAYER 1-1-2> ERROR:TestDevice-->RKU_TestDeviceReady failed,RetCode(-3),path=\\?\USB#VID_2207&PID_320A#6&3A252BA0&0&2#{a5dcbf10-6530-11d2-901f-00c04fb951ed}
09:52:17 355	[Error] Layer<6,1-1-2>:测试设备失败
09:52:35 893	Layer<6,1-1-2>:测试设备开始
09:52:35 899	Layer<6,1-1-2>:测试设备成功
09:52:35 905	Layer<6,1-1-2>:校验芯片开始
09:52:35 911	Layer<6,1-1-2>:校验芯片成功
09:52:35 917	Layer<6,1-1-2>:获取FlashInfo开始
09:52:35 919	<LAYER 1-1-2> INFO:FlashInfo: 00 00 E9 00 00 04 04 00 28 00 01
09:52:35 922	Layer<6,1-1-2>:获取FlashInfo成功
09:52:35 928	Layer<6,1-1-2>:准备IDB开始
09:52:35 930	<LAYER 1-1-2> INFO:CS(1)		(7456MB)		(SAMSUNG)
09:52:35 941	Layer<6,1-1-2>:准备IDB成功
09:52:35 947	Layer<6,1-1-2>:下载IDB开始
09:52:36 911	Layer<6,1-1-2>:下载IDB成功
09:52:36 918	Layer<6,1-1-2>:重启设备开始
09:52:37 923	Layer<6,1-1-2>:重启设备成功
09:52:37 933	Layer<6,1-1-2>:等待Loader开始
09:52:40 305	Layer<6,1-1-2>:等待Loader成功
09:52:40 311	Layer<6,1-1-2>:测试设备开始
09:52:40 316	Layer<6,1-1-2>:测试设备成功
09:52:40 325	Layer<6,1-1-2>:下载固件开始
09:52:40 356	<LAYER 1-1-2> INFO:Start download image,total=636319572
09:52:40 401	<LAYER 1-1-2> INFO:Start to download misc,offset=0x4000,size=49152
09:52:40 421	<LAYER 1-1-2> INFO:Start to download resource,offset=0x6000,size=369664
09:52:40 497	<LAYER 1-1-2> INFO:Start to download kernel,offset=0xe000,size=7125172
09:52:40 922	<LAYER 1-1-2> INFO:Start to download boot,offset=0x16000,size=8929280
09:52:41 333	<LAYER 1-1-2> INFO:Start to download recovery,offset=0x26000,size=10534912
09:52:41 814	<LAYER 1-1-2> INFO:Start to download system,offset=0x92000,size=609304576
09:53:31 051	Layer<6,1-1-2>:下载固件成功
09:53:31 093	Layer<6,1-1-2>:重启设备开始
09:53:31 099	Layer<6,1-1-2>:重启设备成功
09:53:31 117	Layer<6,1-1-2>:升级成功
19:12:45 891	Factory Tool v1.3.7.0 start run
19:13:37 092	Layer<6,1-1-2>:测试设备开始
19:13:37 220	Error:RKU_Open-->CreateFile failed,err=2,path=\\?\USB#VID_2207&PID_320A#6&3A252BA0&0&2#{a5dcbf10-6530-11d2-901f-00c04fb951ed}
19:13:37 223	<LAYER 1-1-2> ERROR:TestDevice-->RKU_TestDeviceReady failed,RetCode(-1),path=\\?\USB#VID_2207&PID_320A#6&3A252BA0&0&2#{a5dcbf10-6530-11d2-901f-00c04fb951ed}
19:13:38 228	Layer<6,1-1-2>:测试设备成功
19:13:38 240	Layer<6,1-1-2>:校验芯片开始
19:13:38 250	Layer<6,1-1-2>:校验芯片成功
19:13:38 261	Layer<6,1-1-2>:获取FlashInfo开始
19:13:38 265	<LAYER 1-1-2> INFO:FlashInfo: 00 00 E9 00 00 04 04 00 28 00 01
19:13:38 269	Layer<6,1-1-2>:获取FlashInfo成功
19:13:38 275	Layer<6,1-1-2>:准备IDB开始
19:13:38 317	<LAYER 1-1-2> INFO:CS(1)		(7456MB)		(SAMSUNG)
19:13:38 332	Layer<6,1-1-2>:准备IDB成功
19:13:38 339	Layer<6,1-1-2>:下载IDB开始
19:13:39 313	Layer<6,1-1-2>:下载IDB成功
19:13:39 321	Layer<6,1-1-2>:重启设备开始
19:13:40 324	Layer<6,1-1-2>:重启设备成功
19:13:40 330	Layer<6,1-1-2>:等待Loader开始
19:13:42 464	Layer<6,1-1-2>:等待Loader成功
19:13:42 473	Layer<6,1-1-2>:测试设备开始
19:13:42 481	Layer<6,1-1-2>:测试设备成功
19:13:42 488	Layer<6,1-1-2>:下载固件开始
19:13:42 558	<LAYER 1-1-2> INFO:Start download image,total=636319572
19:13:42 611	<LAYER 1-1-2> INFO:Start to download misc,offset=0x4000,size=49152
19:13:42 636	<LAYER 1-1-2> INFO:Start to download resource,offset=0x6000,size=369664
19:13:42 662	<LAYER 1-1-2> INFO:Start to download kernel,offset=0xe000,size=7125172
19:13:43 057	<LAYER 1-1-2> INFO:Start to download boot,offset=0x16000,size=8929280
19:13:43 495	<LAYER 1-1-2> INFO:Start to download recovery,offset=0x26000,size=10534912
19:13:43 980	<LAYER 1-1-2> INFO:Start to download system,offset=0x92000,size=609304576
19:14:30 336	Layer<6,1-1-2>:下载固件成功
19:14:30 366	Layer<6,1-1-2>:重启设备开始
19:14:30 371	Layer<6,1-1-2>:重启设备成功
19:14:30 411	Layer<6,1-1-2>:升级成功
