19:09:00 347	Factory Tool v1.3.7.0 start run
19:10:19 602	Layer<2,1-2>:测试设备开始
19:10:19 608	Layer<2,1-2>:测试设备成功
19:10:19 612	Layer<2,1-2>:校验芯片开始
19:10:19 616	Layer<2,1-2>:校验芯片成功
19:10:19 619	Layer<2,1-2>:获取FlashInfo开始
19:10:19 619	<LAYER 1-2> INFO:FlashInfo: 00 00 E9 00 00 04 04 00 28 00 01
19:10:19 623	Layer<2,1-2>:获取FlashInfo成功
19:10:19 627	Layer<2,1-2>:准备IDB开始
19:10:19 629	<LAYER 1-2> INFO:CS(1)		(7456MB)		(SAMSUNG)
19:10:19 635	Layer<2,1-2>:准备IDB成功
19:10:19 641	Layer<2,1-2>:下载IDB开始
19:10:20 317	Layer<2,1-2>:下载IDB成功
19:10:20 337	Layer<2,1-2>:重启设备开始
19:10:21 339	Layer<2,1-2>:重启设备成功
19:10:21 361	Layer<2,1-2>:等待Loader开始
19:10:22 352	Layer<2,1-2>:等待Loader成功
19:10:22 382	Layer<2,1-2>:测试设备开始
19:10:22 400	Layer<2,1-2>:测试设备成功
19:10:22 413	Layer<2,1-2>:下载固件开始
19:10:22 415	<LAYER 1-2> INFO:Start download image,total=634558196
19:10:22 484	<LAYER 1-2> INFO:Start to download misc,offset=0x4000,size=49152
19:10:22 490	<LAYER 1-2> INFO:Start to download resource,offset=0x6000,size=370176
19:10:22 503	<LAYER 1-2> INFO:Start to download kernel,offset=0xe000,size=7128660
19:10:22 783	<LAYER 1-2> INFO:Start to download boot,offset=0x16000,size=8945664
19:10:23 128	<LAYER 1-2> INFO:Start to download recovery,offset=0x26000,size=10551296
19:10:23 577	<LAYER 1-2> INFO:Start to download system,offset=0x92000,size=607506432
19:11:07 858	Layer<2,1-2>:下载固件成功
19:11:07 871	Layer<2,1-2>:重启设备开始
19:11:07 878	Layer<2,1-2>:重启设备成功
19:11:07 886	Layer<2,1-2>:升级成功
