15:04:07 228	Factory Tool v1.3.7.0 start run
15:04:47 954	Layer<2,1-2>:测试设备开始
15:04:47 961	Layer<2,1-2>:测试设备成功
15:04:47 967	Layer<2,1-2>:校验芯片开始
15:04:47 970	Layer<2,1-2>:校验芯片成功
15:04:47 973	Layer<2,1-2>:获取FlashInfo开始
15:04:47 974	<LAYER 1-2> INFO:FlashInfo: 00 00 E9 00 00 04 04 00 28 00 01
15:04:47 977	Layer<2,1-2>:获取FlashInfo成功
15:04:47 981	Layer<2,1-2>:准备IDB开始
15:04:47 982	<LAYER 1-2> INFO:CS(1)		(7456MB)		(SAMSUNG)
15:04:47 988	Layer<2,1-2>:准备IDB成功
15:04:47 993	Layer<2,1-2>:下载IDB开始
15:04:48 697	Layer<2,1-2>:下载IDB成功
15:04:48 715	Layer<2,1-2>:重启设备开始
15:04:49 724	Layer<2,1-2>:重启设备成功
15:04:49 808	Layer<2,1-2>:等待Loader开始
15:04:50 759	Layer<2,1-2>:等待Loader成功
15:04:50 763	Layer<2,1-2>:测试设备开始
15:04:50 765	Layer<2,1-2>:测试设备成功
15:04:50 770	Layer<2,1-2>:下载固件开始
15:04:50 771	<LAYER 1-2> INFO:Start download image,total=634858332
15:04:50 798	<LAYER 1-2> INFO:Start to download misc,offset=0x4000,size=49152
15:04:50 802	<LAYER 1-2> INFO:Start to download resource,offset=0x6000,size=370176
15:04:50 826	<LAYER 1-2> INFO:Start to download kernel,offset=0xe000,size=7133884
15:04:51 123	<LAYER 1-2> INFO:Start to download boot,offset=0x16000,size=8945664
15:04:51 503	<LAYER 1-2> INFO:Start to download recovery,offset=0x26000,size=10551296
15:04:51 961	<LAYER 1-2> INFO:Start to download system,offset=0x92000,size=607801344
15:05:36 094	Layer<2,1-2>:下载固件成功
15:05:36 115	Layer<2,1-2>:重启设备开始
15:05:36 132	Layer<2,1-2>:重启设备成功
15:05:36 185	Layer<2,1-2>:升级成功
15:06:32 871	Layer<2,1-2>:测试设备开始
15:06:32 881	Layer<2,1-2>:测试设备成功
15:06:32 893	Layer<2,1-2>:校验芯片开始
15:06:32 905	Layer<2,1-2>:校验芯片成功
15:06:32 912	Layer<2,1-2>:获取FlashInfo开始
15:06:32 913	<LAYER 1-2> INFO:FlashInfo: 00 00 E9 00 00 04 04 00 28 00 01
15:06:32 918	Layer<2,1-2>:获取FlashInfo成功
15:06:32 921	Layer<2,1-2>:准备IDB开始
15:06:32 922	<LAYER 1-2> INFO:CS(1)		(7456MB)		(SAMSUNG)
15:06:32 927	Layer<2,1-2>:准备IDB成功
15:06:32 930	Layer<2,1-2>:下载IDB开始
15:06:33 652	Layer<2,1-2>:下载IDB成功
15:06:33 680	Layer<2,1-2>:重启设备开始
15:06:34 685	Layer<2,1-2>:重启设备成功
15:06:34 770	Layer<2,1-2>:等待Loader开始
15:06:35 747	Layer<2,1-2>:等待Loader成功
15:06:35 769	Layer<2,1-2>:测试设备开始
15:06:35 795	Layer<2,1-2>:测试设备成功
15:06:35 825	Layer<2,1-2>:下载固件开始
15:06:35 826	<LAYER 1-2> INFO:Start download image,total=634858332
15:06:35 889	<LAYER 1-2> INFO:Start to download misc,offset=0x4000,size=49152
15:06:35 893	<LAYER 1-2> INFO:Start to download resource,offset=0x6000,size=370176
15:06:35 906	<LAYER 1-2> INFO:Start to download kernel,offset=0xe000,size=7133884
15:06:36 206	<LAYER 1-2> INFO:Start to download boot,offset=0x16000,size=8945664
15:06:36 586	<LAYER 1-2> INFO:Start to download recovery,offset=0x26000,size=10551296
15:06:37 033	<LAYER 1-2> INFO:Start to download system,offset=0x92000,size=607801344
15:07:21 401	Layer<2,1-2>:下载固件成功
15:07:21 414	Layer<2,1-2>:重启设备开始
15:07:21 424	Layer<2,1-2>:重启设备成功
15:07:21 466	Layer<2,1-2>:升级成功
