11:09:48 433	ERROR:Search_ADB-->CM_Get_Sibling failed(0xd)
11:09:49 239	ERROR:Search_ADB-->CM_Get_Sibling failed(0xd)
18:38:08 887	ERROR:Search_ADB-->CM_Get_Sibling failed(0xd)
18:38:09 272	ERROR:Search_ADB-->CM_Get_Sibling failed(0xd)
18:41:42 402	ERROR:Search_ADB-->CM_Get_Child failed(0xd)
18:44:49 799	ERROR:Search_ADB-->CM_Get_Sibling failed(0xd)
18:45:18 123	Error:EnumerateHubPorts-->DeviceIoControl failed,err=0x48f
